lab_data/5 - 40/TEK00010.CSV

Model,TBS1102C
Firmware Version,v2015-08-04-prequal4ch70_v1.3

Point Format,Y
Horizontal Units,S
Horizontal Scale,0.04
Sample Interval,0.00032
Filter Frequency,2e+08
Record Length,2000
Gating,0.0% to 100.0%
Probe Attenuation,1
Vertical Units,V
Vertical Offset,1
Vertical Scale,0.2
Label,
TIME,CH1
-3.194e-01,1.808
-3.190e-01,1.808
-3.187e-01,1.816
-3.184e-01,1.816
-3.181e-01,1.816
-3.178e-01,1.816
-3.174e-01,1.808
-3.171e-01,1.8
-3.168e-01,1.8
-3.165e-01,1.8
-3.162e-01,1.792
-3.158e-01,1.792
-3.155e-01,1.784
-3.152e-01,1.784
-3.149e-01,1.792
-3.146e-01,1.784
-3.142e-01,1.784
-3.139e-01,1.792
-3.136e-01,1.776
-3.133e-01,1.784
-3.130e-01,1.784
-3.126e-01,1.776
-3.123e-01,1.776
-3.120e-01,1.776
-3.117e-01,1.776
-3.114e-01,1.776
-3.110e-01,1.776
-3.107e-01,1.776
-3.104e-01,1.784
-3.101e-01,1.776
-3.098e-01,1.76
-3.094e-01,1.744
-3.091e-01,1.752
-3.088e-01,1.752
-3.085e-01,1.744
-3.082e-01,1.744
-3.078e-01,1.76
-3.075e-01,1.76
-3.072e-01,1.76
-3.069e-01,1.76
-3.066e-01,1.768
-3.062e-01,1.768
-3.059e-01,1.776
-3.056e-01,1.776
-3.053e-01,1.776
-3.050e-01,1.768
-3.046e-01,1.776
-3.043e-01,1.776
-3.040e-01,1.784
-3.037e-01,1.784
-3.034e-01,1.776
-3.030e-01,1.784
-3.027e-01,1.784
-3.024e-01,1.784
-3.021e-01,1.784
-3.018e-01,1.784
-3.014e-01,1.784
-3.011e-01,1.784
-3.008e-01,1.784
-3.005e-01,1.792
-3.002e-01,1.784
-2.998e-01,1.808
-2.995e-01,1.808
-2.992e-01,1.808
-2.989e-01,1.816
-2.986e-01,1.816
-2.982e-01,1.816
-2.979e-01,1.816
-2.976e-01,1.808
-2.973e-01,1.808
-2.970e-01,1.808
-2.966e-01,1.8
-2.963e-01,1.792
-2.960e-01,1.792
-2.957e-01,1.792
-2.954e-01,1.8
-2.950e-01,1.8
-2.947e-01,1.792
-2.944e-01,1.784
-2.941e-01,1.776
-2.938e-01,1.784
-2.934e-01,1.776
-2.931e-01,1.784
-2.928e-01,1.784
-2.925e-01,1.784
-2.922e-01,1.784
-2.918e-01,1.784
-2.915e-01,1.784
-2.912e-01,1.776
-2.909e-01,1.776
-2.906e-01,1.776
-2.902e-01,1.776
-2.899e-01,1.76
-2.896e-01,1.76
-2.893e-01,1.76
-2.890e-01,1.744
-2.886e-01,1.744
-2.883e-01,1.752
-2.880e-01,1.752
-2.877e-01,1.752
-2.874e-01,1.76
-2.870e-01,1.76
-2.867e-01,1.76
-2.864e-01,1.768
-2.861e-01,1.776
-2.858e-01,1.776
-2.854e-01,1.776
-2.851e-01,1.768
-2.848e-01,1.776
-2.845e-01,1.776
-2.842e-01,1.784
-2.838e-01,1.776
-2.835e-01,1.784
-2.832e-01,1.792
-2.829e-01,1.792
-2.826e-01,1.792
-2.822e-01,1.784
-2.819e-01,1.784
-2.816e-01,1.784
-2.813e-01,1.784
-2.810e-01,1.784
-2.806e-01,1.792
-2.803e-01,1.792
-2.800e-01,1.792
-2.797e-01,1.808
-2.794e-01,1.816
-2.790e-01,1.816
-2.787e-01,1.816
-2.784e-01,1.808
-2.781e-01,1.816
-2.778e-01,1.808
-2.774e-01,1.808
-2.771e-01,1.808
-2.768e-01,1.808
-2.765e-01,1.8
-2.762e-01,1.792
-2.758e-01,1.8
-2.755e-01,1.8
-2.752e-01,1.8
-2.749e-01,1.792
-2.746e-01,1.784
-2.742e-01,1.784
-2.739e-01,1.784
-2.736e-01,1.784
-2.733e-01,1.776
-2.730e-01,1.784
-2.726e-01,1.784
-2.723e-01,1.776
-2.720e-01,1.784
-2.717e-01,1.776
-2.714e-01,1.776
-2.710e-01,1.784
-2.707e-01,1.784
-2.704e-01,1.784
-2.701e-01,1.776
-2.698e-01,1.76
-2.694e-01,1.752
-2.691e-01,1.752
-2.688e-01,1.752
-2.685e-01,1.744
-2.682e-01,1.744
-2.678e-01,1.76
-2.675e-01,1.752
-2.672e-01,1.76
-2.669e-01,1.752
-2.666e-01,1.768
-2.662e-01,1.776
-2.659e-01,1.768
-2.656e-01,1.776
-2.653e-01,1.776
-2.650e-01,1.776
-2.646e-01,1.776
-2.643e-01,1.784
-2.640e-01,1.784
-2.637e-01,1.784
-2.634e-01,1.784
-2.630e-01,1.784
-2.627e-01,1.792
-2.624e-01,1.784
-2.621e-01,1.792
-2.618e-01,1.776
-2.614e-01,1.784
-2.611e-01,1.792
-2.608e-01,1.784
-2.605e-01,1.784
-2.602e-01,1.792
-2.598e-01,1.808
-2.595e-01,1.808
-2.592e-01,1.816
-2.589e-01,1.816
-2.586e-01,1.824
-2.582e-01,1.816
-2.579e-01,1.824
-2.576e-01,1.808
-2.573e-01,1.808
-2.570e-01,1.808
-2.566e-01,1.8
-2.563e-01,1.792
-2.560e-01,1.8
-2.557e-01,1.8
-2.554e-01,1.8
-2.550e-01,1.8
-2.547e-01,1.792
-2.544e-01,1.784
-2.541e-01,1.784
-2.538e-01,1.784
-2.534e-01,1.784
-2.531e-01,1.784
-2.528e-01,1.776
-2.525e-01,1.784
-2.522e-01,1.784
-2.518e-01,1.784
-2.515e-01,1.792
-2.512e-01,1.784
-2.509e-01,1.784
-2.506e-01,1.784
-2.502e-01,1.784
-2.499e-01,1.776
-2.496e-01,1.76
-2.493e-01,1.752
-2.490e-01,1.76
-2.486e-01,1.744
-2.483e-01,1.752
-2.480e-01,1.752
-2.477e-01,1.768
-2.474e-01,1.76
-2.470e-01,1.76
-2.467e-01,1.76
-2.464e-01,1.776
-2.461e-01,1.776
-2.458e-01,1.784
-2.454e-01,1.784
-2.451e-01,1.784
-2.448e-01,1.776
-2.445e-01,1.784
-2.442e-01,1.784
-2.438e-01,1.784
-2.435e-01,1.784
-2.432e-01,1.792
-2.429e-01,1.8
-2.426e-01,1.792
-2.422e-01,1.792
-2.419e-01,1.792
-2.416e-01,1.792
-2.413e-01,1.8
-2.410e-01,1.792
-2.406e-01,1.792
-2.403e-01,1.792
-2.400e-01,1.8
-2.397e-01,1.808
-2.394e-01,1.824
-2.390e-01,1.824
-2.387e-01,1.824
-2.384e-01,1.824
-2.381e-01,1.824
-2.378e-01,1.816
-2.374e-01,1.816
-2.371e-01,1.816
-2.368e-01,1.808
-2.365e-01,1.808
-2.362e-01,1.8
-2.358e-01,1.808
-2.355e-01,1.8
-2.352e-01,1.8
-2.349e-01,1.8
-2.346e-01,1.792
-2.342e-01,1.8
-2.339e-01,1.8
-2.336e-01,1.8
-2.333e-01,1.792
-2.330e-01,1.784
-2.326e-01,1.784
-2.323e-01,1.792
-2.320e-01,1.792
-2.317e-01,1.8
-2.314e-01,1.792
-2.310e-01,1.792
-2.307e-01,1.792
-2.304e-01,1.792
-2.301e-01,1.792
-2.298e-01,1.776
-2.294e-01,1.776
-2.291e-01,1.768
-2.288e-01,1.76
-2.285e-01,1.76
-2.282e-01,1.768
-2.278e-01,1.776
-2.275e-01,1.784
-2.272e-01,1.784
-2.269e-01,1.784
-2.266e-01,1.784
-2.262e-01,1.8
-2.259e-01,1.8
-2.256e-01,1.8
-2.253e-01,1.8
-2.250e-01,1.808
-2.246e-01,1.808
-2.243e-01,1.808
-2.240e-01,1.816
-2.237e-01,1.808
-2.234e-01,1.816
-2.230e-01,1.816
-2.227e-01,1.816
-2.224e-01,1.816
-2.221e-01,1.816
-2.218e-01,1.816
-2.214e-01,1.816
-2.211e-01,1.824
-2.208e-01,1.816
-2.205e-01,1.824
-2.202e-01,1.824
-2.198e-01,1.832
-2.195e-01,1.856
-2.192e-01,1.856
-2.189e-01,1.856
-2.186e-01,1.864
-2.182e-01,1.864
-2.179e-01,1.856
-2.176e-01,1.848
-2.173e-01,1.856
-2.170e-01,1.848
-2.166e-01,1.84
-2.163e-01,1.84
-2.160e-01,1.84
-2.157e-01,1.84
-2.154e-01,1.848
-2.150e-01,1.84
-2.147e-01,1.84
-2.144e-01,1.832
-2.141e-01,1.832
-2.138e-01,1.832
-2.134e-01,1.824
-2.131e-01,1.824
-2.128e-01,1.832
-2.125e-01,1.832
-2.122e-01,1.824
-2.118e-01,1.832
-2.115e-01,1.832
-2.112e-01,1.832
-2.109e-01,1.824
-2.106e-01,1.832
-2.102e-01,1.824
-2.099e-01,1.816
-2.096e-01,1.808
-2.093e-01,1.8
-2.090e-01,1.8
-2.086e-01,1.8
-2.083e-01,1.8
-2.080e-01,1.8
-2.077e-01,1.792
-2.074e-01,1.8
-2.070e-01,1.808
-2.067e-01,1.808
-2.064e-01,1.816
-2.061e-01,1.808
-2.058e-01,1.816
-2.054e-01,1.816
-2.051e-01,1.808
-2.048e-01,1.808
-2.045e-01,1.808
-2.042e-01,1.816
-2.038e-01,1.816
-2.035e-01,1.824
-2.032e-01,1.824
-2.029e-01,1.816
-2.026e-01,1.816
-2.022e-01,1.816
-2.019e-01,1.816
-2.016e-01,1.816
-2.013e-01,1.816
-2.010e-01,1.816
-2.006e-01,1.816
-2.003e-01,1.816
-2.000e-01,1.824
-1.997e-01,1.832
-1.994e-01,1.824
-1.990e-01,1.84
-1.987e-01,1.832
-1.984e-01,1.832
-1.981e-01,1.824
-1.978e-01,1.824
-1.974e-01,1.816
-1.971e-01,1.816
-1.968e-01,1.808
-1.965e-01,1.8
-1.962e-01,1.8
-1.958e-01,1.8
-1.955e-01,1.792
-1.952e-01,1.792
-1.949e-01,1.784
-1.946e-01,1.784
-1.942e-01,1.784
-1.939e-01,1.776
-1.936e-01,1.768
-1.933e-01,1.768
-1.930e-01,1.768
-1.926e-01,1.76
-1.923e-01,1.76
-1.920e-01,1.76
-1.917e-01,1.76
-1.914e-01,1.76
-1.910e-01,1.76
-1.907e-01,1.752
-1.904e-01,1.752
-1.901e-01,1.736
-1.898e-01,1.728
-1.894e-01,1.72
-1.891e-01,1.712
-1.888e-01,1.704
-1.885e-01,1.704
-1.882e-01,1.704
-1.878e-01,1.704
-1.875e-01,1.704
-1.872e-01,1.704
-1.869e-01,1.704
-1.866e-01,1.712
-1.862e-01,1.712
-1.859e-01,1.704
-1.856e-01,1.704
-1.853e-01,1.704
-1.850e-01,1.712
-1.846e-01,1.704
-1.843e-01,1.704
-1.840e-01,1.696
-1.837e-01,1.696
-1.834e-01,1.704
-1.830e-01,1.696
-1.827e-01,1.688
-1.824e-01,1.688
-1.821e-01,1.688
-1.818e-01,1.672
-1.814e-01,1.688
-1.811e-01,1.68
-1.808e-01,1.68
-1.805e-01,1.68
-1.802e-01,1.68
-1.798e-01,1.68
-1.795e-01,1.688
-1.792e-01,1.696
-1.789e-01,1.688
-1.786e-01,1.688
-1.782e-01,1.68
-1.779e-01,1.68
-1.776e-01,1.672
-1.773e-01,1.68
-1.770e-01,1.656
-1.766e-01,1.648
-1.763e-01,1.648
-1.760e-01,1.648
-1.757e-01,1.64
-1.754e-01,1.64
-1.750e-01,1.632
-1.747e-01,1.624
-1.744e-01,1.624
-1.741e-01,1.624
-1.738e-01,1.616
-1.734e-01,1.616
-1.731e-01,1.616
-1.728e-01,1.608
-1.725e-01,1.608
-1.722e-01,1.608
-1.718e-01,1.592
-1.715e-01,1.6
-1.712e-01,1.592
-1.709e-01,1.584
-1.706e-01,1.576
-1.702e-01,1.584
-1.699e-01,1.568
-1.696e-01,1.56
-1.693e-01,1.552
-1.690e-01,1.552
-1.686e-01,1.536
-1.683e-01,1.544
-1.680e-01,1.536
-1.677e-01,1.544
-1.674e-01,1.544
-1.670e-01,1.536
-1.667e-01,1.544
-1.664e-01,1.552
-1.661e-01,1.552
-1.658e-01,1.552
-1.654e-01,1.552
-1.651e-01,1.544
-1.648e-01,1.544
-1.645e-01,1.544
-1.642e-01,1.544
-1.638e-01,1.544
-1.635e-01,1.536
-1.632e-01,1.544
-1.629e-01,1.552
-1.626e-01,1.536
-1.622e-01,1.528
-1.619e-01,1.528
-1.616e-01,1.536
-1.613e-01,1.536
-1.610e-01,1.528
-1.606e-01,1.528
-1.603e-01,1.536
-1.600e-01,1.536
-1.597e-01,1.552
-1.594e-01,1.552
-1.590e-01,1.544
-1.587e-01,1.56
-1.584e-01,1.552
-1.581e-01,1.552
-1.578e-01,1.536
-1.574e-01,1.536
-1.571e-01,1.536
-1.568e-01,1.528
-1.565e-01,1.528
-1.562e-01,1.52
-1.558e-01,1.52
-1.555e-01,1.528
-1.552e-01,1.512
-1.549e-01,1.512
-1.546e-01,1.52
-1.542e-01,1.512
-1.539e-01,1.512
-1.536e-01,1.504
-1.533e-01,1.504
-1.530e-01,1.504
-1.526e-01,1.504
-1.523e-01,1.512
-1.520e-01,1.496
-1.517e-01,1.504
-1.514e-01,1.512
-1.510e-01,1.512
-1.507e-01,1.504
-1.504e-01,1.496
-1.501e-01,1.488
-1.498e-01,1.488
-1.494e-01,1.48
-1.491e-01,1.48
-1.488e-01,1.464
-1.485e-01,1.472
-1.482e-01,1.48
-1.478e-01,1.48
-1.475e-01,1.488
-1.472e-01,1.488
-1.469e-01,1.496
-1.466e-01,1.496
-1.462e-01,1.504
-1.459e-01,1.504
-1.456e-01,1.504
-1.453e-01,1.504
-1.450e-01,1.512
-1.446e-01,1.512
-1.443e-01,1.512
-1.440e-01,1.512
-1.437e-01,1.528
-1.434e-01,1.52
-1.430e-01,1.52
-1.427e-01,1.52
-1.424e-01,1.528
-1.421e-01,1.528
-1.418e-01,1.536
-1.414e-01,1.528
-1.411e-01,1.544
-1.408e-01,1.536
-1.405e-01,1.536
-1.402e-01,1.536
-1.398e-01,1.552
-1.395e-01,1.568
-1.392e-01,1.576
-1.389e-01,1.576
-1.386e-01,1.576
-1.382e-01,1.584
-1.379e-01,1.568
-1.376e-01,1.576
-1.373e-01,1.576
-1.370e-01,1.576
-1.366e-01,1.568
-1.363e-01,1.568
-1.360e-01,1.576
-1.357e-01,1.568
-1.354e-01,1.568
-1.350e-01,1.576
-1.347e-01,1.568
-1.344e-01,1.576
-1.341e-01,1.576
-1.338e-01,1.576
-1.334e-01,1.568
-1.331e-01,1.576
-1.328e-01,1.568
-1.325e-01,1.584
-1.322e-01,1.584
-1.318e-01,1.584
-1.315e-01,1.576
-1.312e-01,1.592
-1.309e-01,1.584
-1.306e-01,1.592
-1.302e-01,1.592
-1.299e-01,1.592
-1.296e-01,1.584
-1.293e-01,1.576
-1.290e-01,1.576
-1.286e-01,1.576
-1.283e-01,1.584
-1.280e-01,1.592
-1.277e-01,1.584
-1.274e-01,1.592
-1.270e-01,1.6
-1.267e-01,1.616
-1.264e-01,1.624
-1.261e-01,1.624
-1.258e-01,1.632
-1.254e-01,1.64
-1.251e-01,1.64
-1.248e-01,1.64
-1.245e-01,1.64
-1.242e-01,1.648
-1.238e-01,1.648
-1.235e-01,1.656
-1.232e-01,1.656
-1.229e-01,1.664
-1.226e-01,1.664
-1.222e-01,1.68
-1.219e-01,1.672
-1.216e-01,1.68
-1.213e-01,1.68
-1.210e-01,1.688
-1.206e-01,1.696
-1.203e-01,1.696
-1.200e-01,1.688
-1.197e-01,1.72
-1.194e-01,1.728
-1.190e-01,1.728
-1.187e-01,1.736
-1.184e-01,1.736
-1.181e-01,1.736
-1.178e-01,1.736
-1.174e-01,1.744
-1.171e-01,1.736
-1.168e-01,1.728
-1.165e-01,1.728
-1.162e-01,1.736
-1.158e-01,1.744
-1.155e-01,1.744
-1.152e-01,1.744
-1.149e-01,1.736
-1.146e-01,1.752
-1.142e-01,1.752
-1.139e-01,1.752
-1.136e-01,1.744
-1.133e-01,1.744
-1.130e-01,1.76
-1.126e-01,1.76
-1.123e-01,1.76
-1.120e-01,1.76
-1.117e-01,1.76
-1.114e-01,1.776
-1.110e-01,1.776
-1.107e-01,1.776
-1.104e-01,1.768
-1.101e-01,1.768
-1.098e-01,1.76
-1.094e-01,1.76
-1.091e-01,1.76
-1.088e-01,1.76
-1.085e-01,1.76
-1.082e-01,1.768
-1.078e-01,1.776
-1.075e-01,1.776
-1.072e-01,1.784
-1.069e-01,1.792
-1.066e-01,1.8
-1.062e-01,1.808
-1.059e-01,1.8
-1.056e-01,1.816
-1.053e-01,1.824
-1.050e-01,1.824
-1.046e-01,1.824
-1.043e-01,1.824
-1.040e-01,1.832
-1.037e-01,1.84
-1.034e-01,1.84
-1.030e-01,1.848
-1.027e-01,1.84
-1.024e-01,1.848
-1.021e-01,1.856
-1.018e-01,1.848
-1.014e-01,1.864
-1.011e-01,1.856
-1.008e-01,1.864
-1.005e-01,1.872
-1.002e-01,1.872
-9.984e-02,1.88
-9.952e-02,1.896
-9.920e-02,1.904
-9.888e-02,1.904
-9.856e-02,1.912
-9.824e-02,1.912
-9.792e-02,1.904
-9.760e-02,1.904
-9.728e-02,1.912
-9.696e-02,1.912
-9.664e-02,1.904
-9.632e-02,1.904
-9.600e-02,1.904
-9.568e-02,1.912
-9.536e-02,1.904
-9.504e-02,1.904
-9.472e-02,1.912
-9.440e-02,1.904
-9.408e-02,1.904
-9.376e-02,1.912
-9.344e-02,1.904
-9.312e-02,1.904
-9.280e-02,1.912
-9.248e-02,1.912
-9.216e-02,1.92
-9.184e-02,1.92
-9.152e-02,1.92
-9.120e-02,1.92
-9.088e-02,1.92
-9.056e-02,1.928
-9.024e-02,1.92
-8.992e-02,1.912
-8.960e-02,1.904
-8.928e-02,1.904
-8.896e-02,1.896
-8.864e-02,1.904
-8.832e-02,1.904
-8.800e-02,1.912
-8.768e-02,1.92
-8.736e-02,1.912
-8.704e-02,1.92
-8.672e-02,1.928
-8.640e-02,1.936
-8.608e-02,1.936
-8.576e-02,1.936
-8.544e-02,1.944
-8.512e-02,1.944
-8.480e-02,1.952
-8.448e-02,1.944
-8.416e-02,1.944
-8.384e-02,1.944
-8.352e-02,1.96
-8.320e-02,1.96
-8.288e-02,1.952
-8.256e-02,1.952
-8.224e-02,1.952
-8.192e-02,1.96
-8.160e-02,1.952
-8.128e-02,1.96
-8.096e-02,1.96
-8.064e-02,1.96
-8.032e-02,1.96
-8.000e-02,1.968
-7.968e-02,1.976
-7.936e-02,1.976
-7.904e-02,1.984
-7.872e-02,1.984
-7.840e-02,1.984
-7.808e-02,1.984
-7.776e-02,1.976
-7.744e-02,1.968
-7.712e-02,1.968
-7.680e-02,1.96
-7.648e-02,1.952
-7.616e-02,1.944
-7.584e-02,1.952
-7.552e-02,1.952
-7.520e-02,1.936
-7.488e-02,1.936
-7.456e-02,1.944
-7.424e-02,1.936
-7.392e-02,1.936
-7.360e-02,1.928
-7.328e-02,1.92
-7.296e-02,1.92
-7.264e-02,1.912
-7.232e-02,1.92
-7.200e-02,1.912
-7.168e-02,1.912
-7.136e-02,1.92
-7.104e-02,1.912
-7.072e-02,1.912
-7.040e-02,1.904
-7.008e-02,1.896
-6.976e-02,1.888
-6.944e-02,1.88
-6.912e-02,1.872
-6.880e-02,1.864
-6.848e-02,1.856
-6.816e-02,1.864
-6.784e-02,1.864
-6.752e-02,1.864
-6.720e-02,1.864
-6.688e-02,1.864
-6.656e-02,1.864
-6.624e-02,1.872
-6.592e-02,1.864
-6.560e-02,1.864
-6.528e-02,1.872
-6.496e-02,1.856
-6.464e-02,1.856
-6.432e-02,1.856
-6.400e-02,1.856
-6.368e-02,1.848
-6.336e-02,1.856
-6.304e-02,1.848
-6.272e-02,1.84
-6.240e-02,1.848
-6.208e-02,1.84
-6.176e-02,1.84
-6.144e-02,1.832
-6.112e-02,1.824
-6.080e-02,1.824
-6.048e-02,1.824
-6.016e-02,1.816
-5.984e-02,1.824
-5.952e-02,1.832
-5.920e-02,1.84
-5.888e-02,1.84
-5.856e-02,1.832
-5.824e-02,1.824
-5.792e-02,1.824
-5.760e-02,1.816
-5.728e-02,1.816
-5.696e-02,1.8
-5.664e-02,1.792
-5.632e-02,1.784
-5.600e-02,1.776
-5.568e-02,1.784
-5.536e-02,1.776
-5.504e-02,1.768
-5.472e-02,1.768
-5.440e-02,1.76
-5.408e-02,1.752
-5.376e-02,1.752
-5.344e-02,1.744
-5.312e-02,1.752
-5.280e-02,1.744
-5.248e-02,1.736
-5.216e-02,1.736
-5.184e-02,1.736
-5.152e-02,1.736
-5.120e-02,1.736
-5.088e-02,1.728
-5.056e-02,1.72
-5.024e-02,1.72
-4.992e-02,1.704
-4.960e-02,1.704
-4.928e-02,1.688
-4.896e-02,1.68
-4.864e-02,1.696
-4.832e-02,1.688
-4.800e-02,1.68
-4.768e-02,1.68
-4.736e-02,1.688
-4.704e-02,1.696
-4.672e-02,1.704
-4.640e-02,1.704
-4.608e-02,1.704
-4.576e-02,1.704
-4.544e-02,1.72
-4.512e-02,1.712
-4.480e-02,1.712
-4.448e-02,1.712
-4.416e-02,1.712
-4.384e-02,1.72
-4.352e-02,1.72
-4.320e-02,1.72
-4.288e-02,1.72
-4.256e-02,1.728
-4.224e-02,1.728
-4.192e-02,1.736
-4.160e-02,1.728
-4.128e-02,1.736
-4.096e-02,1.744
-4.064e-02,1.744
-4.032e-02,1.752
-4.000e-02,1.752
-3.968e-02,1.768
-3.936e-02,1.776
-3.904e-02,1.784
-3.872e-02,1.792
-3.840e-02,1.784
-3.808e-02,1.792
-3.776e-02,1.792
-3.744e-02,1.792
-3.712e-02,1.792
-3.680e-02,1.792
-3.648e-02,1.792
-3.616e-02,1.792
-3.584e-02,1.792
-3.552e-02,1.784
-3.520e-02,1.792
-3.488e-02,1.8
-3.456e-02,1.8
-3.424e-02,1.8
-3.392e-02,1.808
-3.360e-02,1.808
-3.328e-02,1.8
-3.296e-02,1.824
-3.264e-02,1.824
-3.232e-02,1.824
-3.200e-02,1.832
-3.168e-02,1.832
-3.136e-02,1.84
-3.104e-02,1.848
-3.072e-02,1.848
-3.040e-02,1.856
-3.008e-02,1.848
-2.976e-02,1.848
-2.944e-02,1.848
-2.912e-02,1.848
-2.880e-02,1.848
-2.848e-02,1.856
-2.816e-02,1.864
-2.784e-02,1.872
-2.752e-02,1.872
-2.720e-02,1.888
-2.688e-02,1.904
-2.656e-02,1.912
-2.624e-02,1.92
-2.592e-02,1.928
-2.560e-02,1.936
-2.528e-02,1.944
-2.496e-02,1.952
-2.464e-02,1.96
-2.432e-02,1.96
-2.400e-02,1.976
-2.368e-02,1.984
-2.336e-02,1.992
-2.304e-02,1.992
-2.272e-02,2.008
-2.240e-02,2.016
-2.208e-02,2.016
-2.176e-02,2.024
-2.144e-02,2.024
-2.112e-02,2.04
-2.080e-02,2.048
-2.048e-02,2.048
-2.016e-02,2.056
-1.984e-02,2.08
-1.952e-02,2.104
-1.920e-02,2.104
-1.888e-02,2.112
-1.856e-02,2.12
-1.824e-02,2.12
-1.792e-02,2.136
-1.760e-02,2.136
-1.728e-02,2.136
-1.696e-02,2.144
-1.664e-02,2.136
-1.632e-02,2.144
-1.600e-02,2.152
-1.568e-02,2.152
-1.536e-02,2.152
-1.504e-02,2.16
-1.472e-02,2.168
-1.440e-02,2.176
-1.408e-02,2.168
-1.376e-02,2.176
-1.344e-02,2.176
-1.312e-02,2.184
-1.280e-02,2.192
-1.248e-02,2.2
-1.216e-02,2.208
-1.184e-02,2.216
-1.152e-02,2.224
-1.120e-02,2.224
-1.088e-02,2.224
-1.056e-02,2.232
-1.024e-02,2.24
-9.920e-03,2.224
-9.600e-03,2.232
-9.280e-03,2.224
-8.960e-03,2.224
-8.640e-03,2.232
-8.320e-03,2.24
-8.000e-03,2.24
-7.680e-03,2.248
-7.360e-03,2.256
-7.040e-03,2.272
-6.720e-03,2.28
-6.400e-03,2.288
-6.080e-03,2.296
-5.760e-03,2.296
-5.440e-03,2.304
-5.120e-03,2.312
-4.800e-03,2.304
-4.480e-03,2.32
-4.160e-03,2.328
-3.840e-03,2.336
-3.520e-03,2.336
-3.200e-03,2.336
-2.880e-03,2.352
-2.560e-03,2.36
-2.240e-03,2.352
-1.920e-03,2.36
-1.600e-03,2.36
-1.280e-03,2.36
-9.600e-04,2.368
-6.400e-04,2.368
-3.200e-04,2.376
-7.585e-15,2.384
3.200e-04,2.4
6.400e-04,2.416
9.600e-04,2.424
1.280e-03,2.424
1.600e-03,2.416
1.920e-03,2.416
2.240e-03,2.424
2.560e-03,2.424
2.880e-03,2.416
3.200e-03,2.416
3.520e-03,2.416
3.840e-03,2.416
4.160e-03,2.416
4.480e-03,2.408
4.800e-03,2.416
5.120e-03,2.416
5.440e-03,2.416
5.760e-03,2.416
6.080e-03,2.416
6.400e-03,2.416
6.720e-03,2.416
7.040e-03,2.416
7.360e-03,2.416
7.680e-03,2.416
8.000e-03,2.424
8.320e-03,2.424
8.640e-03,2.416
8.960e-03,2.416
9.280e-03,2.416
9.600e-03,2.424
9.920e-03,2.416
1.024e-02,2.408
1.056e-02,2.392
1.088e-02,2.392
1.120e-02,2.384
1.152e-02,2.4
1.184e-02,2.392
1.216e-02,2.392
1.248e-02,2.4
1.280e-02,2.4
1.312e-02,2.4
1.344e-02,2.416
1.376e-02,2.416
1.408e-02,2.408
1.440e-02,2.424
1.472e-02,2.416
1.504e-02,2.416
1.536e-02,2.416
1.568e-02,2.416
1.600e-02,2.424
1.632e-02,2.416
1.664e-02,2.416
1.696e-02,2.416
1.728e-02,2.416
1.760e-02,2.408
1.792e-02,2.416
1.824e-02,2.416
1.856e-02,2.408
1.888e-02,2.408
1.920e-02,2.408
1.952e-02,2.408
1.984e-02,2.408
2.016e-02,2.416
2.048e-02,2.424
2.080e-02,2.432
2.112e-02,2.424
2.144e-02,2.424
2.176e-02,2.424
2.208e-02,2.416
2.240e-02,2.424
2.272e-02,2.408
2.304e-02,2.4
2.336e-02,2.392
2.368e-02,2.392
2.400e-02,2.384
2.432e-02,2.384
2.464e-02,2.368
2.496e-02,2.376
2.528e-02,2.368
2.560e-02,2.368
2.592e-02,2.352
2.624e-02,2.36
2.656e-02,2.352
2.688e-02,2.352
2.720e-02,2.344
2.752e-02,2.352
2.784e-02,2.344
2.816e-02,2.344
2.848e-02,2.336
2.880e-02,2.344
2.912e-02,2.328
2.944e-02,2.32
2.976e-02,2.328
3.008e-02,2.312
3.040e-02,2.304
3.072e-02,2.288
3.104e-02,2.288
3.136e-02,2.288
3.168e-02,2.288
3.200e-02,2.28
3.232e-02,2.28
3.264e-02,2.288
3.296e-02,2.288
3.328e-02,2.296
3.360e-02,2.296
3.392e-02,2.288
3.424e-02,2.296
3.456e-02,2.296
3.488e-02,2.296
3.520e-02,2.288
3.552e-02,2.288
3.584e-02,2.288
3.616e-02,2.288
3.648e-02,2.296
3.680e-02,2.288
3.712e-02,2.288
3.744e-02,2.288
3.776e-02,2.288
3.808e-02,2.28
3.840e-02,2.28
3.872e-02,2.28
3.904e-02,2.28
3.936e-02,2.28
3.968e-02,2.28
4.000e-02,2.288
4.032e-02,2.296
4.064e-02,2.296
4.096e-02,2.304
4.128e-02,2.304
4.160e-02,2.296
4.192e-02,2.304
4.224e-02,2.296
4.256e-02,2.288
4.288e-02,2.272
4.320e-02,2.272
4.352e-02,2.264
4.384e-02,2.272
4.416e-02,2.264
4.448e-02,2.256
4.480e-02,2.256
4.512e-02,2.256
4.544e-02,2.256
4.576e-02,2.248
4.608e-02,2.248
4.640e-02,2.24
4.672e-02,2.24
4.704e-02,2.24
4.736e-02,2.24
4.768e-02,2.232
4.800e-02,2.24
4.832e-02,2.232
4.864e-02,2.24
4.896e-02,2.24
4.928e-02,2.232
4.960e-02,2.224
4.992e-02,2.232
5.024e-02,2.208
5.056e-02,2.192
5.088e-02,2.192
5.120e-02,2.192
5.152e-02,2.192
5.184e-02,2.192
5.216e-02,2.192
5.248e-02,2.2
5.280e-02,2.2
5.312e-02,2.208
5.344e-02,2.208
5.376e-02,2.208
5.408e-02,2.216
5.440e-02,2.216
5.472e-02,2.208
5.504e-02,2.208
5.536e-02,2.216
5.568e-02,2.216
5.600e-02,2.216
5.632e-02,2.216
5.664e-02,2.216
5.696e-02,2.208
5.728e-02,2.216
5.760e-02,2.216
5.792e-02,2.208
5.824e-02,2.2
5.856e-02,2.208
5.888e-02,2.208
5.920e-02,2.216
5.952e-02,2.208
