lab_data/5 - 40/TEK00000.CSV

Model,TBS1102C
Firmware Version,v2015-08-04-prequal4ch70_v1.3

Point Format,Y
Horizontal Units,S
Horizontal Scale,0.04
Sample Interval,0.00032
Filter Frequency,2e+08
Record Length,2000
Gating,0.0% to 100.0%
Probe Attenuation,1
Vertical Units,V
Vertical Offset,1
Vertical Scale,0.2
Label,
TIME,CH1
-3.194e-01,1.816
-3.190e-01,1.808
-3.187e-01,1.816
-3.184e-01,1.816
-3.181e-01,1.816
-3.178e-01,1.816
-3.174e-01,1.808
-3.171e-01,1.8
-3.168e-01,1.808
-3.165e-01,1.8
-3.162e-01,1.8
-3.158e-01,1.792
-3.155e-01,1.792
-3.152e-01,1.792
-3.149e-01,1.792
-3.146e-01,1.792
-3.142e-01,1.784
-3.139e-01,1.784
-3.136e-01,1.792
-3.133e-01,1.776
-3.130e-01,1.776
-3.126e-01,1.784
-3.123e-01,1.776
-3.120e-01,1.784
-3.117e-01,1.784
-3.114e-01,1.784
-3.110e-01,1.776
-3.107e-01,1.776
-3.104e-01,1.784
-3.101e-01,1.776
-3.098e-01,1.76
-3.094e-01,1.752
-3.091e-01,1.752
-3.088e-01,1.752
-3.085e-01,1.744
-3.082e-01,1.744
-3.078e-01,1.744
-3.075e-01,1.752
-3.072e-01,1.76
-3.069e-01,1.76
-3.066e-01,1.768
-3.062e-01,1.768
-3.059e-01,1.776
-3.056e-01,1.776
-3.053e-01,1.776
-3.050e-01,1.776
-3.046e-01,1.776
-3.043e-01,1.784
-3.040e-01,1.776
-3.037e-01,1.784
-3.034e-01,1.784
-3.030e-01,1.792
-3.027e-01,1.792
-3.024e-01,1.792
-3.021e-01,1.776
-3.018e-01,1.792
-3.014e-01,1.776
-3.011e-01,1.784
-3.008e-01,1.792
-3.005e-01,1.784
-3.002e-01,1.792
-2.998e-01,1.8
-2.995e-01,1.808
-2.992e-01,1.808
-2.989e-01,1.816
-2.986e-01,1.816
-2.982e-01,1.816
-2.979e-01,1.808
-2.976e-01,1.808
-2.973e-01,1.808
-2.970e-01,1.808
-2.966e-01,1.792
-2.963e-01,1.792
-2.960e-01,1.792
-2.957e-01,1.784
-2.954e-01,1.792
-2.950e-01,1.792
-2.947e-01,1.784
-2.944e-01,1.784
-2.941e-01,1.784
-2.938e-01,1.784
-2.934e-01,1.784
-2.931e-01,1.784
-2.928e-01,1.784
-2.925e-01,1.776
-2.922e-01,1.776
-2.918e-01,1.784
-2.915e-01,1.776
-2.912e-01,1.776
-2.909e-01,1.784
-2.906e-01,1.776
-2.902e-01,1.784
-2.899e-01,1.768
-2.896e-01,1.76
-2.893e-01,1.76
-2.890e-01,1.752
-2.886e-01,1.752
-2.883e-01,1.752
-2.880e-01,1.752
-2.877e-01,1.744
-2.874e-01,1.76
-2.870e-01,1.752
-2.867e-01,1.76
-2.864e-01,1.768
-2.861e-01,1.776
-2.858e-01,1.776
-2.854e-01,1.776
-2.851e-01,1.784
-2.848e-01,1.776
-2.845e-01,1.784
-2.842e-01,1.784
-2.838e-01,1.776
-2.835e-01,1.784
-2.832e-01,1.784
-2.829e-01,1.792
-2.826e-01,1.792
-2.822e-01,1.784
-2.819e-01,1.792
-2.816e-01,1.792
-2.813e-01,1.792
-2.810e-01,1.784
-2.806e-01,1.792
-2.803e-01,1.792
-2.800e-01,1.792
-2.797e-01,1.808
-2.794e-01,1.824
-2.790e-01,1.816
-2.787e-01,1.816
-2.784e-01,1.816
-2.781e-01,1.816
-2.778e-01,1.816
-2.774e-01,1.808
-2.771e-01,1.808
-2.768e-01,1.8
-2.765e-01,1.8
-2.762e-01,1.792
-2.758e-01,1.8
-2.755e-01,1.792
-2.752e-01,1.792
-2.749e-01,1.792
-2.746e-01,1.784
-2.742e-01,1.784
-2.739e-01,1.784
-2.736e-01,1.784
-2.733e-01,1.792
-2.730e-01,1.784
-2.726e-01,1.784
-2.723e-01,1.784
-2.720e-01,1.776
-2.717e-01,1.784
-2.714e-01,1.784
-2.710e-01,1.784
-2.707e-01,1.784
-2.704e-01,1.784
-2.701e-01,1.776
-2.698e-01,1.76
-2.694e-01,1.768
-2.691e-01,1.752
-2.688e-01,1.752
-2.685e-01,1.752
-2.682e-01,1.752
-2.678e-01,1.752
-2.675e-01,1.76
-2.672e-01,1.768
-2.669e-01,1.768
-2.666e-01,1.768
-2.662e-01,1.776
-2.659e-01,1.776
-2.656e-01,1.776
-2.653e-01,1.776
-2.650e-01,1.768
-2.646e-01,1.784
-2.643e-01,1.784
-2.640e-01,1.792
-2.637e-01,1.784
-2.634e-01,1.784
-2.630e-01,1.784
-2.627e-01,1.784
-2.624e-01,1.784
-2.621e-01,1.792
-2.618e-01,1.792
-2.614e-01,1.792
-2.611e-01,1.784
-2.608e-01,1.792
-2.605e-01,1.784
-2.602e-01,1.792
-2.598e-01,1.8
-2.595e-01,1.816
-2.592e-01,1.816
-2.589e-01,1.816
-2.586e-01,1.824
-2.582e-01,1.824
-2.579e-01,1.816
-2.576e-01,1.816
-2.573e-01,1.808
-2.570e-01,1.816
-2.566e-01,1.8
-2.563e-01,1.8
-2.560e-01,1.792
-2.557e-01,1.8
-2.554e-01,1.8
-2.550e-01,1.792
-2.547e-01,1.792
-2.544e-01,1.792
-2.541e-01,1.792
-2.538e-01,1.792
-2.534e-01,1.784
-2.531e-01,1.784
-2.528e-01,1.792
-2.525e-01,1.784
-2.522e-01,1.792
-2.518e-01,1.792
-2.515e-01,1.784
-2.512e-01,1.784
-2.509e-01,1.784
-2.506e-01,1.784
-2.502e-01,1.784
-2.499e-01,1.776
-2.496e-01,1.76
-2.493e-01,1.768
-2.490e-01,1.76
-2.486e-01,1.76
-2.483e-01,1.76
-2.480e-01,1.752
-2.477e-01,1.76
-2.474e-01,1.768
-2.470e-01,1.768
-2.467e-01,1.776
-2.464e-01,1.776
-2.461e-01,1.784
-2.458e-01,1.792
-2.454e-01,1.784
-2.451e-01,1.784
-2.448e-01,1.792
-2.445e-01,1.792
-2.442e-01,1.784
-2.438e-01,1.8
-2.435e-01,1.792
-2.432e-01,1.8
-2.429e-01,1.8
-2.426e-01,1.8
-2.422e-01,1.8
-2.419e-01,1.8
-2.416e-01,1.792
-2.413e-01,1.8
-2.410e-01,1.8
-2.406e-01,1.8
-2.403e-01,1.808
-2.400e-01,1.808
-2.397e-01,1.816
-2.394e-01,1.832
-2.390e-01,1.832
-2.387e-01,1.84
-2.384e-01,1.84
-2.381e-01,1.832
-2.378e-01,1.824
-2.374e-01,1.824
-2.371e-01,1.84
-2.368e-01,1.832
-2.365e-01,1.824
-2.362e-01,1.824
-2.358e-01,1.824
-2.355e-01,1.824
-2.352e-01,1.824
-2.349e-01,1.816
-2.346e-01,1.816
-2.342e-01,1.816
-2.339e-01,1.816
-2.336e-01,1.816
-2.333e-01,1.808
-2.330e-01,1.808
-2.326e-01,1.816
-2.323e-01,1.824
-2.320e-01,1.816
-2.317e-01,1.824
-2.314e-01,1.816
-2.310e-01,1.816
-2.307e-01,1.816
-2.304e-01,1.816
-2.301e-01,1.816
-2.298e-01,1.808
-2.294e-01,1.792
-2.291e-01,1.792
-2.288e-01,1.792
-2.285e-01,1.792
-2.282e-01,1.8
-2.278e-01,1.792
-2.275e-01,1.8
-2.272e-01,1.808
-2.269e-01,1.808
-2.266e-01,1.816
-2.262e-01,1.816
-2.259e-01,1.824
-2.256e-01,1.824
-2.253e-01,1.824
-2.250e-01,1.824
-2.246e-01,1.824
-2.243e-01,1.832
-2.240e-01,1.824
-2.237e-01,1.832
-2.234e-01,1.84
-2.230e-01,1.84
-2.227e-01,1.84
-2.224e-01,1.84
-2.221e-01,1.84
-2.218e-01,1.832
-2.214e-01,1.832
-2.211e-01,1.832
-2.208e-01,1.832
-2.205e-01,1.832
-2.202e-01,1.84
-2.198e-01,1.84
-2.195e-01,1.856
-2.192e-01,1.856
-2.189e-01,1.864
-2.186e-01,1.864
-2.182e-01,1.872
-2.179e-01,1.864
-2.176e-01,1.856
-2.173e-01,1.856
-2.170e-01,1.856
-2.166e-01,1.84
-2.163e-01,1.832
-2.160e-01,1.84
-2.157e-01,1.832
-2.154e-01,1.832
-2.150e-01,1.832
-2.147e-01,1.824
-2.144e-01,1.824
-2.141e-01,1.824
-2.138e-01,1.816
-2.134e-01,1.816
-2.131e-01,1.808
-2.128e-01,1.808
-2.125e-01,1.816
-2.122e-01,1.808
-2.118e-01,1.808
-2.115e-01,1.808
-2.112e-01,1.8
-2.109e-01,1.808
-2.106e-01,1.808
-2.102e-01,1.8
-2.099e-01,1.784
-2.096e-01,1.784
-2.093e-01,1.776
-2.090e-01,1.776
-2.086e-01,1.768
-2.083e-01,1.768
-2.080e-01,1.768
-2.077e-01,1.768
-2.074e-01,1.768
-2.070e-01,1.768
-2.067e-01,1.768
-2.064e-01,1.776
-2.061e-01,1.768
-2.058e-01,1.784
-2.054e-01,1.776
-2.051e-01,1.776
-2.048e-01,1.776
-2.045e-01,1.776
-2.042e-01,1.776
-2.038e-01,1.776
-2.035e-01,1.768
-2.032e-01,1.776
-2.029e-01,1.776
-2.026e-01,1.776
-2.022e-01,1.768
-2.019e-01,1.768
-2.016e-01,1.76
-2.013e-01,1.768
-2.010e-01,1.76
-2.006e-01,1.752
-2.003e-01,1.752
-2.000e-01,1.76
-1.997e-01,1.768
-1.994e-01,1.776
-1.990e-01,1.776
-1.987e-01,1.776
-1.984e-01,1.768
-1.981e-01,1.768
-1.978e-01,1.76
-1.974e-01,1.76
-1.971e-01,1.752
-1.968e-01,1.744
-1.965e-01,1.744
-1.962e-01,1.736
-1.958e-01,1.728
-1.955e-01,1.728
-1.952e-01,1.728
-1.949e-01,1.712
-1.946e-01,1.712
-1.942e-01,1.712
-1.939e-01,1.704
-1.936e-01,1.704
-1.933e-01,1.704
-1.930e-01,1.688
-1.926e-01,1.688
-1.923e-01,1.688
-1.920e-01,1.688
-1.917e-01,1.688
-1.914e-01,1.68
-1.910e-01,1.68
-1.907e-01,1.68
-1.904e-01,1.672
-1.901e-01,1.664
-1.898e-01,1.648
-1.894e-01,1.64
-1.891e-01,1.64
-1.888e-01,1.632
-1.885e-01,1.624
-1.882e-01,1.632
-1.878e-01,1.624
-1.875e-01,1.632
-1.872e-01,1.624
-1.869e-01,1.624
-1.866e-01,1.624
-1.862e-01,1.632
-1.859e-01,1.616
-1.856e-01,1.624
-1.853e-01,1.624
-1.850e-01,1.616
-1.846e-01,1.624
-1.843e-01,1.616
-1.840e-01,1.624
-1.837e-01,1.624
-1.834e-01,1.624
-1.830e-01,1.616
-1.827e-01,1.616
-1.824e-01,1.608
-1.821e-01,1.608
-1.818e-01,1.608
-1.814e-01,1.6
-1.811e-01,1.6
-1.808e-01,1.6
-1.805e-01,1.592
-1.802e-01,1.6
-1.798e-01,1.6
-1.795e-01,1.608
-1.792e-01,1.616
-1.789e-01,1.616
-1.786e-01,1.616
-1.782e-01,1.608
-1.779e-01,1.608
-1.776e-01,1.6
-1.773e-01,1.6
-1.770e-01,1.592
-1.766e-01,1.576
-1.763e-01,1.576
-1.760e-01,1.576
-1.757e-01,1.576
-1.754e-01,1.568
-1.750e-01,1.56
-1.747e-01,1.56
-1.744e-01,1.552
-1.741e-01,1.552
-1.738e-01,1.544
-1.734e-01,1.552
-1.731e-01,1.544
-1.728e-01,1.544
-1.725e-01,1.536
-1.722e-01,1.536
-1.718e-01,1.536
-1.715e-01,1.528
-1.712e-01,1.528
-1.709e-01,1.528
-1.706e-01,1.536
-1.702e-01,1.52
-1.699e-01,1.512
-1.696e-01,1.504
-1.693e-01,1.488
-1.690e-01,1.496
-1.686e-01,1.488
-1.683e-01,1.488
-1.680e-01,1.488
-1.677e-01,1.488
-1.674e-01,1.496
-1.670e-01,1.496
-1.667e-01,1.496
-1.664e-01,1.504
-1.661e-01,1.512
-1.658e-01,1.504
-1.654e-01,1.504
-1.651e-01,1.512
-1.648e-01,1.504
-1.645e-01,1.504
-1.642e-01,1.512
-1.638e-01,1.504
-1.635e-01,1.512
-1.632e-01,1.512
-1.629e-01,1.512
-1.626e-01,1.512
-1.622e-01,1.512
-1.619e-01,1.512
-1.616e-01,1.512
-1.613e-01,1.512
-1.610e-01,1.512
-1.606e-01,1.512
-1.603e-01,1.512
-1.600e-01,1.512
-1.597e-01,1.528
-1.594e-01,1.536
-1.590e-01,1.536
-1.587e-01,1.536
-1.584e-01,1.544
-1.581e-01,1.536
-1.578e-01,1.536
-1.574e-01,1.536
-1.571e-01,1.536
-1.568e-01,1.52
-1.565e-01,1.528
-1.562e-01,1.52
-1.558e-01,1.528
-1.555e-01,1.528
-1.552e-01,1.52
-1.549e-01,1.52
-1.546e-01,1.528
-1.542e-01,1.52
-1.539e-01,1.528
-1.536e-01,1.512
-1.533e-01,1.52
-1.530e-01,1.52
-1.526e-01,1.512
-1.523e-01,1.512
-1.520e-01,1.52
-1.517e-01,1.528
-1.514e-01,1.528
-1.510e-01,1.52
-1.507e-01,1.52
-1.504e-01,1.52
-1.501e-01,1.52
-1.498e-01,1.512
-1.494e-01,1.504
-1.491e-01,1.504
-1.488e-01,1.496
-1.485e-01,1.504
-1.482e-01,1.504
-1.478e-01,1.504
-1.475e-01,1.52
-1.472e-01,1.52
-1.469e-01,1.528
-1.466e-01,1.536
-1.462e-01,1.544
-1.459e-01,1.544
-1.456e-01,1.536
-1.453e-01,1.552
-1.450e-01,1.552
-1.446e-01,1.56
-1.443e-01,1.56
-1.440e-01,1.552
-1.437e-01,1.56
-1.434e-01,1.568
-1.430e-01,1.568
-1.427e-01,1.568
-1.424e-01,1.568
-1.421e-01,1.584
-1.418e-01,1.584
-1.414e-01,1.584
-1.411e-01,1.584
-1.408e-01,1.584
-1.405e-01,1.592
-1.402e-01,1.6
-1.398e-01,1.608
-1.395e-01,1.616
-1.392e-01,1.632
-1.389e-01,1.632
-1.386e-01,1.64
-1.382e-01,1.64
-1.379e-01,1.64
-1.376e-01,1.64
-1.373e-01,1.64
-1.370e-01,1.64
-1.366e-01,1.632
-1.363e-01,1.632
-1.360e-01,1.624
-1.357e-01,1.632
-1.354e-01,1.632
-1.350e-01,1.632
-1.347e-01,1.632
-1.344e-01,1.64
-1.341e-01,1.64
-1.338e-01,1.64
-1.334e-01,1.648
-1.331e-01,1.648
-1.328e-01,1.648
-1.325e-01,1.648
-1.322e-01,1.648
-1.318e-01,1.656
-1.315e-01,1.656
-1.312e-01,1.664
-1.309e-01,1.672
-1.306e-01,1.672
-1.302e-01,1.664
-1.299e-01,1.664
-1.296e-01,1.656
-1.293e-01,1.656
-1.290e-01,1.656
-1.286e-01,1.656
-1.283e-01,1.656
-1.280e-01,1.664
-1.277e-01,1.672
-1.274e-01,1.672
-1.270e-01,1.68
-1.267e-01,1.688
-1.264e-01,1.704
-1.261e-01,1.704
-1.258e-01,1.704
-1.254e-01,1.712
-1.251e-01,1.72
-1.248e-01,1.72
-1.245e-01,1.72
-1.242e-01,1.728
-1.238e-01,1.728
-1.235e-01,1.744
-1.232e-01,1.744
-1.229e-01,1.744
-1.226e-01,1.752
-1.222e-01,1.752
-1.219e-01,1.752
-1.216e-01,1.76
-1.213e-01,1.76
-1.210e-01,1.752
-1.206e-01,1.768
-1.203e-01,1.768
-1.200e-01,1.784
-1.197e-01,1.784
-1.194e-01,1.8
-1.190e-01,1.808
-1.187e-01,1.816
-1.184e-01,1.824
-1.181e-01,1.808
-1.178e-01,1.824
-1.174e-01,1.816
-1.171e-01,1.816
-1.168e-01,1.808
-1.165e-01,1.808
-1.162e-01,1.808
-1.158e-01,1.816
-1.155e-01,1.816
-1.152e-01,1.808
-1.149e-01,1.816
-1.146e-01,1.816
-1.142e-01,1.816
-1.139e-01,1.824
-1.136e-01,1.824
-1.133e-01,1.832
-1.130e-01,1.824
-1.126e-01,1.832
-1.123e-01,1.832
-1.120e-01,1.832
-1.117e-01,1.832
-1.114e-01,1.848
-1.110e-01,1.848
-1.107e-01,1.848
-1.104e-01,1.832
-1.101e-01,1.84
-1.098e-01,1.832
-1.094e-01,1.824
-1.091e-01,1.824
-1.088e-01,1.832
-1.085e-01,1.824
-1.082e-01,1.832
-1.078e-01,1.832
-1.075e-01,1.832
-1.072e-01,1.848
-1.069e-01,1.848
-1.066e-01,1.872
-1.062e-01,1.864
-1.059e-01,1.88
-1.056e-01,1.872
-1.053e-01,1.88
-1.050e-01,1.88
-1.046e-01,1.888
-1.043e-01,1.888
-1.040e-01,1.888
-1.037e-01,1.896
-1.034e-01,1.904
-1.030e-01,1.904
-1.027e-01,1.904
-1.024e-01,1.904
-1.021e-01,1.912
-1.018e-01,1.912
-1.014e-01,1.912
-1.011e-01,1.912
-1.008e-01,1.92
-1.005e-01,1.92
-1.002e-01,1.928
-9.984e-02,1.936
-9.952e-02,1.944
-9.920e-02,1.952
-9.888e-02,1.96
-9.856e-02,1.968
-9.824e-02,1.968
-9.792e-02,1.96
-9.760e-02,1.96
-9.728e-02,1.96
-9.696e-02,1.96
-9.664e-02,1.952
-9.632e-02,1.952
-9.600e-02,1.952
-9.568e-02,1.952
-9.536e-02,1.952
-9.504e-02,1.952
-9.472e-02,1.952
-9.440e-02,1.944
-9.408e-02,1.944
-9.376e-02,1.952
-9.344e-02,1.944
-9.312e-02,1.952
-9.280e-02,1.952
-9.248e-02,1.952
-9.216e-02,1.944
-9.184e-02,1.944
-9.152e-02,1.952
-9.120e-02,1.952
-9.088e-02,1.96
-9.056e-02,1.952
-9.024e-02,1.944
-8.992e-02,1.944
-8.960e-02,1.936
-8.928e-02,1.92
-8.896e-02,1.92
-8.864e-02,1.912
-8.832e-02,1.92
-8.800e-02,1.92
-8.768e-02,1.92
-8.736e-02,1.92
-8.704e-02,1.928
-8.672e-02,1.944
-8.640e-02,1.944
-8.608e-02,1.936
-8.576e-02,1.936
-8.544e-02,1.936
-8.512e-02,1.944
-8.480e-02,1.944
-8.448e-02,1.944
-8.416e-02,1.936
-8.384e-02,1.936
-8.352e-02,1.944
-8.320e-02,1.944
-8.288e-02,1.944
-8.256e-02,1.944
-8.224e-02,1.944
-8.192e-02,1.936
-8.160e-02,1.928
-8.128e-02,1.936
-8.096e-02,1.936
-8.064e-02,1.936
-8.032e-02,1.928
-8.000e-02,1.936
-7.968e-02,1.944
-7.936e-02,1.952
-7.904e-02,1.952
-7.872e-02,1.952
-7.840e-02,1.96
-7.808e-02,1.944
-7.776e-02,1.944
-7.744e-02,1.936
-7.712e-02,1.936
-7.680e-02,1.92
-7.648e-02,1.92
-7.616e-02,1.912
-7.584e-02,1.912
-7.552e-02,1.904
-7.520e-02,1.904
-7.488e-02,1.896
-7.456e-02,1.896
-7.424e-02,1.888
-7.392e-02,1.888
-7.360e-02,1.888
-7.328e-02,1.872
-7.296e-02,1.88
-7.264e-02,1.872
-7.232e-02,1.872
-7.200e-02,1.864
-7.168e-02,1.864
-7.136e-02,1.856
-7.104e-02,1.856
-7.072e-02,1.856
-7.040e-02,1.848
-7.008e-02,1.84
-6.976e-02,1.824
-6.944e-02,1.816
-6.912e-02,1.8
-6.880e-02,1.792
-6.848e-02,1.792
-6.816e-02,1.792
-6.784e-02,1.8
-6.752e-02,1.784
-6.720e-02,1.792
-6.688e-02,1.8
-6.656e-02,1.8
-6.624e-02,1.8
-6.592e-02,1.792
-6.560e-02,1.792
-6.528e-02,1.792
-6.496e-02,1.784
-6.464e-02,1.784
-6.432e-02,1.776
-6.400e-02,1.784
-6.368e-02,1.776
-6.336e-02,1.784
-6.304e-02,1.776
-6.272e-02,1.768
-6.240e-02,1.768
-6.208e-02,1.768
-6.176e-02,1.768
-6.144e-02,1.768
-6.112e-02,1.752
-6.080e-02,1.752
-6.048e-02,1.76
-6.016e-02,1.76
-5.984e-02,1.76
-5.952e-02,1.768
-5.920e-02,1.768
-5.888e-02,1.776
-5.856e-02,1.776
-5.824e-02,1.76
-5.792e-02,1.768
-5.760e-02,1.76
-5.728e-02,1.752
-5.696e-02,1.744
-5.664e-02,1.744
-5.632e-02,1.744
-5.600e-02,1.736
-5.568e-02,1.728
-5.536e-02,1.736
-5.504e-02,1.728
-5.472e-02,1.728
-5.440e-02,1.728
-5.408e-02,1.72
-5.376e-02,1.72
-5.344e-02,1.712
-5.312e-02,1.72
-5.280e-02,1.72
-5.248e-02,1.72
-5.216e-02,1.72
-5.184e-02,1.712
-5.152e-02,1.72
-5.120e-02,1.72
-5.088e-02,1.72
-5.056e-02,1.712
-5.024e-02,1.712
-4.992e-02,1.704
-4.960e-02,1.704
-4.928e-02,1.696
-4.896e-02,1.696
-4.864e-02,1.696
-4.832e-02,1.704
-4.800e-02,1.704
-4.768e-02,1.696
-4.736e-02,1.712
-4.704e-02,1.72
-4.672e-02,1.728
-4.640e-02,1.728
-4.608e-02,1.728
-4.576e-02,1.736
-4.544e-02,1.744
-4.512e-02,1.752
-4.480e-02,1.744
-4.448e-02,1.752
-4.416e-02,1.76
-4.384e-02,1.768
-4.352e-02,1.768
-4.320e-02,1.784
-4.288e-02,1.776
-4.256e-02,1.776
-4.224e-02,1.792
-4.192e-02,1.792
-4.160e-02,1.792
-4.128e-02,1.792
-4.096e-02,1.8
-4.064e-02,1.808
-4.032e-02,1.816
-4.000e-02,1.824
-3.968e-02,1.84
-3.936e-02,1.856
-3.904e-02,1.864
-3.872e-02,1.872
-3.840e-02,1.872
-3.808e-02,1.872
-3.776e-02,1.872
-3.744e-02,1.88
-3.712e-02,1.88
-3.680e-02,1.88
-3.648e-02,1.88
-3.616e-02,1.88
-3.584e-02,1.896
-3.552e-02,1.888
-3.520e-02,1.896
-3.488e-02,1.904
-3.456e-02,1.912
-3.424e-02,1.904
-3.392e-02,1.912
-3.360e-02,1.92
-3.328e-02,1.928
-3.296e-02,1.928
-3.264e-02,1.936
-3.232e-02,1.944
-3.200e-02,1.944
-3.168e-02,1.96
-3.136e-02,1.96
-3.104e-02,1.968
-3.072e-02,1.968
-3.040e-02,1.968
-3.008e-02,1.968
-2.976e-02,1.976
-2.944e-02,1.968
-2.912e-02,1.976
-2.880e-02,1.976
-2.848e-02,1.976
-2.816e-02,1.992
-2.784e-02,2
-2.752e-02,2.008
-2.720e-02,2.016
-2.688e-02,2.024
-2.656e-02,2.032
-2.624e-02,2.048
-2.592e-02,2.056
-2.560e-02,2.064
-2.528e-02,2.072
-2.496e-02,2.072
-2.464e-02,2.08
-2.432e-02,2.088
-2.400e-02,2.096
-2.368e-02,2.104
-2.336e-02,2.12
-2.304e-02,2.112
-2.272e-02,2.136
-2.240e-02,2.136
-2.208e-02,2.144
-2.176e-02,2.152
-2.144e-02,2.144
-2.112e-02,2.152
-2.080e-02,2.176
-2.048e-02,2.176
-2.016e-02,2.176
-1.984e-02,2.2
-1.952e-02,2.208
-1.920e-02,2.224
-1.888e-02,2.232
-1.856e-02,2.232
-1.824e-02,2.232
-1.792e-02,2.24
-1.760e-02,2.248
-1.728e-02,2.24
-1.696e-02,2.24
-1.664e-02,2.24
-1.632e-02,2.248
-1.600e-02,2.256
-1.568e-02,2.256
-1.536e-02,2.256
-1.504e-02,2.256
-1.472e-02,2.256
-1.440e-02,2.264
-1.408e-02,2.272
-1.376e-02,2.272
-1.344e-02,2.272
-1.312e-02,2.272
-1.280e-02,2.288
-1.248e-02,2.28
-1.216e-02,2.296
-1.184e-02,2.296
-1.152e-02,2.296
-1.120e-02,2.304
-1.088e-02,2.304
-1.056e-02,2.304
-1.024e-02,2.304
-9.920e-03,2.304
-9.600e-03,2.296
-9.280e-03,2.288
-8.960e-03,2.296
-8.640e-03,2.296
-8.320e-03,2.296
-8.000e-03,2.304
-7.680e-03,2.312
-7.360e-03,2.312
-7.040e-03,2.328
-6.720e-03,2.336
-6.400e-03,2.328
-6.080e-03,2.344
-5.760e-03,2.336
-5.440e-03,2.352
-5.120e-03,2.36
-4.800e-03,2.352
-4.480e-03,2.36
-4.160e-03,2.36
-3.840e-03,2.368
-3.520e-03,2.376
-3.200e-03,2.376
-2.880e-03,2.376
-2.560e-03,2.368
-2.240e-03,2.376
-1.920e-03,2.384
-1.600e-03,2.376
-1.280e-03,2.376
-9.600e-04,2.384
-6.400e-04,2.392
-3.200e-04,2.392
-7.585e-15,2.392
3.200e-04,2.408
6.400e-04,2.416
9.600e-04,2.416
1.280e-03,2.416
1.600e-03,2.416
1.920e-03,2.416
2.240e-03,2.416
2.560e-03,2.416
2.880e-03,2.408
3.200e-03,2.4
3.520e-03,2.4
3.840e-03,2.408
4.160e-03,2.4
4.480e-03,2.392
4.800e-03,2.392
5.120e-03,2.392
5.440e-03,2.4
5.760e-03,2.392
6.080e-03,2.384
6.400e-03,2.384
6.720e-03,2.376
7.040e-03,2.376
7.360e-03,2.376
7.680e-03,2.376
8.000e-03,2.376
8.320e-03,2.376
8.640e-03,2.368
8.960e-03,2.368
9.280e-03,2.368
9.600e-03,2.368
9.920e-03,2.368
1.024e-02,2.344
1.056e-02,2.336
1.088e-02,2.336
1.120e-02,2.336
1.152e-02,2.336
1.184e-02,2.328
1.216e-02,2.328
1.248e-02,2.328
1.280e-02,2.336
1.312e-02,2.344
1.344e-02,2.336
1.376e-02,2.336
1.408e-02,2.336
1.440e-02,2.352
1.472e-02,2.336
1.504e-02,2.336
1.536e-02,2.336
1.568e-02,2.344
1.600e-02,2.336
1.632e-02,2.344
1.664e-02,2.328
1.696e-02,2.336
1.728e-02,2.336
1.760e-02,2.336
1.792e-02,2.328
1.824e-02,2.328
1.856e-02,2.32
1.888e-02,2.32
1.920e-02,2.32
1.952e-02,2.328
1.984e-02,2.32
2.016e-02,2.336
2.048e-02,2.336
2.080e-02,2.344
2.112e-02,2.336
2.144e-02,2.336
2.176e-02,2.336
2.208e-02,2.336
2.240e-02,2.328
2.272e-02,2.32
2.304e-02,2.312
2.336e-02,2.312
2.368e-02,2.312
2.400e-02,2.304
2.432e-02,2.296
2.464e-02,2.288
2.496e-02,2.288
2.528e-02,2.304
2.560e-02,2.288
2.592e-02,2.28
2.624e-02,2.272
2.656e-02,2.272
2.688e-02,2.28
2.720e-02,2.272
2.752e-02,2.272
2.784e-02,2.272
2.816e-02,2.272
2.848e-02,2.272
2.880e-02,2.256
2.912e-02,2.264
2.944e-02,2.256
2.976e-02,2.256
3.008e-02,2.248
3.040e-02,2.24
3.072e-02,2.24
3.104e-02,2.224
3.136e-02,2.224
3.168e-02,2.224
3.200e-02,2.216
3.232e-02,2.224
3.264e-02,2.232
3.296e-02,2.232
3.328e-02,2.24
3.360e-02,2.24
3.392e-02,2.24
3.424e-02,2.24
3.456e-02,2.24
3.488e-02,2.24
3.520e-02,2.24
3.552e-02,2.24
3.584e-02,2.248
3.616e-02,2.24
3.648e-02,2.248
3.680e-02,2.24
3.712e-02,2.24
3.744e-02,2.24
3.776e-02,2.24
3.808e-02,2.232
3.840e-02,2.232
3.872e-02,2.24
3.904e-02,2.232
3.936e-02,2.232
3.968e-02,2.232
4.000e-02,2.24
4.032e-02,2.248
4.064e-02,2.256
4.096e-02,2.256
4.128e-02,2.256
4.160e-02,2.264
4.192e-02,2.256
4.224e-02,2.256
4.256e-02,2.248
4.288e-02,2.248
4.320e-02,2.24
4.352e-02,2.232
4.384e-02,2.232
4.416e-02,2.224
4.448e-02,2.224
4.480e-02,2.224
4.512e-02,2.224
4.544e-02,2.216
4.576e-02,2.216
4.608e-02,2.208
4.640e-02,2.216
4.672e-02,2.216
4.704e-02,2.208
4.736e-02,2.208
4.768e-02,2.2
4.800e-02,2.208
4.832e-02,2.208
4.864e-02,2.216
4.896e-02,2.208
4.928e-02,2.2
4.960e-02,2.208
4.992e-02,2.192
5.024e-02,2.184
5.056e-02,2.176
5.088e-02,2.176
5.120e-02,2.176
5.152e-02,2.16
5.184e-02,2.168
5.216e-02,2.168
5.248e-02,2.168
5.280e-02,2.176
5.312e-02,2.184
5.344e-02,2.192
5.376e-02,2.184
5.408e-02,2.184
5.440e-02,2.2
5.472e-02,2.192
5.504e-02,2.192
5.536e-02,2.184
5.568e-02,2.2
5.600e-02,2.2
5.632e-02,2.2
5.664e-02,2.192
5.696e-02,2.2
5.728e-02,2.192
5.760e-02,2.2
5.792e-02,2.192
5.824e-02,2.2
5.856e-02,2.2
5.888e-02,2.2
5.920e-02,2.2
5.952e-02,2.2
5.984e-02,2.2
