lab_data/8 - 20/TEK00002.CSV

Model,TBS1102C
Firmware Version,v2015-08-04-prequal4ch70_v1.3

Point Format,Y
Horizontal Units,S
Horizontal Scale,0.1
Sample Interval,0.0008
Filter Frequency,2e+08
Record Length,2000
Gating,0.0% to 100.0%
Probe Attenuation,1
Vertical Units,V
Vertical Offset,1
Vertical Scale,0.2
Label,
TIME,CH1
-7.072e-01,1.752
-7.064e-01,1.736
-7.056e-01,1.736
-7.048e-01,1.744
-7.040e-01,1.76
-7.032e-01,1.76
-7.024e-01,1.76
-7.016e-01,1.776
-7.008e-01,1.76
-7.000e-01,1.768
-6.992e-01,1.776
-6.984e-01,1.776
-6.976e-01,1.776
-6.968e-01,1.8
-6.960e-01,1.808
-6.952e-01,1.8
-6.944e-01,1.792
-6.936e-01,1.792
-6.928e-01,1.784
-6.920e-01,1.768
-6.912e-01,1.76
-6.904e-01,1.768
-6.896e-01,1.768
-6.888e-01,1.768
-6.880e-01,1.76
-6.872e-01,1.752
-6.864e-01,1.744
-6.856e-01,1.736
-6.848e-01,1.744
-6.840e-01,1.752
-6.832e-01,1.76
-6.824e-01,1.76
-6.816e-01,1.768
-6.808e-01,1.768
-6.800e-01,1.776
-6.792e-01,1.776
-6.784e-01,1.776
-6.776e-01,1.776
-6.768e-01,1.792
-6.760e-01,1.8
-6.752e-01,1.8
-6.744e-01,1.792
-6.736e-01,1.784
-6.728e-01,1.776
-6.720e-01,1.776
-6.712e-01,1.768
-6.704e-01,1.76
-6.696e-01,1.776
-6.688e-01,1.768
-6.680e-01,1.768
-6.672e-01,1.752
-6.664e-01,1.744
-6.656e-01,1.736
-6.648e-01,1.752
-6.640e-01,1.76
-6.632e-01,1.76
-6.624e-01,1.768
-6.616e-01,1.776
-6.608e-01,1.776
-6.600e-01,1.768
-6.592e-01,1.776
-6.584e-01,1.776
-6.576e-01,1.776
-6.568e-01,1.8
-6.560e-01,1.808
-6.552e-01,1.8
-6.544e-01,1.792
-6.536e-01,1.776
-6.528e-01,1.776
-6.520e-01,1.768
-6.512e-01,1.768
-6.504e-01,1.76
-6.496e-01,1.768
-6.488e-01,1.76
-6.480e-01,1.768
-6.472e-01,1.752
-6.464e-01,1.744
-6.456e-01,1.736
-6.448e-01,1.752
-6.440e-01,1.752
-6.432e-01,1.76
-6.424e-01,1.76
-6.416e-01,1.768
-6.408e-01,1.776
-6.400e-01,1.776
-6.392e-01,1.768
-6.384e-01,1.768
-6.376e-01,1.768
-6.368e-01,1.8
-6.360e-01,1.8
-6.352e-01,1.8
-6.344e-01,1.784
-6.336e-01,1.784
-6.328e-01,1.776
-6.320e-01,1.776
-6.312e-01,1.776
-6.304e-01,1.76
-6.296e-01,1.768
-6.288e-01,1.768
-6.280e-01,1.76
-6.272e-01,1.752
-6.264e-01,1.736
-6.256e-01,1.736
-6.248e-01,1.744
-6.240e-01,1.76
-6.232e-01,1.76
-6.224e-01,1.76
-6.216e-01,1.768
-6.208e-01,1.776
-6.200e-01,1.776
-6.192e-01,1.776
-6.184e-01,1.776
-6.176e-01,1.784
-6.168e-01,1.808
-6.160e-01,1.8
-6.152e-01,1.8
-6.144e-01,1.792
-6.136e-01,1.792
-6.128e-01,1.776
-6.120e-01,1.776
-6.112e-01,1.776
-6.104e-01,1.768
-6.096e-01,1.768
-6.088e-01,1.776
-6.080e-01,1.776
-6.072e-01,1.744
-6.064e-01,1.736
-6.056e-01,1.744
-6.048e-01,1.744
-6.040e-01,1.76
-6.032e-01,1.76
-6.024e-01,1.752
-6.016e-01,1.768
-6.008e-01,1.768
-6.000e-01,1.776
-5.992e-01,1.768
-5.984e-01,1.768
-5.976e-01,1.776
-5.968e-01,1.808
-5.960e-01,1.8
-5.952e-01,1.8
-5.944e-01,1.792
-5.936e-01,1.776
-5.928e-01,1.784
-5.920e-01,1.768
-5.912e-01,1.768
-5.904e-01,1.768
-5.896e-01,1.768
-5.888e-01,1.76
-5.880e-01,1.76
-5.872e-01,1.744
-5.864e-01,1.736
-5.856e-01,1.736
-5.848e-01,1.736
-5.840e-01,1.76
-5.832e-01,1.76
-5.824e-01,1.752
-5.816e-01,1.768
-5.808e-01,1.768
-5.800e-01,1.768
-5.792e-01,1.768
-5.784e-01,1.776
-5.776e-01,1.776
-5.768e-01,1.8
-5.760e-01,1.808
-5.752e-01,1.8
-5.744e-01,1.792
-5.736e-01,1.784
-5.728e-01,1.776
-5.720e-01,1.776
-5.712e-01,1.768
-5.704e-01,1.776
-5.696e-01,1.768
-5.688e-01,1.768
-5.680e-01,1.768
-5.672e-01,1.752
-5.664e-01,1.736
-5.656e-01,1.736
-5.648e-01,1.752
-5.640e-01,1.76
-5.632e-01,1.76
-5.624e-01,1.768
-5.616e-01,1.776
-5.608e-01,1.768
-5.600e-01,1.776
-5.592e-01,1.776
-5.584e-01,1.776
-5.576e-01,1.776
-5.568e-01,1.808
-5.560e-01,1.808
-5.552e-01,1.8
-5.544e-01,1.784
-5.536e-01,1.784
-5.528e-01,1.784
-5.520e-01,1.776
-5.512e-01,1.776
-5.504e-01,1.768
-5.496e-01,1.776
-5.488e-01,1.768
-5.480e-01,1.768
-5.472e-01,1.744
-5.464e-01,1.728
-5.456e-01,1.744
-5.448e-01,1.752
-5.440e-01,1.752
-5.432e-01,1.76
-5.424e-01,1.76
-5.416e-01,1.768
-5.408e-01,1.768
-5.400e-01,1.776
-5.392e-01,1.776
-5.384e-01,1.768
-5.376e-01,1.784
-5.368e-01,1.8
-5.360e-01,1.808
-5.352e-01,1.8
-5.344e-01,1.776
-5.336e-01,1.776
-5.328e-01,1.776
-5.320e-01,1.776
-5.312e-01,1.768
-5.304e-01,1.768
-5.296e-01,1.768
-5.288e-01,1.768
-5.280e-01,1.768
-5.272e-01,1.744
-5.264e-01,1.736
-5.256e-01,1.736
-5.248e-01,1.744
-5.240e-01,1.752
-5.232e-01,1.76
-5.224e-01,1.76
-5.216e-01,1.768
-5.208e-01,1.776
-5.200e-01,1.768
-5.192e-01,1.776
-5.184e-01,1.776
-5.176e-01,1.784
-5.168e-01,1.792
-5.160e-01,1.8
-5.152e-01,1.8
-5.144e-01,1.792
-5.136e-01,1.776
-5.128e-01,1.784
-5.120e-01,1.776
-5.112e-01,1.768
-5.104e-01,1.768
-5.096e-01,1.768
-5.088e-01,1.768
-5.080e-01,1.768
-5.072e-01,1.744
-5.064e-01,1.736
-5.056e-01,1.744
-5.048e-01,1.752
-5.040e-01,1.76
-5.032e-01,1.768
-5.024e-01,1.768
-5.016e-01,1.768
-5.008e-01,1.776
-5.000e-01,1.768
-4.992e-01,1.776
-4.984e-01,1.768
-4.976e-01,1.784
-4.968e-01,1.808
-4.960e-01,1.808
-4.952e-01,1.792
-4.944e-01,1.784
-4.936e-01,1.784
-4.928e-01,1.776
-4.920e-01,1.776
-4.912e-01,1.768
-4.904e-01,1.776
-4.896e-01,1.768
-4.888e-01,1.768
-4.880e-01,1.76
-4.872e-01,1.736
-4.864e-01,1.736
-4.856e-01,1.736
-4.848e-01,1.744
-4.840e-01,1.76
-4.832e-01,1.76
-4.824e-01,1.76
-4.816e-01,1.76
-4.808e-01,1.784
-4.800e-01,1.776
-4.792e-01,1.768
-4.784e-01,1.768
-4.776e-01,1.776
-4.768e-01,1.8
-4.760e-01,1.808
-4.752e-01,1.792
-4.744e-01,1.784
-4.736e-01,1.784
-4.728e-01,1.776
-4.720e-01,1.776
-4.712e-01,1.76
-4.704e-01,1.76
-4.696e-01,1.76
-4.688e-01,1.768
-4.680e-01,1.76
-4.672e-01,1.736
-4.664e-01,1.736
-4.656e-01,1.736
-4.648e-01,1.736
-4.640e-01,1.76
-4.632e-01,1.76
-4.624e-01,1.752
-4.616e-01,1.768
-4.608e-01,1.776
-4.600e-01,1.768
-4.592e-01,1.768
-4.584e-01,1.776
-4.576e-01,1.792
-4.568e-01,1.8
-4.560e-01,1.808
-4.552e-01,1.8
-4.544e-01,1.792
-4.536e-01,1.784
-4.528e-01,1.776
-4.520e-01,1.768
-4.512e-01,1.776
-4.504e-01,1.768
-4.496e-01,1.768
-4.488e-01,1.768
-4.480e-01,1.768
-4.472e-01,1.736
-4.464e-01,1.744
-4.456e-01,1.744
-4.448e-01,1.744
-4.440e-01,1.76
-4.432e-01,1.76
-4.424e-01,1.768
-4.416e-01,1.776
-4.408e-01,1.776
-4.400e-01,1.776
-4.392e-01,1.776
-4.384e-01,1.776
-4.376e-01,1.784
-4.368e-01,1.808
-4.360e-01,1.808
-4.352e-01,1.8
-4.344e-01,1.784
-4.336e-01,1.776
-4.328e-01,1.784
-4.320e-01,1.776
-4.312e-01,1.768
-4.304e-01,1.768
-4.296e-01,1.768
-4.288e-01,1.768
-4.280e-01,1.768
-4.272e-01,1.752
-4.264e-01,1.736
-4.256e-01,1.744
-4.248e-01,1.744
-4.240e-01,1.752
-4.232e-01,1.768
-4.224e-01,1.76
-4.216e-01,1.768
-4.208e-01,1.768
-4.200e-01,1.768
-4.192e-01,1.768
-4.184e-01,1.776
-4.176e-01,1.784
-4.168e-01,1.8
-4.160e-01,1.808
-4.152e-01,1.8
-4.144e-01,1.784
-4.136e-01,1.776
-4.128e-01,1.776
-4.120e-01,1.776
-4.112e-01,1.768
-4.104e-01,1.76
-4.096e-01,1.768
-4.088e-01,1.768
-4.080e-01,1.768
-4.072e-01,1.744
-4.064e-01,1.736
-4.056e-01,1.736
-4.048e-01,1.744
-4.040e-01,1.76
-4.032e-01,1.76
-4.024e-01,1.76
-4.016e-01,1.768
-4.008e-01,1.768
-4.000e-01,1.776
-3.992e-01,1.768
-3.984e-01,1.776
-3.976e-01,1.784
-3.968e-01,1.8
-3.960e-01,1.808
-3.952e-01,1.8
-3.944e-01,1.792
-3.936e-01,1.784
-3.928e-01,1.776
-3.920e-01,1.776
-3.912e-01,1.768
-3.904e-01,1.768
-3.896e-01,1.776
-3.888e-01,1.76
-3.880e-01,1.768
-3.872e-01,1.752
-3.864e-01,1.736
-3.856e-01,1.744
-3.848e-01,1.752
-3.840e-01,1.76
-3.832e-01,1.768
-3.824e-01,1.76
-3.816e-01,1.776
-3.808e-01,1.768
-3.800e-01,1.776
-3.792e-01,1.776
-3.784e-01,1.768
-3.776e-01,1.784
-3.768e-01,1.8
-3.760e-01,1.8
-3.752e-01,1.8
-3.744e-01,1.784
-3.736e-01,1.784
-3.728e-01,1.776
-3.720e-01,1.768
-3.712e-01,1.768
-3.704e-01,1.768
-3.696e-01,1.768
-3.688e-01,1.768
-3.680e-01,1.76
-3.672e-01,1.744
-3.664e-01,1.736
-3.656e-01,1.744
-3.648e-01,1.744
-3.640e-01,1.76
-3.632e-01,1.752
-3.624e-01,1.768
-3.616e-01,1.768
-3.608e-01,1.776
-3.600e-01,1.776
-3.592e-01,1.776
-3.584e-01,1.776
-3.576e-01,1.784
-3.568e-01,1.8
-3.560e-01,1.8
-3.552e-01,1.8
-3.544e-01,1.784
-3.536e-01,1.784
-3.528e-01,1.776
-3.520e-01,1.776
-3.512e-01,1.768
-3.504e-01,1.768
-3.496e-01,1.76
-3.488e-01,1.776
-3.480e-01,1.768
-3.472e-01,1.744
-3.464e-01,1.736
-3.456e-01,1.744
-3.448e-01,1.752
-3.440e-01,1.76
-3.432e-01,1.768
-3.424e-01,1.768
-3.416e-01,1.768
-3.408e-01,1.776
-3.400e-01,1.784
-3.392e-01,1.784
-3.384e-01,1.784
-3.376e-01,1.8
-3.368e-01,1.808
-3.360e-01,1.816
-3.352e-01,1.808
-3.344e-01,1.8
-3.336e-01,1.8
-3.328e-01,1.792
-3.320e-01,1.792
-3.312e-01,1.784
-3.304e-01,1.784
-3.296e-01,1.792
-3.288e-01,1.784
-3.280e-01,1.784
-3.272e-01,1.768
-3.264e-01,1.752
-3.256e-01,1.76
-3.248e-01,1.776
-3.240e-01,1.784
-3.232e-01,1.784
-3.224e-01,1.784
-3.216e-01,1.8
-3.208e-01,1.8
-3.200e-01,1.808
-3.192e-01,1.8
-3.184e-01,1.808
-3.176e-01,1.824
-3.168e-01,1.832
-3.160e-01,1.84
-3.152e-01,1.832
-3.144e-01,1.824
-3.136e-01,1.824
-3.128e-01,1.816
-3.120e-01,1.816
-3.112e-01,1.808
-3.104e-01,1.808
-3.096e-01,1.808
-3.088e-01,1.816
-3.080e-01,1.816
-3.072e-01,1.792
-3.064e-01,1.784
-3.056e-01,1.784
-3.048e-01,1.8
-3.040e-01,1.808
-3.032e-01,1.816
-3.024e-01,1.816
-3.016e-01,1.816
-3.008e-01,1.824
-3.000e-01,1.824
-2.992e-01,1.824
-2.984e-01,1.824
-2.976e-01,1.84
-2.968e-01,1.848
-2.960e-01,1.856
-2.952e-01,1.84
-2.944e-01,1.824
-2.936e-01,1.824
-2.928e-01,1.816
-2.920e-01,1.816
-2.912e-01,1.808
-2.904e-01,1.8
-2.896e-01,1.808
-2.888e-01,1.8
-2.880e-01,1.792
-2.872e-01,1.776
-2.864e-01,1.76
-2.856e-01,1.76
-2.848e-01,1.768
-2.840e-01,1.776
-2.832e-01,1.776
-2.824e-01,1.776
-2.816e-01,1.776
-2.808e-01,1.784
-2.800e-01,1.776
-2.792e-01,1.776
-2.784e-01,1.76
-2.776e-01,1.776
-2.768e-01,1.792
-2.760e-01,1.792
-2.752e-01,1.784
-2.744e-01,1.768
-2.736e-01,1.76
-2.728e-01,1.744
-2.720e-01,1.744
-2.712e-01,1.736
-2.704e-01,1.728
-2.696e-01,1.72
-2.688e-01,1.712
-2.680e-01,1.712
-2.672e-01,1.68
-2.664e-01,1.672
-2.656e-01,1.68
-2.648e-01,1.672
-2.640e-01,1.68
-2.632e-01,1.68
-2.624e-01,1.672
-2.616e-01,1.672
-2.608e-01,1.68
-2.600e-01,1.672
-2.592e-01,1.672
-2.584e-01,1.656
-2.576e-01,1.672
-2.568e-01,1.672
-2.560e-01,1.672
-2.552e-01,1.664
-2.544e-01,1.648
-2.536e-01,1.632
-2.528e-01,1.632
-2.520e-01,1.624
-2.512e-01,1.616
-2.504e-01,1.608
-2.496e-01,1.6
-2.488e-01,1.6
-2.480e-01,1.592
-2.472e-01,1.56
-2.464e-01,1.544
-2.456e-01,1.544
-2.448e-01,1.56
-2.440e-01,1.56
-2.432e-01,1.552
-2.424e-01,1.56
-2.416e-01,1.56
-2.408e-01,1.56
-2.400e-01,1.56
-2.392e-01,1.544
-2.384e-01,1.544
-2.376e-01,1.56
-2.368e-01,1.56
-2.360e-01,1.56
-2.352e-01,1.56
-2.344e-01,1.536
-2.336e-01,1.544
-2.328e-01,1.528
-2.320e-01,1.52
-2.312e-01,1.512
-2.304e-01,1.504
-2.296e-01,1.504
-2.288e-01,1.504
-2.280e-01,1.504
-2.272e-01,1.48
-2.264e-01,1.464
-2.256e-01,1.464
-2.248e-01,1.48
-2.240e-01,1.488
-2.232e-01,1.488
-2.224e-01,1.488
-2.216e-01,1.488
-2.208e-01,1.496
-2.200e-01,1.488
-2.192e-01,1.488
-2.184e-01,1.496
-2.176e-01,1.504
-2.168e-01,1.512
-2.160e-01,1.52
-2.152e-01,1.504
-2.144e-01,1.504
-2.136e-01,1.496
-2.128e-01,1.496
-2.120e-01,1.488
-2.112e-01,1.488
-2.104e-01,1.48
-2.096e-01,1.488
-2.088e-01,1.488
-2.080e-01,1.488
-2.072e-01,1.464
-2.064e-01,1.456
-2.056e-01,1.472
-2.048e-01,1.48
-2.040e-01,1.488
-2.032e-01,1.496
-2.024e-01,1.504
-2.016e-01,1.512
-2.008e-01,1.52
-2.000e-01,1.52
-1.992e-01,1.52
-1.984e-01,1.528
-1.976e-01,1.536
-1.968e-01,1.568
-1.960e-01,1.568
-1.952e-01,1.56
-1.944e-01,1.552
-1.936e-01,1.544
-1.928e-01,1.56
-1.920e-01,1.552
-1.912e-01,1.552
-1.904e-01,1.56
-1.896e-01,1.568
-1.888e-01,1.56
-1.880e-01,1.56
-1.872e-01,1.544
-1.864e-01,1.552
-1.856e-01,1.56
-1.848e-01,1.576
-1.840e-01,1.584
-1.832e-01,1.584
-1.824e-01,1.592
-1.816e-01,1.608
-1.808e-01,1.616
-1.800e-01,1.624
-1.792e-01,1.624
-1.784e-01,1.64
-1.776e-01,1.656
-1.768e-01,1.68
-1.760e-01,1.68
-1.752e-01,1.68
-1.744e-01,1.68
-1.736e-01,1.68
-1.728e-01,1.68
-1.720e-01,1.68
-1.712e-01,1.68
-1.704e-01,1.68
-1.696e-01,1.688
-1.688e-01,1.696
-1.680e-01,1.704
-1.672e-01,1.68
-1.664e-01,1.68
-1.656e-01,1.68
-1.648e-01,1.704
-1.640e-01,1.72
-1.632e-01,1.728
-1.624e-01,1.736
-1.616e-01,1.744
-1.608e-01,1.76
-1.600e-01,1.76
-1.592e-01,1.76
-1.584e-01,1.776
-1.576e-01,1.792
-1.568e-01,1.808
-1.560e-01,1.816
-1.552e-01,1.816
-1.544e-01,1.808
-1.536e-01,1.808
-1.528e-01,1.808
-1.520e-01,1.808
-1.512e-01,1.808
-1.504e-01,1.808
-1.496e-01,1.816
-1.488e-01,1.824
-1.480e-01,1.832
-1.472e-01,1.8
-1.464e-01,1.808
-1.456e-01,1.816
-1.448e-01,1.832
-1.440e-01,1.84
-1.432e-01,1.848
-1.424e-01,1.856
-1.416e-01,1.864
-1.408e-01,1.872
-1.400e-01,1.88
-1.392e-01,1.88
-1.384e-01,1.888
-1.376e-01,1.904
-1.368e-01,1.92
-1.360e-01,1.928
-1.352e-01,1.92
-1.344e-01,1.912
-1.336e-01,1.912
-1.328e-01,1.92
-1.320e-01,1.912
-1.312e-01,1.904
-1.304e-01,1.92
-1.296e-01,1.912
-1.288e-01,1.92
-1.280e-01,1.92
-1.272e-01,1.904
-1.264e-01,1.904
-1.256e-01,1.904
-1.248e-01,1.92
-1.240e-01,1.928
-1.232e-01,1.936
-1.224e-01,1.944
-1.216e-01,1.952
-1.208e-01,1.944
-1.200e-01,1.952
-1.192e-01,1.96
-1.184e-01,1.96
-1.176e-01,1.968
-1.168e-01,1.984
-1.160e-01,1.984
-1.152e-01,1.976
-1.144e-01,1.96
-1.136e-01,1.96
-1.128e-01,1.952
-1.120e-01,1.952
-1.112e-01,1.944
-1.104e-01,1.944
-1.096e-01,1.936
-1.088e-01,1.944
-1.080e-01,1.936
-1.072e-01,1.904
-1.064e-01,1.896
-1.056e-01,1.896
-1.048e-01,1.904
-1.040e-01,1.904
-1.032e-01,1.912
-1.024e-01,1.912
-1.016e-01,1.904
-1.008e-01,1.912
-1.000e-01,1.912
-9.920e-02,1.904
-9.840e-02,1.904
-9.760e-02,1.92
-9.680e-02,1.92
-9.600e-02,1.928
-9.520e-02,1.912
-9.440e-02,1.888
-9.360e-02,1.888
-9.280e-02,1.872
-9.200e-02,1.864
-9.120e-02,1.856
-9.040e-02,1.848
-8.960e-02,1.84
-8.880e-02,1.832
-8.800e-02,1.824
-8.720e-02,1.792
-8.640e-02,1.784
-8.560e-02,1.784
-8.480e-02,1.784
-8.400e-02,1.784
-8.320e-02,1.784
-8.240e-02,1.776
-8.160e-02,1.776
-8.080e-02,1.776
-8.000e-02,1.776
-7.920e-02,1.768
-7.840e-02,1.768
-7.760e-02,1.768
-7.680e-02,1.784
-7.600e-02,1.784
-7.520e-02,1.768
-7.440e-02,1.76
-7.360e-02,1.752
-7.280e-02,1.744
-7.200e-02,1.736
-7.120e-02,1.72
-7.040e-02,1.728
-6.960e-02,1.728
-6.880e-02,1.72
-6.800e-02,1.712
-6.720e-02,1.688
-6.640e-02,1.688
-6.560e-02,1.688
-6.480e-02,1.704
-6.400e-02,1.712
-6.320e-02,1.712
-6.240e-02,1.712
-6.160e-02,1.72
-6.080e-02,1.728
-6.000e-02,1.728
-5.920e-02,1.728
-5.840e-02,1.736
-5.760e-02,1.752
-5.680e-02,1.776
-5.600e-02,1.784
-5.520e-02,1.776
-5.440e-02,1.768
-5.360e-02,1.768
-5.280e-02,1.776
-5.200e-02,1.776
-5.120e-02,1.776
-5.040e-02,1.784
-4.960e-02,1.792
-4.880e-02,1.8
-4.800e-02,1.8
-4.720e-02,1.784
-4.640e-02,1.784
-4.560e-02,1.8
-4.480e-02,1.816
-4.400e-02,1.84
-4.320e-02,1.848
-4.240e-02,1.856
-4.160e-02,1.872
-4.080e-02,1.896
-4.000e-02,1.896
-3.920e-02,1.912
-3.840e-02,1.92
-3.760e-02,1.944
-3.680e-02,1.968
-3.600e-02,1.984
-3.520e-02,1.992
-3.440e-02,1.984
-3.360e-02,1.992
-3.280e-02,2
-3.200e-02,2.008
-3.120e-02,2.016
-3.040e-02,2.024
-2.960e-02,2.04
-2.880e-02,2.056
-2.800e-02,2.056
-2.720e-02,2.04
-2.640e-02,2.048
-2.560e-02,2.064
-2.480e-02,2.088
-2.400e-02,2.104
-2.320e-02,2.128
-2.240e-02,2.136
-2.160e-02,2.16
-2.080e-02,2.16
-2.000e-02,2.176
-1.920e-02,2.192
-1.840e-02,2.2
-1.760e-02,2.224
-1.680e-02,2.256
-1.600e-02,2.264
-1.520e-02,2.272
-1.440e-02,2.264
-1.360e-02,2.272
-1.280e-02,2.272
-1.200e-02,2.28
-1.120e-02,2.288
-1.040e-02,2.296
-9.600e-03,2.312
-8.800e-03,2.312
-8.000e-03,2.32
-7.200e-03,2.304
-6.400e-03,2.312
-5.600e-03,2.32
-4.800e-03,2.344
-4.000e-03,2.36
-3.200e-03,2.368
-2.400e-03,2.384
-1.600e-03,2.4
-8.000e-04,2.408
1.196e-14,2.416
8.000e-04,2.424
1.600e-03,2.44
2.400e-03,2.448
3.200e-03,2.472
4.000e-03,2.48
4.800e-03,2.48
5.600e-03,2.472
6.400e-03,2.48
7.200e-03,2.48
8.000e-03,2.488
8.800e-03,2.488
9.600e-03,2.488
1.040e-02,2.496
1.120e-02,2.504
1.200e-02,2.496
1.280e-02,2.48
1.360e-02,2.488
1.440e-02,2.496
1.520e-02,2.504
1.600e-02,2.52
1.680e-02,2.536
1.760e-02,2.528
1.840e-02,2.544
1.920e-02,2.552
2.000e-02,2.56
2.080e-02,2.56
2.160e-02,2.568
2.240e-02,2.584
2.320e-02,2.608
2.400e-02,2.6
2.480e-02,2.608
2.560e-02,2.6
2.640e-02,2.592
2.720e-02,2.6
2.800e-02,2.592
2.880e-02,2.6
2.960e-02,2.592
3.040e-02,2.6
3.120e-02,2.6
3.200e-02,2.6
3.280e-02,2.576
3.360e-02,2.568
3.440e-02,2.592
3.520e-02,2.6
3.600e-02,2.616
3.680e-02,2.608
3.760e-02,2.616
3.840e-02,2.624
3.920e-02,2.632
4.000e-02,2.64
4.080e-02,2.624
4.160e-02,2.64
4.240e-02,2.648
4.320e-02,2.672
4.400e-02,2.672
4.480e-02,2.664
4.560e-02,2.656
4.640e-02,2.648
4.720e-02,2.648
4.800e-02,2.648
4.880e-02,2.648
4.960e-02,2.64
5.040e-02,2.648
5.120e-02,2.648
5.200e-02,2.648
5.280e-02,2.624
5.360e-02,2.624
5.440e-02,2.624
5.520e-02,2.64
5.600e-02,2.64
5.680e-02,2.656
5.760e-02,2.656
5.840e-02,2.664
5.920e-02,2.664
6.000e-02,2.664
6.080e-02,2.664
6.160e-02,2.672
6.240e-02,2.68
6.320e-02,2.696
6.400e-02,2.696
6.480e-02,2.696
6.560e-02,2.672
6.640e-02,2.68
6.720e-02,2.672
6.800e-02,2.664
6.880e-02,2.664
6.960e-02,2.664
7.040e-02,2.664
7.120e-02,2.664
7.200e-02,2.656
7.280e-02,2.64
7.360e-02,2.632
7.440e-02,2.64
7.520e-02,2.648
7.600e-02,2.656
7.680e-02,2.656
7.760e-02,2.664
7.840e-02,2.672
7.920e-02,2.672
8.000e-02,2.672
8.080e-02,2.672
8.160e-02,2.672
8.240e-02,2.696
8.320e-02,2.704
8.400e-02,2.696
8.480e-02,2.696
8.560e-02,2.688
8.640e-02,2.68
8.720e-02,2.672
8.800e-02,2.68
8.880e-02,2.664
8.960e-02,2.672
9.040e-02,2.664
9.120e-02,2.664
9.200e-02,2.672
9.280e-02,2.648
9.360e-02,2.64
9.440e-02,2.648
9.520e-02,2.656
9.600e-02,2.664
9.680e-02,2.664
9.760e-02,2.68
9.840e-02,2.672
9.920e-02,2.68
1.000e-01,2.688
1.008e-01,2.68
1.016e-01,2.68
1.024e-01,2.704
1.032e-01,2.712
1.040e-01,2.704
1.048e-01,2.704
1.056e-01,2.704
1.064e-01,2.688
1.072e-01,2.688
1.080e-01,2.68
1.088e-01,2.672
1.096e-01,2.672
1.104e-01,2.68
1.112e-01,2.672
1.120e-01,2.68
1.128e-01,2.656
1.136e-01,2.648
1.144e-01,2.656
1.152e-01,2.664
1.160e-01,2.664
1.168e-01,2.68
1.176e-01,2.68
1.184e-01,2.688
1.192e-01,2.688
1.200e-01,2.688
1.208e-01,2.688
1.216e-01,2.688
1.224e-01,2.712
1.232e-01,2.72
1.240e-01,2.728
1.248e-01,2.72
1.256e-01,2.704
1.264e-01,2.696
1.272e-01,2.696
1.280e-01,2.696
1.288e-01,2.688
1.296e-01,2.696
1.304e-01,2.688
1.312e-01,2.688
1.320e-01,2.688
1.328e-01,2.664
1.336e-01,2.656
1.344e-01,2.664
1.352e-01,2.68
1.360e-01,2.68
1.368e-01,2.688
1.376e-01,2.688
1.384e-01,2.688
1.392e-01,2.704
1.400e-01,2.696
1.408e-01,2.696
1.416e-01,2.704
1.424e-01,2.72
1.432e-01,2.728
1.440e-01,2.728
1.448e-01,2.72
1.456e-01,2.704
1.464e-01,2.704
1.472e-01,2.696
1.480e-01,2.688
1.488e-01,2.688
1.496e-01,2.688
1.504e-01,2.688
1.512e-01,2.68
1.520e-01,2.68
1.528e-01,2.648
1.536e-01,2.648
1.544e-01,2.648
1.552e-01,2.656
1.560e-01,2.656
1.568e-01,2.664
1.576e-01,2.664
1.584e-01,2.672
1.592e-01,2.664
1.600e-01,2.664
1.608e-01,2.664
1.616e-01,2.656
1.624e-01,2.672
1.632e-01,2.68
1.640e-01,2.68
1.648e-01,2.664
1.656e-01,2.648
1.664e-01,2.64
1.672e-01,2.64
1.680e-01,2.632
1.688e-01,2.616
1.696e-01,2.608
1.704e-01,2.608
1.712e-01,2.6
1.720e-01,2.592
1.728e-01,2.56
1.736e-01,2.56
1.744e-01,2.56
1.752e-01,2.568
1.760e-01,2.568
1.768e-01,2.568
1.776e-01,2.568
1.784e-01,2.56
1.792e-01,2.56
1.800e-01,2.552
1.808e-01,2.544
1.816e-01,2.544
1.824e-01,2.552
1.832e-01,2.56
1.840e-01,2.552
1.848e-01,2.536
1.856e-01,2.52
1.864e-01,2.504
1.872e-01,2.496
1.880e-01,2.48
1.888e-01,2.472
1.896e-01,2.472
1.904e-01,2.464
1.912e-01,2.464
1.920e-01,2.44
1.928e-01,2.416
1.936e-01,2.4
1.944e-01,2.4
1.952e-01,2.408
1.960e-01,2.408
1.968e-01,2.408
1.976e-01,2.408
1.984e-01,2.408
1.992e-01,2.4
2.000e-01,2.392
2.008e-01,2.392
2.016e-01,2.384
2.024e-01,2.408
2.032e-01,2.408
2.040e-01,2.4
2.048e-01,2.384
2.056e-01,2.376
2.064e-01,2.368
2.072e-01,2.368
2.080e-01,2.352
2.088e-01,2.336
2.096e-01,2.344
2.104e-01,2.336
2.112e-01,2.328
2.120e-01,2.32
2.128e-01,2.296
2.136e-01,2.288
2.144e-01,2.296
2.152e-01,2.296
2.160e-01,2.304
2.168e-01,2.312
2.176e-01,2.312
2.184e-01,2.304
2.192e-01,2.304
2.200e-01,2.296
2.208e-01,2.304
2.216e-01,2.304
2.224e-01,2.312
2.232e-01,2.32
2.240e-01,2.32
2.248e-01,2.304
2.256e-01,2.288
2.264e-01,2.28
2.272e-01,2.28
2.280e-01,2.272
2.288e-01,2.264
2.296e-01,2.264
2.304e-01,2.264
2.312e-01,2.264
2.320e-01,2.248
2.328e-01,2.232
2.336e-01,2.216
2.344e-01,2.224
2.352e-01,2.232
2.360e-01,2.232
2.368e-01,2.24
2.376e-01,2.24
2.384e-01,2.248
2.392e-01,2.24
2.400e-01,2.248
2.408e-01,2.24
2.416e-01,2.24
2.424e-01,2.256
2.432e-01,2.272
2.440e-01,2.264
2.448e-01,2.256
2.456e-01,2.24
2.464e-01,2.24
2.472e-01,2.232
2.480e-01,2.224
2.488e-01,2.232
2.496e-01,2.224
