lab_data/8 - 20/TEK00012.CSV

Model,TBS1102C
Firmware Version,v2015-08-04-prequal4ch70_v1.3

Point Format,Y
Horizontal Units,S
Horizontal Scale,0.1
Sample Interval,0.0008
Filter Frequency,2e+08
Record Length,2000
Gating,0.0% to 100.0%
Probe Attenuation,1
Vertical Units,V
Vertical Offset,1
Vertical Scale,0.2
Label,
TIME,CH1
-7.072e-01,1.8
-7.064e-01,1.808
-7.056e-01,1.792
-7.048e-01,1.784
-7.040e-01,1.784
-7.032e-01,1.776
-7.024e-01,1.768
-7.016e-01,1.768
-7.008e-01,1.768
-7.000e-01,1.768
-6.992e-01,1.768
-6.984e-01,1.768
-6.976e-01,1.744
-6.968e-01,1.736
-6.960e-01,1.736
-6.952e-01,1.76
-6.944e-01,1.76
-6.936e-01,1.768
-6.928e-01,1.768
-6.920e-01,1.768
-6.912e-01,1.776
-6.904e-01,1.768
-6.896e-01,1.776
-6.888e-01,1.776
-6.880e-01,1.8
-6.872e-01,1.8
-6.864e-01,1.8
-6.856e-01,1.8
-6.848e-01,1.784
-6.840e-01,1.792
-6.832e-01,1.776
-6.824e-01,1.776
-6.816e-01,1.768
-6.808e-01,1.768
-6.800e-01,1.784
-6.792e-01,1.768
-6.784e-01,1.76
-6.776e-01,1.744
-6.768e-01,1.744
-6.760e-01,1.744
-6.752e-01,1.76
-6.744e-01,1.76
-6.736e-01,1.76
-6.728e-01,1.76
-6.720e-01,1.776
-6.712e-01,1.768
-6.704e-01,1.776
-6.696e-01,1.768
-6.688e-01,1.768
-6.680e-01,1.792
-6.672e-01,1.808
-6.664e-01,1.8
-6.656e-01,1.8
-6.648e-01,1.784
-6.640e-01,1.776
-6.632e-01,1.776
-6.624e-01,1.768
-6.616e-01,1.776
-6.608e-01,1.768
-6.600e-01,1.768
-6.592e-01,1.76
-6.584e-01,1.76
-6.576e-01,1.752
-6.568e-01,1.736
-6.560e-01,1.744
-6.552e-01,1.752
-6.544e-01,1.768
-6.536e-01,1.76
-6.528e-01,1.768
-6.520e-01,1.776
-6.512e-01,1.768
-6.504e-01,1.768
-6.496e-01,1.776
-6.488e-01,1.768
-6.480e-01,1.8
-6.472e-01,1.8
-6.464e-01,1.8
-6.456e-01,1.8
-6.448e-01,1.784
-6.440e-01,1.784
-6.432e-01,1.784
-6.424e-01,1.776
-6.416e-01,1.768
-6.408e-01,1.776
-6.400e-01,1.76
-6.392e-01,1.768
-6.384e-01,1.76
-6.376e-01,1.752
-6.368e-01,1.736
-6.360e-01,1.744
-6.352e-01,1.752
-6.344e-01,1.76
-6.336e-01,1.752
-6.328e-01,1.768
-6.320e-01,1.776
-6.312e-01,1.768
-6.304e-01,1.776
-6.296e-01,1.768
-6.288e-01,1.776
-6.280e-01,1.792
-6.272e-01,1.808
-6.264e-01,1.8
-6.256e-01,1.792
-6.248e-01,1.784
-6.240e-01,1.776
-6.232e-01,1.776
-6.224e-01,1.768
-6.216e-01,1.768
-6.208e-01,1.768
-6.200e-01,1.768
-6.192e-01,1.76
-6.184e-01,1.76
-6.176e-01,1.736
-6.168e-01,1.744
-6.160e-01,1.736
-6.152e-01,1.752
-6.144e-01,1.76
-6.136e-01,1.76
-6.128e-01,1.76
-6.120e-01,1.76
-6.112e-01,1.768
-6.104e-01,1.768
-6.096e-01,1.776
-6.088e-01,1.776
-6.080e-01,1.792
-6.072e-01,1.8
-6.064e-01,1.8
-6.056e-01,1.8
-6.048e-01,1.784
-6.040e-01,1.776
-6.032e-01,1.776
-6.024e-01,1.776
-6.016e-01,1.768
-6.008e-01,1.76
-6.000e-01,1.768
-5.992e-01,1.768
-5.984e-01,1.76
-5.976e-01,1.744
-5.968e-01,1.728
-5.960e-01,1.752
-5.952e-01,1.752
-5.944e-01,1.76
-5.936e-01,1.768
-5.928e-01,1.76
-5.920e-01,1.776
-5.912e-01,1.776
-5.904e-01,1.776
-5.896e-01,1.768
-5.888e-01,1.784
-5.880e-01,1.792
-5.872e-01,1.808
-5.864e-01,1.8
-5.856e-01,1.792
-5.848e-01,1.784
-5.840e-01,1.784
-5.832e-01,1.784
-5.824e-01,1.776
-5.816e-01,1.768
-5.808e-01,1.768
-5.800e-01,1.768
-5.792e-01,1.768
-5.784e-01,1.768
-5.776e-01,1.744
-5.768e-01,1.744
-5.760e-01,1.736
-5.752e-01,1.752
-5.744e-01,1.76
-5.736e-01,1.76
-5.728e-01,1.76
-5.720e-01,1.768
-5.712e-01,1.776
-5.704e-01,1.776
-5.696e-01,1.776
-5.688e-01,1.768
-5.680e-01,1.792
-5.672e-01,1.808
-5.664e-01,1.808
-5.656e-01,1.792
-5.648e-01,1.784
-5.640e-01,1.776
-5.632e-01,1.776
-5.624e-01,1.776
-5.616e-01,1.776
-5.608e-01,1.776
-5.600e-01,1.776
-5.592e-01,1.76
-5.584e-01,1.76
-5.576e-01,1.736
-5.568e-01,1.736
-5.560e-01,1.744
-5.552e-01,1.752
-5.544e-01,1.752
-5.536e-01,1.76
-5.528e-01,1.768
-5.520e-01,1.776
-5.512e-01,1.768
-5.504e-01,1.776
-5.496e-01,1.768
-5.488e-01,1.776
-5.480e-01,1.792
-5.472e-01,1.8
-5.464e-01,1.8
-5.456e-01,1.8
-5.448e-01,1.784
-5.440e-01,1.784
-5.432e-01,1.784
-5.424e-01,1.776
-5.416e-01,1.76
-5.408e-01,1.768
-5.400e-01,1.776
-5.392e-01,1.776
-5.384e-01,1.76
-5.376e-01,1.736
-5.368e-01,1.736
-5.360e-01,1.736
-5.352e-01,1.752
-5.344e-01,1.76
-5.336e-01,1.76
-5.328e-01,1.768
-5.320e-01,1.776
-5.312e-01,1.768
-5.304e-01,1.776
-5.296e-01,1.768
-5.288e-01,1.776
-5.280e-01,1.792
-5.272e-01,1.808
-5.264e-01,1.808
-5.256e-01,1.784
-5.248e-01,1.784
-5.240e-01,1.784
-5.232e-01,1.776
-5.224e-01,1.776
-5.216e-01,1.768
-5.208e-01,1.768
-5.200e-01,1.776
-5.192e-01,1.768
-5.184e-01,1.76
-5.176e-01,1.744
-5.168e-01,1.736
-5.160e-01,1.736
-5.152e-01,1.752
-5.144e-01,1.768
-5.136e-01,1.768
-5.128e-01,1.784
-5.120e-01,1.776
-5.112e-01,1.768
-5.104e-01,1.776
-5.096e-01,1.768
-5.088e-01,1.776
-5.080e-01,1.8
-5.072e-01,1.8
-5.064e-01,1.8
-5.056e-01,1.8
-5.048e-01,1.784
-5.040e-01,1.776
-5.032e-01,1.784
-5.024e-01,1.768
-5.016e-01,1.768
-5.008e-01,1.768
-5.000e-01,1.768
-4.992e-01,1.768
-4.984e-01,1.76
-4.976e-01,1.736
-4.968e-01,1.736
-4.960e-01,1.744
-4.952e-01,1.752
-4.944e-01,1.752
-4.936e-01,1.76
-4.928e-01,1.768
-4.920e-01,1.776
-4.912e-01,1.768
-4.904e-01,1.768
-4.896e-01,1.776
-4.888e-01,1.776
-4.880e-01,1.792
-4.872e-01,1.808
-4.864e-01,1.808
-4.856e-01,1.792
-4.848e-01,1.784
-4.840e-01,1.784
-4.832e-01,1.768
-4.824e-01,1.768
-4.816e-01,1.768
-4.808e-01,1.768
-4.800e-01,1.776
-4.792e-01,1.776
-4.784e-01,1.76
-4.776e-01,1.744
-4.768e-01,1.736
-4.760e-01,1.744
-4.752e-01,1.752
-4.744e-01,1.76
-4.736e-01,1.768
-4.728e-01,1.776
-4.720e-01,1.768
-4.712e-01,1.776
-4.704e-01,1.776
-4.696e-01,1.776
-4.688e-01,1.776
-4.680e-01,1.8
-4.672e-01,1.808
-4.664e-01,1.8
-4.656e-01,1.8
-4.648e-01,1.784
-4.640e-01,1.776
-4.632e-01,1.784
-4.624e-01,1.776
-4.616e-01,1.768
-4.608e-01,1.76
-4.600e-01,1.768
-4.592e-01,1.768
-4.584e-01,1.752
-4.576e-01,1.744
-4.568e-01,1.736
-4.560e-01,1.752
-4.552e-01,1.76
-4.544e-01,1.752
-4.536e-01,1.76
-4.528e-01,1.768
-4.520e-01,1.768
-4.512e-01,1.776
-4.504e-01,1.776
-4.496e-01,1.776
-4.488e-01,1.784
-4.480e-01,1.8
-4.472e-01,1.808
-4.464e-01,1.8
-4.456e-01,1.792
-4.448e-01,1.784
-4.440e-01,1.776
-4.432e-01,1.776
-4.424e-01,1.776
-4.416e-01,1.776
-4.408e-01,1.768
-4.400e-01,1.768
-4.392e-01,1.776
-4.384e-01,1.76
-4.376e-01,1.736
-4.368e-01,1.736
-4.360e-01,1.736
-4.352e-01,1.752
-4.344e-01,1.76
-4.336e-01,1.768
-4.328e-01,1.76
-4.320e-01,1.768
-4.312e-01,1.776
-4.304e-01,1.768
-4.296e-01,1.768
-4.288e-01,1.776
-4.280e-01,1.8
-4.272e-01,1.8
-4.264e-01,1.8
-4.256e-01,1.792
-4.248e-01,1.784
-4.240e-01,1.776
-4.232e-01,1.776
-4.224e-01,1.768
-4.216e-01,1.768
-4.208e-01,1.76
-4.200e-01,1.768
-4.192e-01,1.768
-4.184e-01,1.76
-4.176e-01,1.744
-4.168e-01,1.736
-4.160e-01,1.744
-4.152e-01,1.76
-4.144e-01,1.76
-4.136e-01,1.768
-4.128e-01,1.768
-4.120e-01,1.768
-4.112e-01,1.776
-4.104e-01,1.776
-4.096e-01,1.784
-4.088e-01,1.776
-4.080e-01,1.808
-4.072e-01,1.816
-4.064e-01,1.8
-4.056e-01,1.792
-4.048e-01,1.776
-4.040e-01,1.776
-4.032e-01,1.776
-4.024e-01,1.776
-4.016e-01,1.76
-4.008e-01,1.768
-4.000e-01,1.768
-3.992e-01,1.768
-3.984e-01,1.752
-3.976e-01,1.744
-3.968e-01,1.728
-3.960e-01,1.752
-3.952e-01,1.752
-3.944e-01,1.76
-3.936e-01,1.768
-3.928e-01,1.768
-3.920e-01,1.776
-3.912e-01,1.768
-3.904e-01,1.768
-3.896e-01,1.776
-3.888e-01,1.776
-3.880e-01,1.792
-3.872e-01,1.8
-3.864e-01,1.8
-3.856e-01,1.8
-3.848e-01,1.776
-3.840e-01,1.776
-3.832e-01,1.784
-3.824e-01,1.776
-3.816e-01,1.776
-3.808e-01,1.768
-3.800e-01,1.768
-3.792e-01,1.768
-3.784e-01,1.76
-3.776e-01,1.736
-3.768e-01,1.736
-3.760e-01,1.736
-3.752e-01,1.76
-3.744e-01,1.76
-3.736e-01,1.768
-3.728e-01,1.768
-3.720e-01,1.768
-3.712e-01,1.776
-3.704e-01,1.776
-3.696e-01,1.776
-3.688e-01,1.776
-3.680e-01,1.8
-3.672e-01,1.808
-3.664e-01,1.808
-3.656e-01,1.8
-3.648e-01,1.792
-3.640e-01,1.784
-3.632e-01,1.776
-3.624e-01,1.776
-3.616e-01,1.776
-3.608e-01,1.768
-3.600e-01,1.768
-3.592e-01,1.768
-3.584e-01,1.768
-3.576e-01,1.744
-3.568e-01,1.752
-3.560e-01,1.744
-3.552e-01,1.76
-3.544e-01,1.776
-3.536e-01,1.776
-3.528e-01,1.768
-3.520e-01,1.776
-3.512e-01,1.776
-3.504e-01,1.776
-3.496e-01,1.776
-3.488e-01,1.784
-3.480e-01,1.8
-3.472e-01,1.808
-3.464e-01,1.816
-3.456e-01,1.8
-3.448e-01,1.792
-3.440e-01,1.792
-3.432e-01,1.792
-3.424e-01,1.784
-3.416e-01,1.776
-3.408e-01,1.776
-3.400e-01,1.784
-3.392e-01,1.776
-3.384e-01,1.776
-3.376e-01,1.752
-3.368e-01,1.744
-3.360e-01,1.76
-3.352e-01,1.768
-3.344e-01,1.776
-3.336e-01,1.776
-3.328e-01,1.784
-3.320e-01,1.792
-3.312e-01,1.792
-3.304e-01,1.792
-3.296e-01,1.8
-3.288e-01,1.8
-3.280e-01,1.824
-3.272e-01,1.832
-3.264e-01,1.832
-3.256e-01,1.824
-3.248e-01,1.816
-3.240e-01,1.8
-3.232e-01,1.808
-3.224e-01,1.808
-3.216e-01,1.8
-3.208e-01,1.808
-3.200e-01,1.808
-3.192e-01,1.8
-3.184e-01,1.792
-3.176e-01,1.784
-3.168e-01,1.784
-3.160e-01,1.792
-3.152e-01,1.792
-3.144e-01,1.808
-3.136e-01,1.808
-3.128e-01,1.824
-3.120e-01,1.816
-3.112e-01,1.824
-3.104e-01,1.824
-3.096e-01,1.824
-3.088e-01,1.824
-3.080e-01,1.848
-3.072e-01,1.856
-3.064e-01,1.856
-3.056e-01,1.848
-3.048e-01,1.832
-3.040e-01,1.832
-3.032e-01,1.832
-3.024e-01,1.824
-3.016e-01,1.816
-3.008e-01,1.808
-3.000e-01,1.816
-2.992e-01,1.808
-2.984e-01,1.8
-2.976e-01,1.784
-2.968e-01,1.768
-2.960e-01,1.784
-2.952e-01,1.792
-2.944e-01,1.792
-2.936e-01,1.8
-2.928e-01,1.792
-2.920e-01,1.8
-2.912e-01,1.792
-2.904e-01,1.8
-2.896e-01,1.792
-2.888e-01,1.792
-2.880e-01,1.816
-2.872e-01,1.816
-2.864e-01,1.816
-2.856e-01,1.8
-2.848e-01,1.792
-2.840e-01,1.784
-2.832e-01,1.784
-2.824e-01,1.768
-2.816e-01,1.76
-2.808e-01,1.76
-2.800e-01,1.752
-2.792e-01,1.744
-2.784e-01,1.728
-2.776e-01,1.712
-2.768e-01,1.704
-2.760e-01,1.696
-2.752e-01,1.712
-2.744e-01,1.712
-2.736e-01,1.704
-2.728e-01,1.712
-2.720e-01,1.72
-2.712e-01,1.704
-2.704e-01,1.704
-2.696e-01,1.704
-2.688e-01,1.704
-2.680e-01,1.72
-2.672e-01,1.712
-2.664e-01,1.712
-2.656e-01,1.696
-2.648e-01,1.68
-2.640e-01,1.672
-2.632e-01,1.656
-2.624e-01,1.656
-2.616e-01,1.648
-2.608e-01,1.64
-2.600e-01,1.64
-2.592e-01,1.632
-2.584e-01,1.608
-2.576e-01,1.6
-2.568e-01,1.584
-2.560e-01,1.592
-2.552e-01,1.6
-2.544e-01,1.6
-2.536e-01,1.592
-2.528e-01,1.592
-2.520e-01,1.592
-2.512e-01,1.592
-2.504e-01,1.584
-2.496e-01,1.576
-2.488e-01,1.584
-2.480e-01,1.592
-2.472e-01,1.6
-2.464e-01,1.592
-2.456e-01,1.576
-2.448e-01,1.568
-2.440e-01,1.56
-2.432e-01,1.552
-2.424e-01,1.544
-2.416e-01,1.536
-2.408e-01,1.528
-2.400e-01,1.528
-2.392e-01,1.52
-2.384e-01,1.512
-2.376e-01,1.488
-2.368e-01,1.496
-2.360e-01,1.488
-2.352e-01,1.504
-2.344e-01,1.496
-2.336e-01,1.504
-2.328e-01,1.504
-2.320e-01,1.504
-2.312e-01,1.504
-2.304e-01,1.496
-2.296e-01,1.496
-2.288e-01,1.504
-2.280e-01,1.52
-2.272e-01,1.528
-2.264e-01,1.52
-2.256e-01,1.512
-2.248e-01,1.496
-2.240e-01,1.496
-2.232e-01,1.488
-2.224e-01,1.488
-2.216e-01,1.488
-2.208e-01,1.488
-2.200e-01,1.48
-2.192e-01,1.48
-2.184e-01,1.464
-2.176e-01,1.448
-2.168e-01,1.456
-2.160e-01,1.456
-2.152e-01,1.48
-2.144e-01,1.48
-2.136e-01,1.48
-2.128e-01,1.488
-2.120e-01,1.496
-2.112e-01,1.496
-2.104e-01,1.496
-2.096e-01,1.504
-2.088e-01,1.496
-2.080e-01,1.528
-2.072e-01,1.536
-2.064e-01,1.544
-2.056e-01,1.536
-2.048e-01,1.528
-2.040e-01,1.528
-2.032e-01,1.528
-2.024e-01,1.528
-2.016e-01,1.52
-2.008e-01,1.528
-2.000e-01,1.536
-1.992e-01,1.528
-1.984e-01,1.528
-1.976e-01,1.512
-1.968e-01,1.512
-1.960e-01,1.528
-1.952e-01,1.544
-1.944e-01,1.552
-1.936e-01,1.552
-1.928e-01,1.56
-1.920e-01,1.568
-1.912e-01,1.576
-1.904e-01,1.592
-1.896e-01,1.592
-1.888e-01,1.6
-1.880e-01,1.624
-1.872e-01,1.632
-1.864e-01,1.632
-1.856e-01,1.632
-1.848e-01,1.624
-1.840e-01,1.624
-1.832e-01,1.624
-1.824e-01,1.632
-1.816e-01,1.624
-1.808e-01,1.64
-1.800e-01,1.656
-1.792e-01,1.64
-1.784e-01,1.64
-1.776e-01,1.632
-1.768e-01,1.632
-1.760e-01,1.64
-1.752e-01,1.664
-1.744e-01,1.672
-1.736e-01,1.68
-1.728e-01,1.688
-1.720e-01,1.704
-1.712e-01,1.704
-1.704e-01,1.704
-1.696e-01,1.72
-1.688e-01,1.72
-1.680e-01,1.752
-1.672e-01,1.768
-1.664e-01,1.768
-1.656e-01,1.76
-1.648e-01,1.76
-1.640e-01,1.76
-1.632e-01,1.76
-1.624e-01,1.768
-1.616e-01,1.76
-1.608e-01,1.768
-1.600e-01,1.776
-1.592e-01,1.776
-1.584e-01,1.768
-1.576e-01,1.752
-1.568e-01,1.76
-1.560e-01,1.768
-1.552e-01,1.792
-1.544e-01,1.8
-1.536e-01,1.808
-1.528e-01,1.824
-1.520e-01,1.824
-1.512e-01,1.824
-1.504e-01,1.84
-1.496e-01,1.84
-1.488e-01,1.848
-1.480e-01,1.872
-1.472e-01,1.888
-1.464e-01,1.888
-1.456e-01,1.88
-1.448e-01,1.88
-1.440e-01,1.872
-1.432e-01,1.88
-1.424e-01,1.88
-1.416e-01,1.88
-1.408e-01,1.888
-1.400e-01,1.888
-1.392e-01,1.888
-1.384e-01,1.88
-1.376e-01,1.864
-1.368e-01,1.872
-1.360e-01,1.888
-1.352e-01,1.896
-1.344e-01,1.912
-1.336e-01,1.912
-1.328e-01,1.92
-1.320e-01,1.928
-1.312e-01,1.928
-1.304e-01,1.936
-1.296e-01,1.944
-1.288e-01,1.936
-1.280e-01,1.968
-1.272e-01,1.976
-1.264e-01,1.976
-1.256e-01,1.976
-1.248e-01,1.96
-1.240e-01,1.96
-1.232e-01,1.96
-1.224e-01,1.96
-1.216e-01,1.96
-1.208e-01,1.952
-1.200e-01,1.96
-1.192e-01,1.952
-1.184e-01,1.944
-1.176e-01,1.928
-1.168e-01,1.92
-1.160e-01,1.928
-1.152e-01,1.936
-1.144e-01,1.944
-1.136e-01,1.936
-1.128e-01,1.944
-1.120e-01,1.944
-1.112e-01,1.944
-1.104e-01,1.944
-1.096e-01,1.936
-1.088e-01,1.944
-1.080e-01,1.952
-1.072e-01,1.96
-1.064e-01,1.952
-1.056e-01,1.952
-1.048e-01,1.936
-1.040e-01,1.928
-1.032e-01,1.92
-1.024e-01,1.912
-1.016e-01,1.912
-1.008e-01,1.904
-1.000e-01,1.896
-9.920e-02,1.888
-9.840e-02,1.864
-9.760e-02,1.848
-9.680e-02,1.84
-9.600e-02,1.856
-9.520e-02,1.848
-9.440e-02,1.856
-9.360e-02,1.856
-9.280e-02,1.856
-9.200e-02,1.848
-9.120e-02,1.84
-9.040e-02,1.84
-8.960e-02,1.832
-8.880e-02,1.832
-8.800e-02,1.848
-8.720e-02,1.848
-8.640e-02,1.832
-8.560e-02,1.824
-8.480e-02,1.8
-8.400e-02,1.792
-8.320e-02,1.792
-8.240e-02,1.784
-8.160e-02,1.776
-8.080e-02,1.776
-8.000e-02,1.76
-7.920e-02,1.76
-7.840e-02,1.736
-7.760e-02,1.72
-7.680e-02,1.712
-7.600e-02,1.712
-7.520e-02,1.72
-7.440e-02,1.728
-7.360e-02,1.728
-7.280e-02,1.728
-7.200e-02,1.728
-7.120e-02,1.728
-7.040e-02,1.728
-6.960e-02,1.728
-6.880e-02,1.72
-6.800e-02,1.744
-6.720e-02,1.76
-6.640e-02,1.752
-6.560e-02,1.744
-6.480e-02,1.736
-6.400e-02,1.736
-6.320e-02,1.728
-6.240e-02,1.728
-6.160e-02,1.728
-6.080e-02,1.728
-6.000e-02,1.728
-5.920e-02,1.728
-5.840e-02,1.728
-5.760e-02,1.712
-5.680e-02,1.712
-5.600e-02,1.728
-5.520e-02,1.744
-5.440e-02,1.76
-5.360e-02,1.76
-5.280e-02,1.768
-5.200e-02,1.776
-5.120e-02,1.792
-5.040e-02,1.792
-4.960e-02,1.8
-4.880e-02,1.816
-4.800e-02,1.848
-4.720e-02,1.856
-4.640e-02,1.856
-4.560e-02,1.864
-4.480e-02,1.864
-4.400e-02,1.864
-4.320e-02,1.872
-4.240e-02,1.888
-4.160e-02,1.888
-4.080e-02,1.896
-4.000e-02,1.904
-3.920e-02,1.912
-3.840e-02,1.912
-3.760e-02,1.912
-3.680e-02,1.92
-3.600e-02,1.928
-3.520e-02,1.96
-3.440e-02,1.976
-3.360e-02,1.992
-3.280e-02,2
-3.200e-02,2.016
-3.120e-02,2.04
-3.040e-02,2.04
-2.960e-02,2.056
-2.880e-02,2.064
-2.800e-02,2.104
-2.720e-02,2.12
-2.640e-02,2.136
-2.560e-02,2.136
-2.480e-02,2.136
-2.400e-02,2.136
-2.320e-02,2.144
-2.240e-02,2.16
-2.160e-02,2.168
-2.080e-02,2.184
-2.000e-02,2.184
-1.920e-02,2.2
-1.840e-02,2.192
-1.760e-02,2.192
-1.680e-02,2.2
-1.600e-02,2.208
-1.520e-02,2.24
-1.440e-02,2.256
-1.360e-02,2.264
-1.280e-02,2.272
-1.200e-02,2.288
-1.120e-02,2.304
-1.040e-02,2.312
-9.600e-03,2.328
-8.800e-03,2.328
-8.000e-03,2.368
-7.200e-03,2.376
-6.400e-03,2.384
-5.600e-03,2.384
-4.800e-03,2.384
-4.000e-03,2.384
-3.200e-03,2.4
-2.400e-03,2.4
-1.600e-03,2.4
-8.000e-04,2.4
1.196e-14,2.416
8.000e-04,2.424
1.600e-03,2.416
2.400e-03,2.4
3.200e-03,2.408
4.000e-03,2.424
4.800e-03,2.448
5.600e-03,2.456
6.400e-03,2.464
7.200e-03,2.48
8.000e-03,2.48
8.800e-03,2.488
9.600e-03,2.496
1.040e-02,2.496
1.120e-02,2.512
1.200e-02,2.536
1.280e-02,2.552
1.360e-02,2.552
1.440e-02,2.552
1.520e-02,2.536
1.600e-02,2.544
1.680e-02,2.544
1.760e-02,2.544
1.840e-02,2.544
1.920e-02,2.552
2.000e-02,2.56
2.080e-02,2.56
2.160e-02,2.544
2.240e-02,2.536
2.320e-02,2.544
2.400e-02,2.552
2.480e-02,2.576
2.560e-02,2.576
2.640e-02,2.584
2.720e-02,2.6
2.800e-02,2.6
2.880e-02,2.6
2.960e-02,2.6
3.040e-02,2.608
3.120e-02,2.608
3.200e-02,2.632
3.280e-02,2.648
3.360e-02,2.648
3.440e-02,2.64
3.520e-02,2.632
3.600e-02,2.632
3.680e-02,2.624
3.760e-02,2.632
3.840e-02,2.632
3.920e-02,2.632
4.000e-02,2.64
4.080e-02,2.624
4.160e-02,2.624
4.240e-02,2.608
4.320e-02,2.608
4.400e-02,2.616
4.480e-02,2.632
4.560e-02,2.632
4.640e-02,2.632
4.720e-02,2.648
4.800e-02,2.648
4.880e-02,2.656
4.960e-02,2.648
5.040e-02,2.656
5.120e-02,2.656
5.200e-02,2.68
5.280e-02,2.688
5.360e-02,2.68
5.440e-02,2.672
5.520e-02,2.672
5.600e-02,2.664
5.680e-02,2.664
5.760e-02,2.664
5.840e-02,2.664
5.920e-02,2.656
6.000e-02,2.664
6.080e-02,2.664
6.160e-02,2.648
6.240e-02,2.632
6.320e-02,2.64
6.400e-02,2.632
6.480e-02,2.656
6.560e-02,2.664
6.640e-02,2.656
6.720e-02,2.672
6.800e-02,2.664
6.880e-02,2.672
6.960e-02,2.672
7.040e-02,2.672
7.120e-02,2.68
7.200e-02,2.704
7.280e-02,2.704
7.360e-02,2.704
7.440e-02,2.696
7.520e-02,2.68
7.600e-02,2.688
7.680e-02,2.68
7.760e-02,2.672
7.840e-02,2.672
7.920e-02,2.68
8.000e-02,2.672
8.080e-02,2.672
8.160e-02,2.656
8.240e-02,2.648
8.320e-02,2.648
8.400e-02,2.648
8.480e-02,2.656
8.560e-02,2.664
8.640e-02,2.672
8.720e-02,2.68
8.800e-02,2.68
8.880e-02,2.688
8.960e-02,2.68
9.040e-02,2.688
9.120e-02,2.688
9.200e-02,2.704
9.280e-02,2.72
9.360e-02,2.704
9.440e-02,2.696
9.520e-02,2.688
9.600e-02,2.688
9.680e-02,2.688
9.760e-02,2.68
9.840e-02,2.68
9.920e-02,2.68
1.000e-01,2.672
1.008e-01,2.68
1.016e-01,2.664
1.024e-01,2.648
1.032e-01,2.648
1.040e-01,2.648
1.048e-01,2.664
1.056e-01,2.672
1.064e-01,2.672
1.072e-01,2.672
1.080e-01,2.68
1.088e-01,2.68
1.096e-01,2.68
1.104e-01,2.688
1.112e-01,2.696
1.120e-01,2.712
1.128e-01,2.72
1.136e-01,2.712
1.144e-01,2.704
1.152e-01,2.696
1.160e-01,2.688
1.168e-01,2.68
1.176e-01,2.68
1.184e-01,2.68
1.192e-01,2.68
1.200e-01,2.68
1.208e-01,2.68
1.216e-01,2.656
1.224e-01,2.648
1.232e-01,2.648
1.240e-01,2.656
1.248e-01,2.664
1.256e-01,2.672
1.264e-01,2.68
1.272e-01,2.688
1.280e-01,2.688
1.288e-01,2.688
1.296e-01,2.688
1.304e-01,2.696
1.312e-01,2.688
1.320e-01,2.712
1.328e-01,2.728
1.336e-01,2.712
1.344e-01,2.712
1.352e-01,2.696
1.360e-01,2.704
1.368e-01,2.696
1.376e-01,2.696
1.384e-01,2.696
1.392e-01,2.696
1.400e-01,2.696
1.408e-01,2.696
1.416e-01,2.68
1.424e-01,2.664
1.432e-01,2.664
1.440e-01,2.672
1.448e-01,2.68
1.456e-01,2.688
1.464e-01,2.688
1.472e-01,2.696
1.480e-01,2.704
1.488e-01,2.704
1.496e-01,2.696
1.504e-01,2.704
1.512e-01,2.712
1.520e-01,2.728
1.528e-01,2.736
1.536e-01,2.736
1.544e-01,2.72
1.552e-01,2.712
1.560e-01,2.704
1.568e-01,2.704
1.576e-01,2.696
1.584e-01,2.696
1.592e-01,2.696
1.600e-01,2.696
1.608e-01,2.688
1.616e-01,2.672
1.624e-01,2.656
1.632e-01,2.664
1.640e-01,2.672
1.648e-01,2.68
1.656e-01,2.68
1.664e-01,2.68
1.672e-01,2.672
1.680e-01,2.68
1.688e-01,2.688
1.696e-01,2.672
1.704e-01,2.672
1.712e-01,2.68
1.720e-01,2.696
1.728e-01,2.696
1.736e-01,2.688
1.744e-01,2.68
1.752e-01,2.664
1.760e-01,2.664
1.768e-01,2.648
1.776e-01,2.648
1.784e-01,2.64
1.792e-01,2.632
1.800e-01,2.632
1.808e-01,2.624
1.816e-01,2.608
1.824e-01,2.592
1.832e-01,2.592
1.840e-01,2.584
1.848e-01,2.6
1.856e-01,2.592
1.864e-01,2.584
1.872e-01,2.584
1.880e-01,2.584
1.888e-01,2.584
1.896e-01,2.584
1.904e-01,2.576
1.912e-01,2.576
1.920e-01,2.592
1.928e-01,2.592
1.936e-01,2.576
1.944e-01,2.56
1.952e-01,2.552
1.960e-01,2.544
1.968e-01,2.528
1.976e-01,2.52
1.984e-01,2.504
1.992e-01,2.512
2.000e-01,2.504
2.008e-01,2.496
2.016e-01,2.472
2.024e-01,2.448
2.032e-01,2.44
2.040e-01,2.44
2.048e-01,2.456
2.056e-01,2.448
2.064e-01,2.44
2.072e-01,2.448
2.080e-01,2.44
2.088e-01,2.432
2.096e-01,2.44
2.104e-01,2.424
2.112e-01,2.416
2.120e-01,2.44
2.128e-01,2.448
2.136e-01,2.432
2.144e-01,2.416
2.152e-01,2.408
2.160e-01,2.392
2.168e-01,2.384
2.176e-01,2.376
2.184e-01,2.368
2.192e-01,2.368
2.200e-01,2.36
2.208e-01,2.352
2.216e-01,2.328
2.224e-01,2.312
2.232e-01,2.32
2.240e-01,2.312
2.248e-01,2.32
2.256e-01,2.32
2.264e-01,2.32
2.272e-01,2.328
2.280e-01,2.328
2.288e-01,2.32
2.296e-01,2.32
2.304e-01,2.312
2.312e-01,2.32
2.320e-01,2.336
2.328e-01,2.336
2.336e-01,2.336
2.344e-01,2.312
2.352e-01,2.304
2.360e-01,2.296
2.368e-01,2.296
2.376e-01,2.288
2.384e-01,2.288
2.392e-01,2.272
2.400e-01,2.28
2.408e-01,2.264
2.416e-01,2.248
2.424e-01,2.24
2.432e-01,2.24
2.440e-01,2.24
2.448e-01,2.248
2.456e-01,2.256
2.464e-01,2.248
2.472e-01,2.256
2.480e-01,2.256
2.488e-01,2.264
