lab_data/8 - 20/TEK00005.CSV

Model,TBS1102C
Firmware Version,v2015-08-04-prequal4ch70_v1.3

Point Format,Y
Horizontal Units,S
Horizontal Scale,0.1
Sample Interval,0.0008
Filter Frequency,2e+08
Record Length,2000
Gating,0.0% to 100.0%
Probe Attenuation,1
Vertical Units,V
Vertical Offset,1
Vertical Scale,0.2
Label,
TIME,CH1
-7.072e-01,1.768
-7.064e-01,1.776
-7.056e-01,1.768
-7.048e-01,1.768
-7.040e-01,1.752
-7.032e-01,1.736
-7.024e-01,1.736
-7.016e-01,1.744
-7.008e-01,1.752
-7.000e-01,1.76
-6.992e-01,1.76
-6.984e-01,1.768
-6.976e-01,1.768
-6.968e-01,1.776
-6.960e-01,1.776
-6.952e-01,1.768
-6.944e-01,1.784
-6.936e-01,1.792
-6.928e-01,1.8
-6.920e-01,1.8
-6.912e-01,1.792
-6.904e-01,1.776
-6.896e-01,1.776
-6.888e-01,1.768
-6.880e-01,1.768
-6.872e-01,1.768
-6.864e-01,1.76
-6.856e-01,1.776
-6.848e-01,1.768
-6.840e-01,1.752
-6.832e-01,1.736
-6.824e-01,1.744
-6.816e-01,1.752
-6.808e-01,1.76
-6.800e-01,1.768
-6.792e-01,1.76
-6.784e-01,1.768
-6.776e-01,1.776
-6.768e-01,1.776
-6.760e-01,1.776
-6.752e-01,1.776
-6.744e-01,1.768
-6.736e-01,1.792
-6.728e-01,1.816
-6.720e-01,1.8
-6.712e-01,1.792
-6.704e-01,1.784
-6.696e-01,1.784
-6.688e-01,1.776
-6.680e-01,1.776
-6.672e-01,1.776
-6.664e-01,1.768
-6.656e-01,1.768
-6.648e-01,1.768
-6.640e-01,1.76
-6.632e-01,1.744
-6.624e-01,1.728
-6.616e-01,1.744
-6.608e-01,1.752
-6.600e-01,1.768
-6.592e-01,1.768
-6.584e-01,1.776
-6.576e-01,1.768
-6.568e-01,1.768
-6.560e-01,1.768
-6.552e-01,1.776
-6.544e-01,1.776
-6.536e-01,1.8
-6.528e-01,1.808
-6.520e-01,1.8
-6.512e-01,1.792
-6.504e-01,1.784
-6.496e-01,1.776
-6.488e-01,1.776
-6.480e-01,1.776
-6.472e-01,1.768
-6.464e-01,1.76
-6.456e-01,1.768
-6.448e-01,1.76
-6.440e-01,1.752
-6.432e-01,1.728
-6.424e-01,1.728
-6.416e-01,1.744
-6.408e-01,1.76
-6.400e-01,1.76
-6.392e-01,1.76
-6.384e-01,1.76
-6.376e-01,1.768
-6.368e-01,1.768
-6.360e-01,1.776
-6.352e-01,1.768
-6.344e-01,1.776
-6.336e-01,1.8
-6.328e-01,1.808
-6.320e-01,1.8
-6.312e-01,1.792
-6.304e-01,1.784
-6.296e-01,1.776
-6.288e-01,1.776
-6.280e-01,1.768
-6.272e-01,1.768
-6.264e-01,1.768
-6.256e-01,1.768
-6.248e-01,1.768
-6.240e-01,1.76
-6.232e-01,1.744
-6.224e-01,1.744
-6.216e-01,1.744
-6.208e-01,1.752
-6.200e-01,1.76
-6.192e-01,1.768
-6.184e-01,1.768
-6.176e-01,1.776
-6.168e-01,1.776
-6.160e-01,1.776
-6.152e-01,1.768
-6.144e-01,1.776
-6.136e-01,1.792
-6.128e-01,1.808
-6.120e-01,1.8
-6.112e-01,1.8
-6.104e-01,1.784
-6.096e-01,1.776
-6.088e-01,1.784
-6.080e-01,1.776
-6.072e-01,1.768
-6.064e-01,1.768
-6.056e-01,1.768
-6.048e-01,1.768
-6.040e-01,1.76
-6.032e-01,1.744
-6.024e-01,1.736
-6.016e-01,1.752
-6.008e-01,1.752
-6.000e-01,1.76
-5.992e-01,1.76
-5.984e-01,1.768
-5.976e-01,1.768
-5.968e-01,1.776
-5.960e-01,1.768
-5.952e-01,1.776
-5.944e-01,1.776
-5.936e-01,1.792
-5.928e-01,1.8
-5.920e-01,1.8
-5.912e-01,1.792
-5.904e-01,1.784
-5.896e-01,1.792
-5.888e-01,1.776
-5.880e-01,1.76
-5.872e-01,1.768
-5.864e-01,1.768
-5.856e-01,1.768
-5.848e-01,1.76
-5.840e-01,1.76
-5.832e-01,1.736
-5.824e-01,1.736
-5.816e-01,1.744
-5.808e-01,1.752
-5.800e-01,1.76
-5.792e-01,1.768
-5.784e-01,1.768
-5.776e-01,1.776
-5.768e-01,1.768
-5.760e-01,1.768
-5.752e-01,1.776
-5.744e-01,1.776
-5.736e-01,1.792
-5.728e-01,1.808
-5.720e-01,1.8
-5.712e-01,1.8
-5.704e-01,1.784
-5.696e-01,1.784
-5.688e-01,1.784
-5.680e-01,1.776
-5.672e-01,1.776
-5.664e-01,1.768
-5.656e-01,1.776
-5.648e-01,1.768
-5.640e-01,1.752
-5.632e-01,1.744
-5.624e-01,1.744
-5.616e-01,1.736
-5.608e-01,1.76
-5.600e-01,1.76
-5.592e-01,1.768
-5.584e-01,1.768
-5.576e-01,1.784
-5.568e-01,1.776
-5.560e-01,1.776
-5.552e-01,1.776
-5.544e-01,1.776
-5.536e-01,1.792
-5.528e-01,1.816
-5.520e-01,1.808
-5.512e-01,1.8
-5.504e-01,1.776
-5.496e-01,1.776
-5.488e-01,1.784
-5.480e-01,1.768
-5.472e-01,1.768
-5.464e-01,1.76
-5.456e-01,1.76
-5.448e-01,1.768
-5.440e-01,1.76
-5.432e-01,1.744
-5.424e-01,1.736
-5.416e-01,1.744
-5.408e-01,1.752
-5.400e-01,1.76
-5.392e-01,1.768
-5.384e-01,1.768
-5.376e-01,1.768
-5.368e-01,1.768
-5.360e-01,1.768
-5.352e-01,1.768
-5.344e-01,1.776
-5.336e-01,1.8
-5.328e-01,1.808
-5.320e-01,1.8
-5.312e-01,1.792
-5.304e-01,1.776
-5.296e-01,1.784
-5.288e-01,1.768
-5.280e-01,1.776
-5.272e-01,1.768
-5.264e-01,1.768
-5.256e-01,1.768
-5.248e-01,1.768
-5.240e-01,1.752
-5.232e-01,1.736
-5.224e-01,1.736
-5.216e-01,1.744
-5.208e-01,1.752
-5.200e-01,1.76
-5.192e-01,1.76
-5.184e-01,1.768
-5.176e-01,1.776
-5.168e-01,1.768
-5.160e-01,1.768
-5.152e-01,1.776
-5.144e-01,1.776
-5.136e-01,1.8
-5.128e-01,1.808
-5.120e-01,1.8
-5.112e-01,1.8
-5.104e-01,1.784
-5.096e-01,1.776
-5.088e-01,1.784
-5.080e-01,1.776
-5.072e-01,1.768
-5.064e-01,1.776
-5.056e-01,1.768
-5.048e-01,1.768
-5.040e-01,1.76
-5.032e-01,1.744
-5.024e-01,1.736
-5.016e-01,1.744
-5.008e-01,1.752
-5.000e-01,1.76
-4.992e-01,1.768
-4.984e-01,1.776
-4.976e-01,1.776
-4.968e-01,1.776
-4.960e-01,1.776
-4.952e-01,1.776
-4.944e-01,1.776
-4.936e-01,1.792
-4.928e-01,1.808
-4.920e-01,1.808
-4.912e-01,1.792
-4.904e-01,1.776
-4.896e-01,1.776
-4.888e-01,1.776
-4.880e-01,1.776
-4.872e-01,1.768
-4.864e-01,1.768
-4.856e-01,1.776
-4.848e-01,1.768
-4.840e-01,1.752
-4.832e-01,1.736
-4.824e-01,1.744
-4.816e-01,1.736
-4.808e-01,1.752
-4.800e-01,1.76
-4.792e-01,1.76
-4.784e-01,1.768
-4.776e-01,1.76
-4.768e-01,1.768
-4.760e-01,1.768
-4.752e-01,1.776
-4.744e-01,1.776
-4.736e-01,1.792
-4.728e-01,1.808
-4.720e-01,1.8
-4.712e-01,1.792
-4.704e-01,1.784
-4.696e-01,1.784
-4.688e-01,1.784
-4.680e-01,1.768
-4.672e-01,1.768
-4.664e-01,1.768
-4.656e-01,1.768
-4.648e-01,1.76
-4.640e-01,1.76
-4.632e-01,1.736
-4.624e-01,1.744
-4.616e-01,1.744
-4.608e-01,1.752
-4.600e-01,1.76
-4.592e-01,1.768
-4.584e-01,1.768
-4.576e-01,1.768
-4.568e-01,1.776
-4.560e-01,1.768
-4.552e-01,1.776
-4.544e-01,1.784
-4.536e-01,1.8
-4.528e-01,1.792
-4.520e-01,1.808
-4.512e-01,1.8
-4.504e-01,1.784
-4.496e-01,1.776
-4.488e-01,1.776
-4.480e-01,1.784
-4.472e-01,1.768
-4.464e-01,1.768
-4.456e-01,1.776
-4.448e-01,1.768
-4.440e-01,1.752
-4.432e-01,1.744
-4.424e-01,1.736
-4.416e-01,1.744
-4.408e-01,1.76
-4.400e-01,1.768
-4.392e-01,1.768
-4.384e-01,1.768
-4.376e-01,1.768
-4.368e-01,1.776
-4.360e-01,1.776
-4.352e-01,1.768
-4.344e-01,1.776
-4.336e-01,1.792
-4.328e-01,1.8
-4.320e-01,1.8
-4.312e-01,1.792
-4.304e-01,1.784
-4.296e-01,1.784
-4.288e-01,1.776
-4.280e-01,1.768
-4.272e-01,1.768
-4.264e-01,1.776
-4.256e-01,1.768
-4.248e-01,1.776
-4.240e-01,1.752
-4.232e-01,1.736
-4.224e-01,1.736
-4.216e-01,1.744
-4.208e-01,1.752
-4.200e-01,1.76
-4.192e-01,1.76
-4.184e-01,1.768
-4.176e-01,1.768
-4.168e-01,1.776
-4.160e-01,1.776
-4.152e-01,1.776
-4.144e-01,1.776
-4.136e-01,1.792
-4.128e-01,1.808
-4.120e-01,1.8
-4.112e-01,1.792
-4.104e-01,1.784
-4.096e-01,1.776
-4.088e-01,1.776
-4.080e-01,1.768
-4.072e-01,1.768
-4.064e-01,1.768
-4.056e-01,1.768
-4.048e-01,1.768
-4.040e-01,1.76
-4.032e-01,1.736
-4.024e-01,1.736
-4.016e-01,1.744
-4.008e-01,1.76
-4.000e-01,1.76
-3.992e-01,1.768
-3.984e-01,1.768
-3.976e-01,1.768
-3.968e-01,1.768
-3.960e-01,1.776
-3.952e-01,1.784
-3.944e-01,1.776
-3.936e-01,1.8
-3.928e-01,1.808
-3.920e-01,1.808
-3.912e-01,1.792
-3.904e-01,1.784
-3.896e-01,1.776
-3.888e-01,1.784
-3.880e-01,1.768
-3.872e-01,1.768
-3.864e-01,1.776
-3.856e-01,1.768
-3.848e-01,1.776
-3.840e-01,1.76
-3.832e-01,1.736
-3.824e-01,1.744
-3.816e-01,1.736
-3.808e-01,1.752
-3.800e-01,1.76
-3.792e-01,1.768
-3.784e-01,1.76
-3.776e-01,1.776
-3.768e-01,1.776
-3.760e-01,1.768
-3.752e-01,1.776
-3.744e-01,1.776
-3.736e-01,1.8
-3.728e-01,1.808
-3.720e-01,1.8
-3.712e-01,1.8
-3.704e-01,1.784
-3.696e-01,1.784
-3.688e-01,1.768
-3.680e-01,1.776
-3.672e-01,1.776
-3.664e-01,1.768
-3.656e-01,1.776
-3.648e-01,1.76
-3.640e-01,1.752
-3.632e-01,1.744
-3.624e-01,1.736
-3.616e-01,1.744
-3.608e-01,1.76
-3.600e-01,1.76
-3.592e-01,1.768
-3.584e-01,1.768
-3.576e-01,1.776
-3.568e-01,1.776
-3.560e-01,1.776
-3.552e-01,1.784
-3.544e-01,1.784
-3.536e-01,1.792
-3.528e-01,1.808
-3.520e-01,1.808
-3.512e-01,1.808
-3.504e-01,1.784
-3.496e-01,1.784
-3.488e-01,1.776
-3.480e-01,1.776
-3.472e-01,1.776
-3.464e-01,1.768
-3.456e-01,1.776
-3.448e-01,1.784
-3.440e-01,1.76
-3.432e-01,1.752
-3.424e-01,1.752
-3.416e-01,1.744
-3.408e-01,1.776
-3.400e-01,1.776
-3.392e-01,1.784
-3.384e-01,1.784
-3.376e-01,1.792
-3.368e-01,1.784
-3.360e-01,1.792
-3.352e-01,1.784
-3.344e-01,1.8
-3.336e-01,1.824
-3.328e-01,1.824
-3.320e-01,1.832
-3.312e-01,1.824
-3.304e-01,1.816
-3.296e-01,1.808
-3.288e-01,1.8
-3.280e-01,1.808
-3.272e-01,1.8
-3.264e-01,1.8
-3.256e-01,1.808
-3.248e-01,1.8
-3.240e-01,1.792
-3.232e-01,1.776
-3.224e-01,1.776
-3.216e-01,1.784
-3.208e-01,1.8
-3.200e-01,1.8
-3.192e-01,1.808
-3.184e-01,1.8
-3.176e-01,1.816
-3.168e-01,1.816
-3.160e-01,1.816
-3.152e-01,1.824
-3.144e-01,1.824
-3.136e-01,1.848
-3.128e-01,1.856
-3.120e-01,1.856
-3.112e-01,1.848
-3.104e-01,1.824
-3.096e-01,1.824
-3.088e-01,1.832
-3.080e-01,1.816
-3.072e-01,1.816
-3.064e-01,1.816
-3.056e-01,1.816
-3.048e-01,1.808
-3.040e-01,1.8
-3.032e-01,1.784
-3.024e-01,1.784
-3.016e-01,1.784
-3.008e-01,1.8
-3.000e-01,1.8
-2.992e-01,1.8
-2.984e-01,1.8
-2.976e-01,1.8
-2.968e-01,1.808
-2.960e-01,1.8
-2.952e-01,1.8
-2.944e-01,1.8
-2.936e-01,1.824
-2.928e-01,1.824
-2.920e-01,1.816
-2.912e-01,1.808
-2.904e-01,1.8
-2.896e-01,1.792
-2.888e-01,1.784
-2.880e-01,1.776
-2.872e-01,1.768
-2.864e-01,1.76
-2.856e-01,1.76
-2.848e-01,1.76
-2.840e-01,1.744
-2.832e-01,1.72
-2.824e-01,1.72
-2.816e-01,1.728
-2.808e-01,1.736
-2.800e-01,1.736
-2.792e-01,1.736
-2.784e-01,1.728
-2.776e-01,1.736
-2.768e-01,1.736
-2.760e-01,1.72
-2.752e-01,1.72
-2.744e-01,1.72
-2.736e-01,1.728
-2.728e-01,1.736
-2.720e-01,1.728
-2.712e-01,1.72
-2.704e-01,1.704
-2.696e-01,1.688
-2.688e-01,1.68
-2.680e-01,1.672
-2.672e-01,1.664
-2.664e-01,1.664
-2.656e-01,1.656
-2.648e-01,1.656
-2.640e-01,1.64
-2.632e-01,1.608
-2.624e-01,1.608
-2.616e-01,1.608
-2.608e-01,1.616
-2.600e-01,1.608
-2.592e-01,1.616
-2.584e-01,1.616
-2.576e-01,1.608
-2.568e-01,1.608
-2.560e-01,1.608
-2.552e-01,1.6
-2.544e-01,1.6
-2.536e-01,1.616
-2.528e-01,1.616
-2.520e-01,1.608
-2.512e-01,1.592
-2.504e-01,1.584
-2.496e-01,1.576
-2.488e-01,1.568
-2.480e-01,1.552
-2.472e-01,1.552
-2.464e-01,1.544
-2.456e-01,1.544
-2.448e-01,1.544
-2.440e-01,1.52
-2.432e-01,1.504
-2.424e-01,1.504
-2.416e-01,1.504
-2.408e-01,1.512
-2.400e-01,1.512
-2.392e-01,1.512
-2.384e-01,1.512
-2.376e-01,1.52
-2.368e-01,1.512
-2.360e-01,1.512
-2.352e-01,1.504
-2.344e-01,1.512
-2.336e-01,1.528
-2.328e-01,1.536
-2.320e-01,1.528
-2.312e-01,1.512
-2.304e-01,1.504
-2.296e-01,1.504
-2.288e-01,1.496
-2.280e-01,1.496
-2.272e-01,1.48
-2.264e-01,1.488
-2.256e-01,1.488
-2.248e-01,1.488
-2.240e-01,1.472
-2.232e-01,1.456
-2.224e-01,1.456
-2.216e-01,1.456
-2.208e-01,1.472
-2.200e-01,1.48
-2.192e-01,1.48
-2.184e-01,1.488
-2.176e-01,1.496
-2.168e-01,1.496
-2.160e-01,1.496
-2.152e-01,1.496
-2.144e-01,1.504
-2.136e-01,1.52
-2.128e-01,1.536
-2.120e-01,1.528
-2.112e-01,1.528
-2.104e-01,1.52
-2.096e-01,1.512
-2.088e-01,1.512
-2.080e-01,1.512
-2.072e-01,1.512
-2.064e-01,1.504
-2.056e-01,1.52
-2.048e-01,1.512
-2.040e-01,1.504
-2.032e-01,1.496
-2.024e-01,1.496
-2.016e-01,1.512
-2.008e-01,1.52
-2.000e-01,1.528
-1.992e-01,1.536
-1.984e-01,1.536
-1.976e-01,1.552
-1.968e-01,1.552
-1.960e-01,1.56
-1.952e-01,1.56
-1.944e-01,1.56
-1.936e-01,1.592
-1.928e-01,1.6
-1.920e-01,1.616
-1.912e-01,1.6
-1.904e-01,1.6
-1.896e-01,1.608
-1.888e-01,1.6
-1.880e-01,1.608
-1.872e-01,1.6
-1.864e-01,1.608
-1.856e-01,1.616
-1.848e-01,1.624
-1.840e-01,1.608
-1.832e-01,1.592
-1.824e-01,1.616
-1.816e-01,1.624
-1.808e-01,1.64
-1.800e-01,1.648
-1.792e-01,1.664
-1.784e-01,1.656
-1.776e-01,1.68
-1.768e-01,1.68
-1.760e-01,1.68
-1.752e-01,1.696
-1.744e-01,1.704
-1.736e-01,1.728
-1.728e-01,1.744
-1.720e-01,1.736
-1.712e-01,1.736
-1.704e-01,1.736
-1.696e-01,1.736
-1.688e-01,1.736
-1.680e-01,1.744
-1.672e-01,1.744
-1.664e-01,1.744
-1.656e-01,1.752
-1.648e-01,1.752
-1.640e-01,1.752
-1.632e-01,1.744
-1.624e-01,1.744
-1.616e-01,1.752
-1.608e-01,1.768
-1.600e-01,1.776
-1.592e-01,1.784
-1.584e-01,1.8
-1.576e-01,1.8
-1.568e-01,1.808
-1.560e-01,1.816
-1.552e-01,1.816
-1.544e-01,1.824
-1.536e-01,1.856
-1.528e-01,1.864
-1.520e-01,1.864
-1.512e-01,1.856
-1.504e-01,1.856
-1.496e-01,1.848
-1.488e-01,1.864
-1.480e-01,1.848
-1.472e-01,1.856
-1.464e-01,1.864
-1.456e-01,1.864
-1.448e-01,1.872
-1.440e-01,1.856
-1.432e-01,1.848
-1.424e-01,1.848
-1.416e-01,1.864
-1.408e-01,1.872
-1.400e-01,1.88
-1.392e-01,1.888
-1.384e-01,1.904
-1.376e-01,1.912
-1.368e-01,1.912
-1.360e-01,1.92
-1.352e-01,1.92
-1.344e-01,1.928
-1.336e-01,1.952
-1.328e-01,1.96
-1.320e-01,1.968
-1.312e-01,1.952
-1.304e-01,1.96
-1.296e-01,1.944
-1.288e-01,1.952
-1.280e-01,1.944
-1.272e-01,1.944
-1.264e-01,1.944
-1.256e-01,1.952
-1.248e-01,1.944
-1.240e-01,1.936
-1.232e-01,1.92
-1.224e-01,1.92
-1.216e-01,1.928
-1.208e-01,1.944
-1.200e-01,1.944
-1.192e-01,1.952
-1.184e-01,1.944
-1.176e-01,1.952
-1.168e-01,1.952
-1.160e-01,1.944
-1.152e-01,1.952
-1.144e-01,1.952
-1.136e-01,1.968
-1.128e-01,1.976
-1.120e-01,1.968
-1.112e-01,1.96
-1.104e-01,1.944
-1.096e-01,1.944
-1.088e-01,1.944
-1.080e-01,1.928
-1.072e-01,1.92
-1.064e-01,1.92
-1.056e-01,1.912
-1.048e-01,1.912
-1.040e-01,1.88
-1.032e-01,1.872
-1.024e-01,1.872
-1.016e-01,1.864
-1.008e-01,1.88
-1.000e-01,1.888
-9.920e-02,1.88
-9.840e-02,1.88
-9.760e-02,1.88
-9.680e-02,1.864
-9.600e-02,1.864
-9.520e-02,1.864
-9.440e-02,1.864
-9.360e-02,1.872
-9.280e-02,1.888
-9.200e-02,1.864
-9.120e-02,1.848
-9.040e-02,1.832
-8.960e-02,1.824
-8.880e-02,1.824
-8.800e-02,1.808
-8.720e-02,1.8
-8.640e-02,1.8
-8.560e-02,1.784
-8.480e-02,1.776
-8.400e-02,1.76
-8.320e-02,1.736
-8.240e-02,1.736
-8.160e-02,1.736
-8.080e-02,1.744
-8.000e-02,1.744
-7.920e-02,1.744
-7.840e-02,1.744
-7.760e-02,1.736
-7.680e-02,1.744
-7.600e-02,1.736
-7.520e-02,1.736
-7.440e-02,1.728
-7.360e-02,1.752
-7.280e-02,1.752
-7.200e-02,1.752
-7.120e-02,1.736
-7.040e-02,1.736
-6.960e-02,1.728
-6.880e-02,1.72
-6.800e-02,1.72
-6.720e-02,1.712
-6.640e-02,1.712
-6.560e-02,1.72
-6.480e-02,1.712
-6.400e-02,1.704
-6.320e-02,1.696
-6.240e-02,1.696
-6.160e-02,1.704
-6.080e-02,1.728
-6.000e-02,1.728
-5.920e-02,1.736
-5.840e-02,1.744
-5.760e-02,1.76
-5.680e-02,1.76
-5.600e-02,1.768
-5.520e-02,1.776
-5.440e-02,1.784
-5.360e-02,1.8
-5.280e-02,1.816
-5.200e-02,1.824
-5.120e-02,1.824
-5.040e-02,1.816
-4.960e-02,1.824
-4.880e-02,1.824
-4.800e-02,1.832
-4.720e-02,1.832
-4.640e-02,1.848
-4.560e-02,1.856
-4.480e-02,1.864
-4.400e-02,1.864
-4.320e-02,1.856
-4.240e-02,1.864
-4.160e-02,1.888
-4.080e-02,1.904
-4.000e-02,1.92
-3.920e-02,1.936
-3.840e-02,1.944
-3.760e-02,1.96
-3.680e-02,1.976
-3.600e-02,1.992
-3.520e-02,1.992
-3.440e-02,2.008
-3.360e-02,2.048
-3.280e-02,2.064
-3.200e-02,2.072
-3.120e-02,2.072
-3.040e-02,2.072
-2.960e-02,2.08
-2.880e-02,2.088
-2.800e-02,2.096
-2.720e-02,2.104
-2.640e-02,2.112
-2.560e-02,2.128
-2.480e-02,2.136
-2.400e-02,2.128
-2.320e-02,2.136
-2.240e-02,2.136
-2.160e-02,2.16
-2.080e-02,2.184
-2.000e-02,2.2
-1.920e-02,2.208
-1.840e-02,2.216
-1.760e-02,2.24
-1.680e-02,2.248
-1.600e-02,2.256
-1.520e-02,2.28
-1.440e-02,2.28
-1.360e-02,2.312
-1.280e-02,2.328
-1.200e-02,2.336
-1.120e-02,2.336
-1.040e-02,2.344
-9.600e-03,2.344
-8.800e-03,2.344
-8.000e-03,2.352
-7.200e-03,2.36
-6.400e-03,2.36
-5.600e-03,2.376
-4.800e-03,2.376
-4.000e-03,2.376
-3.200e-03,2.368
-2.400e-03,2.376
-1.600e-03,2.392
-8.000e-04,2.408
1.196e-14,2.424
8.000e-04,2.44
1.600e-03,2.448
2.400e-03,2.456
3.200e-03,2.464
4.000e-03,2.464
4.800e-03,2.472
5.600e-03,2.488
6.400e-03,2.512
7.200e-03,2.528
8.000e-03,2.528
8.800e-03,2.528
9.600e-03,2.52
1.040e-02,2.52
1.120e-02,2.52
1.200e-02,2.528
1.280e-02,2.528
1.360e-02,2.536
1.440e-02,2.536
1.520e-02,2.536
1.600e-02,2.52
1.680e-02,2.512
1.760e-02,2.512
1.840e-02,2.528
1.920e-02,2.552
2.000e-02,2.552
2.080e-02,2.56
2.160e-02,2.568
2.240e-02,2.576
2.320e-02,2.584
2.400e-02,2.584
2.480e-02,2.592
2.560e-02,2.592
2.640e-02,2.632
2.720e-02,2.632
2.800e-02,2.632
2.880e-02,2.624
2.960e-02,2.616
3.040e-02,2.608
3.120e-02,2.616
3.200e-02,2.616
3.280e-02,2.616
3.360e-02,2.616
3.440e-02,2.616
3.520e-02,2.616
3.600e-02,2.608
3.680e-02,2.592
3.760e-02,2.592
3.840e-02,2.608
3.920e-02,2.624
4.000e-02,2.624
4.080e-02,2.632
4.160e-02,2.632
4.240e-02,2.648
4.320e-02,2.648
4.400e-02,2.648
4.480e-02,2.648
4.560e-02,2.656
4.640e-02,2.68
4.720e-02,2.688
4.800e-02,2.68
4.880e-02,2.672
4.960e-02,2.672
5.040e-02,2.664
5.120e-02,2.664
5.200e-02,2.656
5.280e-02,2.656
5.360e-02,2.656
5.440e-02,2.656
5.520e-02,2.656
5.600e-02,2.64
5.680e-02,2.632
5.760e-02,2.632
5.840e-02,2.64
5.920e-02,2.648
6.000e-02,2.656
6.080e-02,2.664
6.160e-02,2.664
6.240e-02,2.672
6.320e-02,2.672
6.400e-02,2.672
6.480e-02,2.68
6.560e-02,2.672
6.640e-02,2.704
6.720e-02,2.704
6.800e-02,2.696
6.880e-02,2.696
6.960e-02,2.68
7.040e-02,2.688
7.120e-02,2.672
7.200e-02,2.68
7.280e-02,2.672
7.360e-02,2.672
7.440e-02,2.672
7.520e-02,2.672
7.600e-02,2.656
7.680e-02,2.648
7.760e-02,2.64
7.840e-02,2.648
7.920e-02,2.664
8.000e-02,2.672
8.080e-02,2.672
8.160e-02,2.672
8.240e-02,2.68
8.320e-02,2.688
8.400e-02,2.68
8.480e-02,2.68
8.560e-02,2.68
8.640e-02,2.712
8.720e-02,2.704
8.800e-02,2.704
8.880e-02,2.696
8.960e-02,2.688
9.040e-02,2.68
9.120e-02,2.68
9.200e-02,2.672
9.280e-02,2.68
9.360e-02,2.672
9.440e-02,2.68
9.520e-02,2.672
9.600e-02,2.664
9.680e-02,2.648
9.760e-02,2.648
9.840e-02,2.656
9.920e-02,2.664
1.000e-01,2.672
1.008e-01,2.672
1.016e-01,2.672
1.024e-01,2.68
1.032e-01,2.688
1.040e-01,2.68
1.048e-01,2.68
1.056e-01,2.688
1.064e-01,2.712
1.072e-01,2.72
1.080e-01,2.712
1.088e-01,2.704
1.096e-01,2.696
1.104e-01,2.696
1.112e-01,2.68
1.120e-01,2.68
1.128e-01,2.68
1.136e-01,2.68
1.144e-01,2.68
1.152e-01,2.68
1.160e-01,2.656
1.168e-01,2.648
1.176e-01,2.648
1.184e-01,2.656
1.192e-01,2.672
1.200e-01,2.672
1.208e-01,2.68
1.216e-01,2.688
1.224e-01,2.688
1.232e-01,2.68
1.240e-01,2.68
1.248e-01,2.688
1.256e-01,2.688
1.264e-01,2.712
1.272e-01,2.72
1.280e-01,2.712
1.288e-01,2.704
1.296e-01,2.696
1.304e-01,2.688
1.312e-01,2.696
1.320e-01,2.68
1.328e-01,2.688
1.336e-01,2.688
1.344e-01,2.688
1.352e-01,2.68
1.360e-01,2.664
1.368e-01,2.648
1.376e-01,2.656
1.384e-01,2.656
1.392e-01,2.688
1.400e-01,2.68
1.408e-01,2.688
1.416e-01,2.688
1.424e-01,2.696
1.432e-01,2.696
1.440e-01,2.696
1.448e-01,2.696
1.456e-01,2.704
1.464e-01,2.728
1.472e-01,2.736
1.480e-01,2.728
1.488e-01,2.712
1.496e-01,2.704
1.504e-01,2.704
1.512e-01,2.704
1.520e-01,2.696
1.528e-01,2.704
1.536e-01,2.696
1.544e-01,2.704
1.552e-01,2.688
1.560e-01,2.672
1.568e-01,2.664
1.576e-01,2.672
1.584e-01,2.68
1.592e-01,2.68
1.600e-01,2.696
1.608e-01,2.696
1.616e-01,2.696
1.624e-01,2.704
1.632e-01,2.712
1.640e-01,2.696
1.648e-01,2.704
1.656e-01,2.712
1.664e-01,2.736
1.672e-01,2.736
1.680e-01,2.72
1.688e-01,2.72
1.696e-01,2.704
1.704e-01,2.696
1.712e-01,2.696
1.720e-01,2.696
1.728e-01,2.68
1.736e-01,2.68
1.744e-01,2.68
1.752e-01,2.68
1.760e-01,2.656
1.768e-01,2.648
1.776e-01,2.64
1.784e-01,2.648
1.792e-01,2.648
1.800e-01,2.656
1.808e-01,2.656
1.816e-01,2.648
1.824e-01,2.656
1.832e-01,2.656
1.840e-01,2.648
1.848e-01,2.648
1.856e-01,2.656
1.864e-01,2.664
1.872e-01,2.664
1.880e-01,2.648
1.888e-01,2.64
1.896e-01,2.632
1.904e-01,2.624
1.912e-01,2.608
1.920e-01,2.608
1.928e-01,2.6
1.936e-01,2.6
1.944e-01,2.592
1.952e-01,2.584
1.960e-01,2.56
1.968e-01,2.544
1.976e-01,2.544
1.984e-01,2.536
1.992e-01,2.544
2.000e-01,2.552
2.008e-01,2.544
2.016e-01,2.536
2.024e-01,2.528
2.032e-01,2.528
2.040e-01,2.528
2.048e-01,2.52
2.056e-01,2.52
2.064e-01,2.536
2.072e-01,2.528
2.080e-01,2.512
2.088e-01,2.496
2.096e-01,2.488
2.104e-01,2.48
2.112e-01,2.472
2.120e-01,2.456
2.128e-01,2.448
2.136e-01,2.44
2.144e-01,2.44
2.152e-01,2.432
2.160e-01,2.4
2.168e-01,2.392
2.176e-01,2.392
2.184e-01,2.384
2.192e-01,2.392
2.200e-01,2.392
2.208e-01,2.392
2.216e-01,2.392
2.224e-01,2.384
2.232e-01,2.384
2.240e-01,2.376
2.248e-01,2.368
2.256e-01,2.376
2.264e-01,2.4
2.272e-01,2.4
2.280e-01,2.384
2.288e-01,2.368
2.296e-01,2.36
2.304e-01,2.352
2.312e-01,2.336
2.320e-01,2.328
2.328e-01,2.328
2.336e-01,2.328
2.344e-01,2.32
2.352e-01,2.32
2.360e-01,2.296
2.368e-01,2.28
2.376e-01,2.28
2.384e-01,2.288
2.392e-01,2.288
2.400e-01,2.296
2.408e-01,2.288
2.416e-01,2.296
2.424e-01,2.296
2.432e-01,2.288
2.440e-01,2.296
2.448e-01,2.288
2.456e-01,2.288
2.464e-01,2.304
2.472e-01,2.32
