lab_data/8 - 40/TEK00001.CSV

Model,TBS1102C
Firmware Version,v2015-08-04-prequal4ch70_v1.3

Point Format,Y
Horizontal Units,S
Horizontal Scale,0.04
Sample Interval,0.00032
Filter Frequency,2e+08
Record Length,2000
Gating,0.0% to 100.0%
Probe Attenuation,1
Vertical Units,V
Vertical Offset,1
Vertical Scale,0.2
Label,
TIME,CH1
-2.797e-01,1.768
-2.794e-01,1.768
-2.790e-01,1.768
-2.787e-01,1.768
-2.784e-01,1.776
-2.781e-01,1.768
-2.778e-01,1.768
-2.774e-01,1.768
-2.771e-01,1.76
-2.768e-01,1.76
-2.765e-01,1.744
-2.762e-01,1.744
-2.758e-01,1.744
-2.755e-01,1.744
-2.752e-01,1.736
-2.749e-01,1.744
-2.746e-01,1.744
-2.742e-01,1.752
-2.739e-01,1.752
-2.736e-01,1.76
-2.733e-01,1.76
-2.730e-01,1.76
-2.726e-01,1.768
-2.723e-01,1.76
-2.720e-01,1.768
-2.717e-01,1.768
-2.714e-01,1.776
-2.710e-01,1.776
-2.707e-01,1.768
-2.704e-01,1.768
-2.701e-01,1.776
-2.698e-01,1.776
-2.694e-01,1.768
-2.691e-01,1.768
-2.688e-01,1.784
-2.685e-01,1.784
-2.682e-01,1.784
-2.678e-01,1.776
-2.675e-01,1.776
-2.672e-01,1.776
-2.669e-01,1.792
-2.666e-01,1.792
-2.662e-01,1.808
-2.659e-01,1.808
-2.656e-01,1.808
-2.653e-01,1.8
-2.650e-01,1.8
-2.646e-01,1.8
-2.643e-01,1.8
-2.640e-01,1.8
-2.637e-01,1.784
-2.634e-01,1.792
-2.630e-01,1.784
-2.627e-01,1.776
-2.624e-01,1.784
-2.621e-01,1.784
-2.618e-01,1.784
-2.614e-01,1.784
-2.611e-01,1.776
-2.608e-01,1.768
-2.605e-01,1.776
-2.602e-01,1.776
-2.598e-01,1.776
-2.595e-01,1.768
-2.592e-01,1.768
-2.589e-01,1.776
-2.586e-01,1.768
-2.582e-01,1.776
-2.579e-01,1.776
-2.576e-01,1.776
-2.573e-01,1.768
-2.570e-01,1.76
-2.566e-01,1.744
-2.563e-01,1.744
-2.560e-01,1.744
-2.557e-01,1.744
-2.554e-01,1.752
-2.550e-01,1.736
-2.547e-01,1.752
-2.544e-01,1.744
-2.541e-01,1.752
-2.538e-01,1.76
-2.534e-01,1.76
-2.531e-01,1.768
-2.528e-01,1.768
-2.525e-01,1.768
-2.522e-01,1.768
-2.518e-01,1.768
-2.515e-01,1.776
-2.512e-01,1.776
-2.509e-01,1.768
-2.506e-01,1.768
-2.502e-01,1.776
-2.499e-01,1.776
-2.496e-01,1.776
-2.493e-01,1.776
-2.490e-01,1.776
-2.486e-01,1.784
-2.483e-01,1.776
-2.480e-01,1.784
-2.477e-01,1.776
-2.474e-01,1.776
-2.470e-01,1.792
-2.467e-01,1.8
-2.464e-01,1.808
-2.461e-01,1.808
-2.458e-01,1.808
-2.454e-01,1.8
-2.451e-01,1.808
-2.448e-01,1.808
-2.445e-01,1.8
-2.442e-01,1.8
-2.438e-01,1.792
-2.435e-01,1.792
-2.432e-01,1.784
-2.429e-01,1.792
-2.426e-01,1.784
-2.422e-01,1.784
-2.419e-01,1.792
-2.416e-01,1.784
-2.413e-01,1.784
-2.410e-01,1.776
-2.406e-01,1.776
-2.403e-01,1.776
-2.400e-01,1.776
-2.397e-01,1.776
-2.394e-01,1.776
-2.390e-01,1.776
-2.387e-01,1.776
-2.384e-01,1.768
-2.381e-01,1.776
-2.378e-01,1.776
-2.374e-01,1.776
-2.371e-01,1.776
-2.368e-01,1.76
-2.365e-01,1.752
-2.362e-01,1.744
-2.358e-01,1.752
-2.355e-01,1.752
-2.352e-01,1.752
-2.349e-01,1.752
-2.346e-01,1.752
-2.342e-01,1.76
-2.339e-01,1.76
-2.336e-01,1.768
-2.333e-01,1.768
-2.330e-01,1.776
-2.326e-01,1.776
-2.323e-01,1.784
-2.320e-01,1.776
-2.317e-01,1.784
-2.314e-01,1.776
-2.310e-01,1.784
-2.307e-01,1.784
-2.304e-01,1.784
-2.301e-01,1.792
-2.298e-01,1.792
-2.294e-01,1.792
-2.291e-01,1.784
-2.288e-01,1.792
-2.285e-01,1.792
-2.282e-01,1.792
-2.278e-01,1.792
-2.275e-01,1.8
-2.272e-01,1.8
-2.269e-01,1.816
-2.266e-01,1.824
-2.262e-01,1.832
-2.259e-01,1.832
-2.256e-01,1.832
-2.253e-01,1.832
-2.250e-01,1.824
-2.246e-01,1.824
-2.243e-01,1.824
-2.240e-01,1.816
-2.237e-01,1.808
-2.234e-01,1.816
-2.230e-01,1.824
-2.227e-01,1.808
-2.224e-01,1.808
-2.221e-01,1.808
-2.218e-01,1.816
-2.214e-01,1.808
-2.211e-01,1.808
-2.208e-01,1.808
-2.205e-01,1.808
-2.202e-01,1.808
-2.198e-01,1.808
-2.195e-01,1.808
-2.192e-01,1.808
-2.189e-01,1.808
-2.186e-01,1.816
-2.182e-01,1.808
-2.179e-01,1.808
-2.176e-01,1.808
-2.173e-01,1.808
-2.170e-01,1.8
-2.166e-01,1.792
-2.163e-01,1.784
-2.160e-01,1.776
-2.157e-01,1.784
-2.154e-01,1.784
-2.150e-01,1.792
-2.147e-01,1.792
-2.144e-01,1.792
-2.141e-01,1.8
-2.138e-01,1.808
-2.134e-01,1.816
-2.131e-01,1.808
-2.128e-01,1.816
-2.125e-01,1.816
-2.122e-01,1.816
-2.118e-01,1.808
-2.115e-01,1.808
-2.112e-01,1.816
-2.109e-01,1.816
-2.106e-01,1.824
-2.102e-01,1.816
-2.099e-01,1.816
-2.096e-01,1.824
-2.093e-01,1.824
-2.090e-01,1.824
-2.086e-01,1.824
-2.083e-01,1.824
-2.080e-01,1.824
-2.077e-01,1.816
-2.074e-01,1.832
-2.070e-01,1.824
-2.067e-01,1.832
-2.064e-01,1.848
-2.061e-01,1.848
-2.058e-01,1.848
-2.054e-01,1.848
-2.051e-01,1.84
-2.048e-01,1.84
-2.045e-01,1.84
-2.042e-01,1.84
-2.038e-01,1.824
-2.035e-01,1.816
-2.032e-01,1.824
-2.029e-01,1.824
-2.026e-01,1.816
-2.022e-01,1.808
-2.019e-01,1.808
-2.016e-01,1.808
-2.013e-01,1.808
-2.010e-01,1.808
-2.006e-01,1.8
-2.003e-01,1.792
-2.000e-01,1.792
-1.997e-01,1.792
-1.994e-01,1.792
-1.990e-01,1.792
-1.987e-01,1.792
-1.984e-01,1.792
-1.981e-01,1.8
-1.978e-01,1.784
-1.974e-01,1.784
-1.971e-01,1.776
-1.968e-01,1.76
-1.965e-01,1.76
-1.962e-01,1.744
-1.958e-01,1.736
-1.955e-01,1.736
-1.952e-01,1.744
-1.949e-01,1.744
-1.946e-01,1.736
-1.942e-01,1.744
-1.939e-01,1.744
-1.936e-01,1.752
-1.933e-01,1.752
-1.930e-01,1.752
-1.926e-01,1.752
-1.923e-01,1.752
-1.920e-01,1.752
-1.917e-01,1.752
-1.914e-01,1.744
-1.910e-01,1.744
-1.907e-01,1.736
-1.904e-01,1.744
-1.901e-01,1.744
-1.898e-01,1.736
-1.894e-01,1.736
-1.891e-01,1.736
-1.888e-01,1.736
-1.885e-01,1.736
-1.882e-01,1.728
-1.878e-01,1.728
-1.875e-01,1.728
-1.872e-01,1.728
-1.869e-01,1.736
-1.866e-01,1.728
-1.862e-01,1.744
-1.859e-01,1.744
-1.856e-01,1.744
-1.853e-01,1.736
-1.850e-01,1.728
-1.846e-01,1.72
-1.843e-01,1.72
-1.840e-01,1.712
-1.837e-01,1.704
-1.834e-01,1.696
-1.830e-01,1.696
-1.827e-01,1.688
-1.824e-01,1.688
-1.821e-01,1.68
-1.818e-01,1.672
-1.814e-01,1.672
-1.811e-01,1.672
-1.808e-01,1.664
-1.805e-01,1.656
-1.802e-01,1.656
-1.798e-01,1.648
-1.795e-01,1.648
-1.792e-01,1.648
-1.789e-01,1.64
-1.786e-01,1.64
-1.782e-01,1.64
-1.779e-01,1.632
-1.776e-01,1.632
-1.773e-01,1.632
-1.770e-01,1.608
-1.766e-01,1.6
-1.763e-01,1.592
-1.760e-01,1.584
-1.757e-01,1.576
-1.754e-01,1.576
-1.750e-01,1.576
-1.747e-01,1.584
-1.744e-01,1.576
-1.741e-01,1.576
-1.738e-01,1.584
-1.734e-01,1.592
-1.731e-01,1.584
-1.728e-01,1.584
-1.725e-01,1.584
-1.722e-01,1.584
-1.718e-01,1.576
-1.715e-01,1.584
-1.712e-01,1.584
-1.709e-01,1.576
-1.706e-01,1.568
-1.702e-01,1.576
-1.699e-01,1.576
-1.696e-01,1.568
-1.693e-01,1.568
-1.690e-01,1.568
-1.686e-01,1.56
-1.683e-01,1.56
-1.680e-01,1.56
-1.677e-01,1.56
-1.674e-01,1.56
-1.670e-01,1.56
-1.667e-01,1.568
-1.664e-01,1.568
-1.661e-01,1.568
-1.658e-01,1.576
-1.654e-01,1.576
-1.651e-01,1.568
-1.648e-01,1.568
-1.645e-01,1.56
-1.642e-01,1.552
-1.638e-01,1.544
-1.635e-01,1.544
-1.632e-01,1.536
-1.629e-01,1.536
-1.626e-01,1.528
-1.622e-01,1.536
-1.619e-01,1.528
-1.616e-01,1.512
-1.613e-01,1.52
-1.610e-01,1.52
-1.606e-01,1.512
-1.603e-01,1.512
-1.600e-01,1.504
-1.597e-01,1.504
-1.594e-01,1.504
-1.590e-01,1.504
-1.587e-01,1.496
-1.584e-01,1.504
-1.581e-01,1.504
-1.578e-01,1.504
-1.574e-01,1.496
-1.571e-01,1.496
-1.568e-01,1.48
-1.565e-01,1.48
-1.562e-01,1.472
-1.558e-01,1.464
-1.555e-01,1.464
-1.552e-01,1.456
-1.549e-01,1.464
-1.546e-01,1.472
-1.542e-01,1.472
-1.539e-01,1.472
-1.536e-01,1.48
-1.533e-01,1.488
-1.530e-01,1.488
-1.526e-01,1.48
-1.523e-01,1.488
-1.520e-01,1.488
-1.517e-01,1.488
-1.514e-01,1.496
-1.510e-01,1.488
-1.507e-01,1.496
-1.504e-01,1.488
-1.501e-01,1.496
-1.498e-01,1.496
-1.494e-01,1.496
-1.491e-01,1.504
-1.488e-01,1.504
-1.485e-01,1.504
-1.482e-01,1.504
-1.478e-01,1.496
-1.475e-01,1.496
-1.472e-01,1.504
-1.469e-01,1.52
-1.466e-01,1.528
-1.462e-01,1.536
-1.459e-01,1.536
-1.456e-01,1.544
-1.453e-01,1.544
-1.450e-01,1.536
-1.446e-01,1.528
-1.443e-01,1.536
-1.440e-01,1.528
-1.437e-01,1.528
-1.434e-01,1.528
-1.430e-01,1.528
-1.427e-01,1.528
-1.424e-01,1.52
-1.421e-01,1.528
-1.418e-01,1.528
-1.414e-01,1.528
-1.411e-01,1.52
-1.408e-01,1.52
-1.405e-01,1.52
-1.402e-01,1.528
-1.398e-01,1.528
-1.395e-01,1.528
-1.392e-01,1.528
-1.389e-01,1.536
-1.386e-01,1.536
-1.382e-01,1.536
-1.379e-01,1.544
-1.376e-01,1.536
-1.373e-01,1.544
-1.370e-01,1.528
-1.366e-01,1.528
-1.363e-01,1.52
-1.360e-01,1.528
-1.357e-01,1.528
-1.354e-01,1.52
-1.350e-01,1.528
-1.347e-01,1.536
-1.344e-01,1.536
-1.341e-01,1.544
-1.338e-01,1.552
-1.334e-01,1.552
-1.331e-01,1.56
-1.328e-01,1.568
-1.325e-01,1.568
-1.322e-01,1.568
-1.318e-01,1.568
-1.315e-01,1.584
-1.312e-01,1.584
-1.309e-01,1.592
-1.306e-01,1.592
-1.302e-01,1.592
-1.299e-01,1.6
-1.296e-01,1.608
-1.293e-01,1.608
-1.290e-01,1.608
-1.286e-01,1.608
-1.283e-01,1.616
-1.280e-01,1.616
-1.277e-01,1.616
-1.274e-01,1.624
-1.270e-01,1.64
-1.267e-01,1.648
-1.264e-01,1.664
-1.261e-01,1.664
-1.258e-01,1.672
-1.254e-01,1.672
-1.251e-01,1.68
-1.248e-01,1.68
-1.245e-01,1.68
-1.242e-01,1.672
-1.238e-01,1.68
-1.235e-01,1.672
-1.232e-01,1.672
-1.229e-01,1.68
-1.226e-01,1.672
-1.222e-01,1.672
-1.219e-01,1.68
-1.216e-01,1.68
-1.213e-01,1.672
-1.210e-01,1.688
-1.206e-01,1.688
-1.203e-01,1.688
-1.200e-01,1.688
-1.197e-01,1.688
-1.194e-01,1.696
-1.190e-01,1.704
-1.187e-01,1.696
-1.184e-01,1.696
-1.181e-01,1.712
-1.178e-01,1.704
-1.174e-01,1.712
-1.171e-01,1.712
-1.168e-01,1.704
-1.165e-01,1.704
-1.162e-01,1.696
-1.158e-01,1.704
-1.155e-01,1.696
-1.152e-01,1.704
-1.149e-01,1.712
-1.146e-01,1.712
-1.142e-01,1.728
-1.139e-01,1.736
-1.136e-01,1.736
-1.133e-01,1.744
-1.130e-01,1.744
-1.126e-01,1.752
-1.123e-01,1.76
-1.120e-01,1.76
-1.117e-01,1.76
-1.114e-01,1.768
-1.110e-01,1.768
-1.107e-01,1.776
-1.104e-01,1.784
-1.101e-01,1.784
-1.098e-01,1.784
-1.094e-01,1.792
-1.091e-01,1.792
-1.088e-01,1.792
-1.085e-01,1.792
-1.082e-01,1.8
-1.078e-01,1.816
-1.075e-01,1.816
-1.072e-01,1.808
-1.069e-01,1.824
-1.066e-01,1.848
-1.062e-01,1.856
-1.059e-01,1.864
-1.056e-01,1.856
-1.053e-01,1.864
-1.050e-01,1.872
-1.046e-01,1.864
-1.043e-01,1.864
-1.040e-01,1.856
-1.037e-01,1.856
-1.034e-01,1.856
-1.030e-01,1.856
-1.027e-01,1.864
-1.024e-01,1.856
-1.021e-01,1.856
-1.018e-01,1.864
-1.014e-01,1.872
-1.011e-01,1.864
-1.008e-01,1.864
-1.005e-01,1.864
-1.002e-01,1.856
-9.984e-02,1.864
-9.952e-02,1.872
-9.920e-02,1.864
-9.888e-02,1.872
-9.856e-02,1.88
-9.824e-02,1.88
-9.792e-02,1.872
-9.760e-02,1.88
-9.728e-02,1.88
-9.696e-02,1.872
-9.664e-02,1.864
-9.632e-02,1.864
-9.600e-02,1.864
-9.568e-02,1.864
-9.536e-02,1.872
-9.504e-02,1.864
-9.472e-02,1.872
-9.440e-02,1.88
-9.408e-02,1.888
-9.376e-02,1.896
-9.344e-02,1.904
-9.312e-02,1.904
-9.280e-02,1.904
-9.248e-02,1.92
-9.216e-02,1.912
-9.184e-02,1.912
-9.152e-02,1.912
-9.120e-02,1.928
-9.088e-02,1.92
-9.056e-02,1.936
-9.024e-02,1.928
-8.992e-02,1.936
-8.960e-02,1.936
-8.928e-02,1.936
-8.896e-02,1.944
-8.864e-02,1.936
-8.832e-02,1.928
-8.800e-02,1.936
-8.768e-02,1.936
-8.736e-02,1.952
-8.704e-02,1.952
-8.672e-02,1.96
-8.640e-02,1.976
-8.608e-02,1.976
-8.576e-02,1.976
-8.544e-02,1.968
-8.512e-02,1.968
-8.480e-02,1.976
-8.448e-02,1.976
-8.416e-02,1.96
-8.384e-02,1.96
-8.352e-02,1.96
-8.320e-02,1.952
-8.288e-02,1.952
-8.256e-02,1.944
-8.224e-02,1.944
-8.192e-02,1.944
-8.160e-02,1.944
-8.128e-02,1.944
-8.096e-02,1.944
-8.064e-02,1.944
-8.032e-02,1.936
-8.000e-02,1.936
-7.968e-02,1.928
-7.936e-02,1.936
-7.904e-02,1.928
-7.872e-02,1.928
-7.840e-02,1.928
-7.808e-02,1.928
-7.776e-02,1.928
-7.744e-02,1.92
-7.712e-02,1.92
-7.680e-02,1.904
-7.648e-02,1.904
-7.616e-02,1.888
-7.584e-02,1.88
-7.552e-02,1.888
-7.520e-02,1.88
-7.488e-02,1.888
-7.456e-02,1.888
-7.424e-02,1.88
-7.392e-02,1.896
-7.360e-02,1.888
-7.328e-02,1.888
-7.296e-02,1.888
-7.264e-02,1.896
-7.232e-02,1.896
-7.200e-02,1.888
-7.168e-02,1.896
-7.136e-02,1.888
-7.104e-02,1.888
-7.072e-02,1.888
-7.040e-02,1.888
-7.008e-02,1.88
-6.976e-02,1.888
-6.944e-02,1.88
-6.912e-02,1.872
-6.880e-02,1.872
-6.848e-02,1.864
-6.816e-02,1.872
-6.784e-02,1.864
-6.752e-02,1.872
-6.720e-02,1.864
-6.688e-02,1.872
-6.656e-02,1.88
-6.624e-02,1.88
-6.592e-02,1.872
-6.560e-02,1.88
-6.528e-02,1.872
-6.496e-02,1.864
-6.464e-02,1.856
-6.432e-02,1.856
-6.400e-02,1.848
-6.368e-02,1.832
-6.336e-02,1.832
-6.304e-02,1.824
-6.272e-02,1.824
-6.240e-02,1.816
-6.208e-02,1.808
-6.176e-02,1.808
-6.144e-02,1.8
-6.112e-02,1.8
-6.080e-02,1.8
-6.048e-02,1.784
-6.016e-02,1.784
-5.984e-02,1.776
-5.952e-02,1.776
-5.920e-02,1.776
-5.888e-02,1.76
-5.856e-02,1.76
-5.824e-02,1.768
-5.792e-02,1.76
-5.760e-02,1.76
-5.728e-02,1.752
-5.696e-02,1.728
-5.664e-02,1.72
-5.632e-02,1.712
-5.600e-02,1.712
-5.568e-02,1.696
-5.536e-02,1.704
-5.504e-02,1.704
-5.472e-02,1.712
-5.440e-02,1.704
-5.408e-02,1.712
-5.376e-02,1.712
-5.344e-02,1.72
-5.312e-02,1.72
-5.280e-02,1.712
-5.248e-02,1.704
-5.216e-02,1.712
-5.184e-02,1.712
-5.152e-02,1.72
-5.120e-02,1.712
-5.088e-02,1.704
-5.056e-02,1.712
-5.024e-02,1.72
-4.992e-02,1.728
-4.960e-02,1.712
-4.928e-02,1.72
-4.896e-02,1.712
-4.864e-02,1.72
-4.832e-02,1.72
-4.800e-02,1.72
-4.768e-02,1.72
-4.736e-02,1.72
-4.704e-02,1.728
-4.672e-02,1.744
-4.640e-02,1.744
-4.608e-02,1.752
-4.576e-02,1.752
-4.544e-02,1.76
-4.512e-02,1.76
-4.480e-02,1.752
-4.448e-02,1.752
-4.416e-02,1.752
-4.384e-02,1.744
-4.352e-02,1.744
-4.320e-02,1.752
-4.288e-02,1.744
-4.256e-02,1.752
-4.224e-02,1.752
-4.192e-02,1.752
-4.160e-02,1.752
-4.128e-02,1.744
-4.096e-02,1.752
-4.064e-02,1.76
-4.032e-02,1.752
-4.000e-02,1.76
-3.968e-02,1.76
-3.936e-02,1.76
-3.904e-02,1.768
-3.872e-02,1.776
-3.840e-02,1.776
-3.808e-02,1.776
-3.776e-02,1.784
-3.744e-02,1.784
-3.712e-02,1.784
-3.680e-02,1.768
-3.648e-02,1.776
-3.616e-02,1.784
-3.584e-02,1.776
-3.552e-02,1.776
-3.520e-02,1.784
-3.488e-02,1.784
-3.456e-02,1.8
-3.424e-02,1.808
-3.392e-02,1.816
-3.360e-02,1.832
-3.328e-02,1.832
-3.296e-02,1.848
-3.264e-02,1.856
-3.232e-02,1.856
-3.200e-02,1.864
-3.168e-02,1.872
-3.136e-02,1.88
-3.104e-02,1.896
-3.072e-02,1.896
-3.040e-02,1.896
-3.008e-02,1.904
-2.976e-02,1.92
-2.944e-02,1.92
-2.912e-02,1.92
-2.880e-02,1.936
-2.848e-02,1.944
-2.816e-02,1.944
-2.784e-02,1.952
-2.752e-02,1.952
-2.720e-02,1.968
-2.688e-02,1.984
-2.656e-02,1.992
-2.624e-02,2
-2.592e-02,2.016
-2.560e-02,2.032
-2.528e-02,2.024
-2.496e-02,2.032
-2.464e-02,2.04
-2.432e-02,2.032
-2.400e-02,2.04
-2.368e-02,2.04
-2.336e-02,2.048
-2.304e-02,2.048
-2.272e-02,2.056
-2.240e-02,2.064
-2.208e-02,2.064
-2.176e-02,2.072
-2.144e-02,2.08
-2.112e-02,2.088
-2.080e-02,2.088
-2.048e-02,2.088
-2.016e-02,2.096
-1.984e-02,2.096
-1.952e-02,2.112
-1.920e-02,2.112
-1.888e-02,2.12
-1.856e-02,2.128
-1.824e-02,2.136
-1.792e-02,2.144
-1.760e-02,2.144
-1.728e-02,2.152
-1.696e-02,2.144
-1.664e-02,2.136
-1.632e-02,2.144
-1.600e-02,2.152
-1.568e-02,2.152
-1.536e-02,2.16
-1.504e-02,2.152
-1.472e-02,2.168
-1.440e-02,2.176
-1.408e-02,2.192
-1.376e-02,2.192
-1.344e-02,2.216
-1.312e-02,2.224
-1.280e-02,2.224
-1.248e-02,2.232
-1.216e-02,2.24
-1.184e-02,2.24
-1.152e-02,2.24
-1.120e-02,2.256
-1.088e-02,2.264
-1.056e-02,2.264
-1.024e-02,2.272
-9.920e-03,2.28
-9.600e-03,2.288
-9.280e-03,2.288
-8.960e-03,2.296
-8.640e-03,2.296
-8.320e-03,2.304
-8.000e-03,2.312
-7.680e-03,2.32
-7.360e-03,2.32
-7.040e-03,2.336
-6.720e-03,2.36
-6.400e-03,2.368
-6.080e-03,2.368
-5.760e-03,2.376
-5.440e-03,2.384
-5.120e-03,2.384
-4.800e-03,2.384
-4.480e-03,2.384
-4.160e-03,2.4
-3.840e-03,2.384
-3.520e-03,2.384
-3.200e-03,2.392
-2.880e-03,2.384
-2.560e-03,2.392
-2.240e-03,2.4
-1.920e-03,2.4
-1.600e-03,2.4
-1.280e-03,2.4
-9.600e-04,2.408
-6.400e-04,2.408
-3.200e-04,2.416
-5.920e-15,2.416
3.200e-04,2.416
6.400e-04,2.424
9.600e-04,2.424
1.280e-03,2.44
1.600e-03,2.432
1.920e-03,2.432
2.240e-03,2.44
2.560e-03,2.44
2.880e-03,2.44
3.200e-03,2.424
3.520e-03,2.424
3.840e-03,2.432
4.160e-03,2.432
4.480e-03,2.432
4.800e-03,2.432
5.120e-03,2.44
5.440e-03,2.448
5.760e-03,2.448
6.080e-03,2.456
6.400e-03,2.464
6.720e-03,2.472
7.040e-03,2.472
7.360e-03,2.48
7.680e-03,2.48
8.000e-03,2.48
8.320e-03,2.488
8.640e-03,2.496
8.960e-03,2.504
9.280e-03,2.504
9.600e-03,2.504
9.920e-03,2.512
1.024e-02,2.512
1.056e-02,2.512
1.088e-02,2.52
1.120e-02,2.512
1.152e-02,2.52
1.184e-02,2.52
1.216e-02,2.528
1.248e-02,2.528
1.280e-02,2.536
1.312e-02,2.552
1.344e-02,2.552
1.376e-02,2.568
1.408e-02,2.568
1.440e-02,2.568
1.472e-02,2.568
1.504e-02,2.576
1.536e-02,2.576
1.568e-02,2.576
1.600e-02,2.568
1.632e-02,2.56
1.664e-02,2.568
1.696e-02,2.568
1.728e-02,2.568
1.760e-02,2.568
1.792e-02,2.568
1.824e-02,2.576
1.856e-02,2.568
1.888e-02,2.568
1.920e-02,2.56
1.952e-02,2.568
1.984e-02,2.568
2.016e-02,2.568
2.048e-02,2.568
2.080e-02,2.576
2.112e-02,2.568
2.144e-02,2.576
2.176e-02,2.576
2.208e-02,2.576
2.240e-02,2.576
2.272e-02,2.576
2.304e-02,2.576
2.336e-02,2.568
2.368e-02,2.552
2.400e-02,2.552
2.432e-02,2.552
2.464e-02,2.56
2.496e-02,2.56
2.528e-02,2.56
2.560e-02,2.568
2.592e-02,2.584
2.624e-02,2.584
2.656e-02,2.584
2.688e-02,2.592
2.720e-02,2.592
2.752e-02,2.6
2.784e-02,2.6
2.816e-02,2.592
2.848e-02,2.6
2.880e-02,2.608
2.912e-02,2.608
2.944e-02,2.616
2.976e-02,2.616
3.008e-02,2.616
3.040e-02,2.616
3.072e-02,2.624
3.104e-02,2.624
3.136e-02,2.624
3.168e-02,2.624
3.200e-02,2.624
3.232e-02,2.624
3.264e-02,2.624
3.296e-02,2.64
3.328e-02,2.64
3.360e-02,2.656
3.392e-02,2.656
3.424e-02,2.656
3.456e-02,2.656
3.488e-02,2.664
3.520e-02,2.664
3.552e-02,2.656
3.584e-02,2.648
3.616e-02,2.64
3.648e-02,2.64
3.680e-02,2.64
3.712e-02,2.648
3.744e-02,2.632
3.776e-02,2.632
3.808e-02,2.632
3.840e-02,2.64
3.872e-02,2.64
3.904e-02,2.64
3.936e-02,2.632
3.968e-02,2.632
4.000e-02,2.632
4.032e-02,2.624
4.064e-02,2.624
4.096e-02,2.632
4.128e-02,2.632
4.160e-02,2.64
4.192e-02,2.632
4.224e-02,2.624
4.256e-02,2.616
4.288e-02,2.624
4.320e-02,2.608
4.352e-02,2.608
4.384e-02,2.6
4.416e-02,2.592
4.448e-02,2.592
4.480e-02,2.6
4.512e-02,2.6
4.544e-02,2.6
4.576e-02,2.6
4.608e-02,2.616
4.640e-02,2.608
4.672e-02,2.616
4.704e-02,2.616
4.736e-02,2.608
4.768e-02,2.616
4.800e-02,2.616
4.832e-02,2.624
4.864e-02,2.624
4.896e-02,2.616
4.928e-02,2.624
4.960e-02,2.624
4.992e-02,2.616
5.024e-02,2.616
5.056e-02,2.616
5.088e-02,2.616
5.120e-02,2.616
5.152e-02,2.608
5.184e-02,2.608
5.216e-02,2.608
5.248e-02,2.608
5.280e-02,2.608
5.312e-02,2.616
5.344e-02,2.624
5.376e-02,2.632
5.408e-02,2.632
5.440e-02,2.632
5.472e-02,2.624
5.504e-02,2.624
5.536e-02,2.608
5.568e-02,2.608
5.600e-02,2.608
5.632e-02,2.6
5.664e-02,2.584
5.696e-02,2.584
5.728e-02,2.576
5.760e-02,2.576
5.792e-02,2.584
5.824e-02,2.576
5.856e-02,2.576
5.888e-02,2.568
5.920e-02,2.56
5.952e-02,2.544
5.984e-02,2.552
6.016e-02,2.552
6.048e-02,2.552
6.080e-02,2.536
6.112e-02,2.544
6.144e-02,2.536
6.176e-02,2.528
6.208e-02,2.528
6.240e-02,2.528
6.272e-02,2.52
6.304e-02,2.504
6.336e-02,2.496
6.368e-02,2.488
6.400e-02,2.48
6.432e-02,2.472
6.464e-02,2.464
6.496e-02,2.472
6.528e-02,2.48
6.560e-02,2.472
6.592e-02,2.472
6.624e-02,2.48
6.656e-02,2.48
6.688e-02,2.472
6.720e-02,2.472
6.752e-02,2.464
6.784e-02,2.472
6.816e-02,2.456
6.848e-02,2.464
6.880e-02,2.456
6.912e-02,2.464
6.944e-02,2.464
6.976e-02,2.456
7.008e-02,2.456
7.040e-02,2.448
7.072e-02,2.432
7.104e-02,2.44
7.136e-02,2.44
7.168e-02,2.432
7.200e-02,2.424
7.232e-02,2.424
7.264e-02,2.424
7.296e-02,2.432
7.328e-02,2.44
7.360e-02,2.432
7.392e-02,2.44
7.424e-02,2.44
7.456e-02,2.44
7.488e-02,2.424
7.520e-02,2.416
7.552e-02,2.416
7.584e-02,2.408
7.616e-02,2.392
7.648e-02,2.384
7.680e-02,2.376
7.712e-02,2.384
7.744e-02,2.376
7.776e-02,2.368
7.808e-02,2.368
7.840e-02,2.36
7.872e-02,2.36
7.904e-02,2.36
7.936e-02,2.352
7.968e-02,2.344
8.000e-02,2.344
8.032e-02,2.336
8.064e-02,2.344
8.096e-02,2.336
8.128e-02,2.328
8.160e-02,2.328
8.192e-02,2.328
8.224e-02,2.328
8.256e-02,2.32
8.288e-02,2.304
8.320e-02,2.296
8.352e-02,2.296
8.384e-02,2.28
8.416e-02,2.272
8.448e-02,2.264
8.480e-02,2.272
8.512e-02,2.272
8.544e-02,2.28
8.576e-02,2.28
8.608e-02,2.272
8.640e-02,2.28
8.672e-02,2.28
8.704e-02,2.28
8.736e-02,2.28
8.768e-02,2.28
8.800e-02,2.272
8.832e-02,2.288
8.864e-02,2.288
8.896e-02,2.288
8.928e-02,2.28
8.960e-02,2.28
8.992e-02,2.28
9.024e-02,2.28
9.056e-02,2.272
9.088e-02,2.272
9.120e-02,2.272
9.152e-02,2.272
9.184e-02,2.272
9.216e-02,2.272
9.248e-02,2.264
9.280e-02,2.272
9.312e-02,2.272
9.344e-02,2.288
9.376e-02,2.288
9.408e-02,2.288
9.440e-02,2.288
9.472e-02,2.28
9.504e-02,2.28
9.536e-02,2.28
9.568e-02,2.272
9.600e-02,2.264
9.632e-02,2.256
9.664e-02,2.256
9.696e-02,2.248
9.728e-02,2.248
9.760e-02,2.248
9.792e-02,2.24
9.824e-02,2.24
9.856e-02,2.232
9.888e-02,2.24
9.920e-02,2.232
9.952e-02,2.232
9.984e-02,2.232
1.002e-01,2.224
1.005e-01,2.224
1.008e-01,2.224
1.011e-01,2.232
1.014e-01,2.216
