lab_data/6 - 12/TEK00008.CSV

Model,TBS1102C
Firmware Version,v2015-08-04-prequal4ch70_v1.3

Point Format,Y
Horizontal Units,S
Horizontal Scale,0.2
Sample Interval,0.0016
Filter Frequency,2e+08
Record Length,2000
Gating,0.0% to 100.0%
Probe Attenuation,1
Vertical Units,V
Vertical Offset,1
Vertical Scale,0.2
Label,
TIME,CH1
-1.411e+00,1.8
-1.410e+00,1.784
-1.408e+00,1.792
-1.406e+00,1.768
-1.405e+00,1.76
-1.403e+00,1.776
-1.402e+00,1.776
-1.400e+00,1.8
-1.398e+00,1.8
-1.397e+00,1.8
-1.395e+00,1.824
-1.394e+00,1.816
-1.392e+00,1.808
-1.390e+00,1.792
-1.389e+00,1.792
-1.387e+00,1.792
-1.386e+00,1.76
-1.384e+00,1.768
-1.382e+00,1.784
-1.381e+00,1.792
-1.379e+00,1.792
-1.378e+00,1.8
-1.376e+00,1.824
-1.374e+00,1.816
-1.373e+00,1.808
-1.371e+00,1.808
-1.370e+00,1.792
-1.368e+00,1.792
-1.366e+00,1.776
-1.365e+00,1.752
-1.363e+00,1.776
-1.362e+00,1.784
-1.360e+00,1.792
-1.358e+00,1.8
-1.357e+00,1.8
-1.355e+00,1.824
-1.354e+00,1.816
-1.352e+00,1.808
-1.350e+00,1.792
-1.349e+00,1.792
-1.347e+00,1.784
-1.346e+00,1.76
-1.344e+00,1.76
-1.342e+00,1.776
-1.341e+00,1.784
-1.339e+00,1.8
-1.338e+00,1.8
-1.336e+00,1.824
-1.334e+00,1.824
-1.333e+00,1.808
-1.331e+00,1.8
-1.330e+00,1.792
-1.328e+00,1.792
-1.326e+00,1.768
-1.325e+00,1.752
-1.323e+00,1.776
-1.322e+00,1.784
-1.320e+00,1.792
-1.318e+00,1.792
-1.317e+00,1.792
-1.315e+00,1.824
-1.314e+00,1.808
-1.312e+00,1.8
-1.310e+00,1.792
-1.309e+00,1.784
-1.307e+00,1.792
-1.306e+00,1.76
-1.304e+00,1.768
-1.302e+00,1.784
-1.301e+00,1.784
-1.299e+00,1.8
-1.298e+00,1.792
-1.296e+00,1.824
-1.294e+00,1.824
-1.293e+00,1.8
-1.291e+00,1.8
-1.290e+00,1.792
-1.288e+00,1.8
-1.286e+00,1.776
-1.285e+00,1.76
-1.283e+00,1.776
-1.282e+00,1.784
-1.280e+00,1.8
-1.278e+00,1.8
-1.277e+00,1.8
-1.275e+00,1.824
-1.274e+00,1.816
-1.272e+00,1.8
-1.270e+00,1.8
-1.269e+00,1.784
-1.267e+00,1.792
-1.266e+00,1.76
-1.264e+00,1.768
-1.262e+00,1.776
-1.261e+00,1.784
-1.259e+00,1.792
-1.258e+00,1.792
-1.256e+00,1.816
-1.254e+00,1.824
-1.253e+00,1.8
-1.251e+00,1.8
-1.250e+00,1.784
-1.248e+00,1.792
-1.246e+00,1.776
-1.245e+00,1.76
-1.243e+00,1.776
-1.242e+00,1.776
-1.240e+00,1.792
-1.238e+00,1.792
-1.237e+00,1.792
-1.235e+00,1.824
-1.234e+00,1.816
-1.232e+00,1.8
-1.230e+00,1.8
-1.229e+00,1.792
-1.227e+00,1.792
-1.226e+00,1.76
-1.224e+00,1.768
-1.222e+00,1.784
-1.221e+00,1.784
-1.219e+00,1.792
-1.218e+00,1.792
-1.216e+00,1.824
-1.214e+00,1.824
-1.213e+00,1.808
-1.211e+00,1.808
-1.210e+00,1.792
-1.208e+00,1.8
-1.206e+00,1.776
-1.205e+00,1.76
-1.203e+00,1.776
-1.202e+00,1.784
-1.200e+00,1.792
-1.198e+00,1.8
-1.197e+00,1.8
-1.195e+00,1.824
-1.194e+00,1.816
-1.192e+00,1.808
-1.190e+00,1.8
-1.189e+00,1.792
-1.187e+00,1.784
-1.186e+00,1.76
-1.184e+00,1.768
-1.182e+00,1.776
-1.181e+00,1.792
-1.179e+00,1.792
-1.178e+00,1.8
-1.176e+00,1.824
-1.174e+00,1.824
-1.173e+00,1.8
-1.171e+00,1.792
-1.170e+00,1.792
-1.168e+00,1.792
-1.166e+00,1.776
-1.165e+00,1.76
-1.163e+00,1.776
-1.162e+00,1.784
-1.160e+00,1.8
-1.158e+00,1.792
-1.157e+00,1.8
-1.155e+00,1.816
-1.154e+00,1.808
-1.152e+00,1.8
-1.150e+00,1.792
-1.149e+00,1.792
-1.147e+00,1.792
-1.146e+00,1.76
-1.144e+00,1.768
-1.142e+00,1.784
-1.141e+00,1.792
-1.139e+00,1.792
-1.138e+00,1.792
-1.136e+00,1.824
-1.134e+00,1.816
-1.133e+00,1.8
-1.131e+00,1.8
-1.130e+00,1.792
-1.128e+00,1.792
-1.126e+00,1.776
-1.125e+00,1.768
-1.123e+00,1.784
-1.122e+00,1.784
-1.120e+00,1.792
-1.118e+00,1.8
-1.117e+00,1.792
-1.115e+00,1.816
-1.114e+00,1.816
-1.112e+00,1.8
-1.110e+00,1.792
-1.109e+00,1.784
-1.107e+00,1.792
-1.106e+00,1.76
-1.104e+00,1.768
-1.102e+00,1.792
-1.101e+00,1.792
-1.099e+00,1.792
-1.098e+00,1.792
-1.096e+00,1.816
-1.094e+00,1.816
-1.093e+00,1.8
-1.091e+00,1.792
-1.090e+00,1.792
-1.088e+00,1.792
-1.086e+00,1.768
-1.085e+00,1.76
-1.083e+00,1.776
-1.082e+00,1.784
-1.080e+00,1.792
-1.078e+00,1.8
-1.077e+00,1.8
-1.075e+00,1.824
-1.074e+00,1.808
-1.072e+00,1.8
-1.070e+00,1.792
-1.069e+00,1.792
-1.067e+00,1.792
-1.066e+00,1.768
-1.064e+00,1.768
-1.062e+00,1.784
-1.061e+00,1.792
-1.059e+00,1.8
-1.058e+00,1.8
-1.056e+00,1.816
-1.054e+00,1.816
-1.053e+00,1.8
-1.051e+00,1.8
-1.050e+00,1.792
-1.048e+00,1.792
-1.046e+00,1.776
-1.045e+00,1.76
-1.043e+00,1.784
-1.042e+00,1.792
-1.040e+00,1.8
-1.038e+00,1.8
-1.037e+00,1.8
-1.035e+00,1.824
-1.034e+00,1.816
-1.032e+00,1.8
-1.030e+00,1.792
-1.029e+00,1.792
-1.027e+00,1.792
-1.026e+00,1.768
-1.024e+00,1.776
-1.022e+00,1.784
-1.021e+00,1.792
-1.019e+00,1.8
-1.018e+00,1.8
-1.016e+00,1.824
-1.014e+00,1.824
-1.013e+00,1.8
-1.011e+00,1.8
-1.010e+00,1.792
-1.008e+00,1.792
-1.006e+00,1.776
-1.005e+00,1.76
-1.003e+00,1.784
-1.002e+00,1.792
-1.000e+00,1.792
-9.984e-01,1.792
-9.968e-01,1.8
-9.952e-01,1.832
-9.936e-01,1.808
-9.920e-01,1.8
-9.904e-01,1.792
-9.888e-01,1.792
-9.872e-01,1.784
-9.856e-01,1.76
-9.840e-01,1.76
-9.824e-01,1.784
-9.808e-01,1.792
-9.792e-01,1.8
-9.776e-01,1.792
-9.760e-01,1.824
-9.744e-01,1.824
-9.728e-01,1.808
-9.712e-01,1.8
-9.696e-01,1.792
-9.680e-01,1.792
-9.664e-01,1.768
-9.648e-01,1.76
-9.632e-01,1.776
-9.616e-01,1.784
-9.600e-01,1.8
-9.584e-01,1.792
-9.568e-01,1.8
-9.552e-01,1.824
-9.536e-01,1.824
-9.520e-01,1.808
-9.504e-01,1.792
-9.488e-01,1.792
-9.472e-01,1.792
-9.456e-01,1.76
-9.440e-01,1.768
-9.424e-01,1.784
-9.408e-01,1.792
-9.392e-01,1.792
-9.376e-01,1.792
-9.360e-01,1.824
-9.344e-01,1.824
-9.328e-01,1.808
-9.312e-01,1.8
-9.296e-01,1.8
-9.280e-01,1.792
-9.264e-01,1.776
-9.248e-01,1.76
-9.232e-01,1.776
-9.216e-01,1.792
-9.200e-01,1.8
-9.184e-01,1.8
-9.168e-01,1.8
-9.152e-01,1.824
-9.136e-01,1.816
-9.120e-01,1.808
-9.104e-01,1.792
-9.088e-01,1.792
-9.072e-01,1.792
-9.056e-01,1.76
-9.040e-01,1.768
-9.024e-01,1.784
-9.008e-01,1.792
-8.992e-01,1.8
-8.976e-01,1.792
-8.960e-01,1.824
-8.944e-01,1.824
-8.928e-01,1.808
-8.912e-01,1.8
-8.896e-01,1.792
-8.880e-01,1.792
-8.864e-01,1.776
-8.848e-01,1.76
-8.832e-01,1.784
-8.816e-01,1.792
-8.800e-01,1.8
-8.784e-01,1.792
-8.768e-01,1.8
-8.752e-01,1.832
-8.736e-01,1.816
-8.720e-01,1.8
-8.704e-01,1.792
-8.688e-01,1.792
-8.672e-01,1.792
-8.656e-01,1.752
-8.640e-01,1.768
-8.624e-01,1.784
-8.608e-01,1.792
-8.592e-01,1.792
-8.576e-01,1.8
-8.560e-01,1.816
-8.544e-01,1.824
-8.528e-01,1.808
-8.512e-01,1.8
-8.496e-01,1.784
-8.480e-01,1.784
-8.464e-01,1.768
-8.448e-01,1.76
-8.432e-01,1.776
-8.416e-01,1.784
-8.400e-01,1.8
-8.384e-01,1.8
-8.368e-01,1.8
-8.352e-01,1.824
-8.336e-01,1.816
-8.320e-01,1.8
-8.304e-01,1.792
-8.288e-01,1.792
-8.272e-01,1.792
-8.256e-01,1.752
-8.240e-01,1.768
-8.224e-01,1.784
-8.208e-01,1.792
-8.192e-01,1.8
-8.176e-01,1.8
-8.160e-01,1.816
-8.144e-01,1.824
-8.128e-01,1.8
-8.112e-01,1.8
-8.096e-01,1.792
-8.080e-01,1.792
-8.064e-01,1.784
-8.048e-01,1.752
-8.032e-01,1.784
-8.016e-01,1.784
-8.000e-01,1.792
-7.984e-01,1.792
-7.968e-01,1.8
-7.952e-01,1.824
-7.936e-01,1.808
-7.920e-01,1.808
-7.904e-01,1.8
-7.888e-01,1.8
-7.872e-01,1.784
-7.856e-01,1.768
-7.840e-01,1.76
-7.824e-01,1.784
-7.808e-01,1.792
-7.792e-01,1.792
-7.776e-01,1.8
-7.760e-01,1.824
-7.744e-01,1.824
-7.728e-01,1.808
-7.712e-01,1.808
-7.696e-01,1.792
-7.680e-01,1.792
-7.664e-01,1.776
-7.648e-01,1.76
-7.632e-01,1.776
-7.616e-01,1.784
-7.600e-01,1.792
-7.584e-01,1.792
-7.568e-01,1.8
-7.552e-01,1.832
-7.536e-01,1.816
-7.520e-01,1.808
-7.504e-01,1.8
-7.488e-01,1.792
-7.472e-01,1.792
-7.456e-01,1.76
-7.440e-01,1.768
-7.424e-01,1.784
-7.408e-01,1.784
-7.392e-01,1.792
-7.376e-01,1.8
-7.360e-01,1.816
-7.344e-01,1.824
-7.328e-01,1.8
-7.312e-01,1.792
-7.296e-01,1.792
-7.280e-01,1.8
-7.264e-01,1.776
-7.248e-01,1.76
-7.232e-01,1.776
-7.216e-01,1.784
-7.200e-01,1.784
-7.184e-01,1.792
-7.168e-01,1.792
-7.152e-01,1.824
-7.136e-01,1.816
-7.120e-01,1.808
-7.104e-01,1.8
-7.088e-01,1.792
-7.072e-01,1.784
-7.056e-01,1.768
-7.040e-01,1.768
-7.024e-01,1.792
-7.008e-01,1.784
-6.992e-01,1.792
-6.976e-01,1.792
-6.960e-01,1.824
-6.944e-01,1.816
-6.928e-01,1.808
-6.912e-01,1.8
-6.896e-01,1.792
-6.880e-01,1.792
-6.864e-01,1.768
-6.848e-01,1.76
-6.832e-01,1.776
-6.816e-01,1.784
-6.800e-01,1.792
-6.784e-01,1.792
-6.768e-01,1.8
-6.752e-01,1.824
-6.736e-01,1.816
-6.720e-01,1.8
-6.704e-01,1.8
-6.688e-01,1.792
-6.672e-01,1.8
-6.656e-01,1.76
-6.640e-01,1.768
-6.624e-01,1.792
-6.608e-01,1.784
-6.592e-01,1.8
-6.576e-01,1.8
-6.560e-01,1.816
-6.544e-01,1.824
-6.528e-01,1.8
-6.512e-01,1.8
-6.496e-01,1.792
-6.480e-01,1.792
-6.464e-01,1.776
-6.448e-01,1.76
-6.432e-01,1.784
-6.416e-01,1.8
-6.400e-01,1.8
-6.384e-01,1.792
-6.368e-01,1.8
-6.352e-01,1.832
-6.336e-01,1.816
-6.320e-01,1.8
-6.304e-01,1.8
-6.288e-01,1.792
-6.272e-01,1.792
-6.256e-01,1.768
-6.240e-01,1.768
-6.224e-01,1.784
-6.208e-01,1.792
-6.192e-01,1.8
-6.176e-01,1.8
-6.160e-01,1.824
-6.144e-01,1.824
-6.128e-01,1.808
-6.112e-01,1.8
-6.096e-01,1.792
-6.080e-01,1.8
-6.064e-01,1.776
-6.048e-01,1.768
-6.032e-01,1.784
-6.016e-01,1.792
-6.000e-01,1.808
-5.984e-01,1.8
-5.968e-01,1.8
-5.952e-01,1.832
-5.936e-01,1.824
-5.920e-01,1.808
-5.904e-01,1.792
-5.888e-01,1.8
-5.872e-01,1.8
-5.856e-01,1.768
-5.840e-01,1.776
-5.824e-01,1.792
-5.808e-01,1.8
-5.792e-01,1.808
-5.776e-01,1.808
-5.760e-01,1.832
-5.744e-01,1.832
-5.728e-01,1.816
-5.712e-01,1.816
-5.696e-01,1.808
-5.680e-01,1.808
-5.664e-01,1.792
-5.648e-01,1.792
-5.632e-01,1.8
-5.616e-01,1.816
-5.600e-01,1.824
-5.584e-01,1.824
-5.568e-01,1.832
-5.552e-01,1.856
-5.536e-01,1.848
-5.520e-01,1.832
-5.504e-01,1.832
-5.488e-01,1.824
-5.472e-01,1.832
-5.456e-01,1.8
-5.440e-01,1.808
-5.424e-01,1.832
-5.408e-01,1.832
-5.392e-01,1.84
-5.376e-01,1.848
-5.360e-01,1.872
-5.344e-01,1.872
-5.328e-01,1.848
-5.312e-01,1.848
-5.296e-01,1.84
-5.280e-01,1.832
-5.264e-01,1.824
-5.248e-01,1.808
-5.232e-01,1.824
-5.216e-01,1.84
-5.200e-01,1.84
-5.184e-01,1.848
-5.168e-01,1.84
-5.152e-01,1.872
-5.136e-01,1.856
-5.120e-01,1.84
-5.104e-01,1.832
-5.088e-01,1.824
-5.072e-01,1.824
-5.056e-01,1.792
-5.040e-01,1.8
-5.024e-01,1.808
-5.008e-01,1.824
-4.992e-01,1.824
-4.976e-01,1.816
-4.960e-01,1.84
-4.944e-01,1.832
-4.928e-01,1.816
-4.912e-01,1.8
-4.896e-01,1.8
-4.880e-01,1.8
-4.864e-01,1.768
-4.848e-01,1.76
-4.832e-01,1.776
-4.816e-01,1.776
-4.800e-01,1.776
-4.784e-01,1.776
-4.768e-01,1.776
-4.752e-01,1.8
-4.736e-01,1.784
-4.720e-01,1.76
-4.704e-01,1.744
-4.688e-01,1.736
-4.672e-01,1.728
-4.656e-01,1.696
-4.640e-01,1.704
-4.624e-01,1.712
-4.608e-01,1.712
-4.592e-01,1.72
-4.576e-01,1.712
-4.560e-01,1.728
-4.544e-01,1.736
-4.528e-01,1.704
-4.512e-01,1.688
-4.496e-01,1.672
-4.480e-01,1.672
-4.464e-01,1.648
-4.448e-01,1.624
-4.432e-01,1.64
-4.416e-01,1.648
-4.400e-01,1.648
-4.384e-01,1.648
-4.368e-01,1.648
-4.352e-01,1.664
-4.336e-01,1.648
-4.320e-01,1.624
-4.304e-01,1.608
-4.288e-01,1.608
-4.272e-01,1.6
-4.256e-01,1.56
-4.240e-01,1.568
-4.224e-01,1.576
-4.208e-01,1.584
-4.192e-01,1.584
-4.176e-01,1.576
-4.160e-01,1.592
-4.144e-01,1.6
-4.128e-01,1.576
-4.112e-01,1.56
-4.096e-01,1.552
-4.080e-01,1.544
-4.064e-01,1.52
-4.048e-01,1.504
-4.032e-01,1.52
-4.016e-01,1.52
-4.000e-01,1.528
-3.984e-01,1.528
-3.968e-01,1.536
-3.952e-01,1.552
-3.936e-01,1.544
-3.920e-01,1.52
-3.904e-01,1.504
-3.888e-01,1.504
-3.872e-01,1.504
-3.856e-01,1.472
-3.840e-01,1.48
-3.824e-01,1.488
-3.808e-01,1.496
-3.792e-01,1.496
-3.776e-01,1.496
-3.760e-01,1.52
-3.744e-01,1.52
-3.728e-01,1.512
-3.712e-01,1.504
-3.696e-01,1.496
-3.680e-01,1.496
-3.664e-01,1.48
-3.648e-01,1.464
-3.632e-01,1.488
-3.616e-01,1.488
-3.600e-01,1.496
-3.584e-01,1.512
-3.568e-01,1.52
-3.552e-01,1.544
-3.536e-01,1.536
-3.520e-01,1.528
-3.504e-01,1.528
-3.488e-01,1.512
-3.472e-01,1.52
-3.456e-01,1.504
-3.440e-01,1.512
-3.424e-01,1.52
-3.408e-01,1.536
-3.392e-01,1.544
-3.376e-01,1.552
-3.360e-01,1.584
-3.344e-01,1.584
-3.328e-01,1.576
-3.312e-01,1.576
-3.296e-01,1.568
-3.280e-01,1.568
-3.264e-01,1.56
-3.248e-01,1.552
-3.232e-01,1.568
-3.216e-01,1.584
-3.200e-01,1.592
-3.184e-01,1.6
-3.168e-01,1.616
-3.152e-01,1.64
-3.136e-01,1.64
-3.120e-01,1.64
-3.104e-01,1.64
-3.088e-01,1.632
-3.072e-01,1.64
-3.056e-01,1.616
-3.040e-01,1.632
-3.024e-01,1.648
-3.008e-01,1.656
-2.992e-01,1.68
-2.976e-01,1.696
-2.960e-01,1.72
-2.944e-01,1.72
-2.928e-01,1.72
-2.912e-01,1.72
-2.896e-01,1.704
-2.880e-01,1.72
-2.864e-01,1.704
-2.848e-01,1.688
-2.832e-01,1.72
-2.816e-01,1.736
-2.800e-01,1.752
-2.784e-01,1.76
-2.768e-01,1.768
-2.752e-01,1.808
-2.736e-01,1.8
-2.720e-01,1.792
-2.704e-01,1.784
-2.688e-01,1.792
-2.672e-01,1.8
-2.656e-01,1.776
-2.640e-01,1.784
-2.624e-01,1.808
-2.608e-01,1.824
-2.592e-01,1.832
-2.576e-01,1.84
-2.560e-01,1.864
-2.544e-01,1.88
-2.528e-01,1.864
-2.512e-01,1.864
-2.496e-01,1.864
-2.480e-01,1.872
-2.464e-01,1.856
-2.448e-01,1.848
-2.432e-01,1.872
-2.416e-01,1.88
-2.400e-01,1.888
-2.384e-01,1.904
-2.368e-01,1.912
-2.352e-01,1.944
-2.336e-01,1.936
-2.320e-01,1.92
-2.304e-01,1.92
-2.288e-01,1.92
-2.272e-01,1.928
-2.256e-01,1.904
-2.240e-01,1.912
-2.224e-01,1.928
-2.208e-01,1.944
-2.192e-01,1.952
-2.176e-01,1.944
-2.160e-01,1.976
-2.144e-01,1.984
-2.128e-01,1.976
-2.112e-01,1.968
-2.096e-01,1.968
-2.080e-01,1.976
-2.064e-01,1.952
-2.048e-01,1.936
-2.032e-01,1.96
-2.016e-01,1.96
-2.000e-01,1.976
-1.984e-01,1.968
-1.968e-01,1.976
-1.952e-01,2
-1.936e-01,1.992
-1.920e-01,1.984
-1.904e-01,1.976
-1.888e-01,1.968
-1.872e-01,1.96
-1.856e-01,1.936
-1.840e-01,1.944
-1.824e-01,1.944
-1.808e-01,1.952
-1.792e-01,1.96
-1.776e-01,1.952
-1.760e-01,1.976
-1.744e-01,1.976
-1.728e-01,1.952
-1.712e-01,1.944
-1.696e-01,1.928
-1.680e-01,1.928
-1.664e-01,1.912
-1.648e-01,1.88
-1.632e-01,1.904
-1.616e-01,1.904
-1.600e-01,1.904
-1.584e-01,1.904
-1.568e-01,1.888
-1.552e-01,1.92
-1.536e-01,1.904
-1.520e-01,1.88
-1.504e-01,1.872
-1.488e-01,1.864
-1.472e-01,1.848
-1.456e-01,1.808
-1.440e-01,1.816
-1.424e-01,1.816
-1.408e-01,1.824
-1.392e-01,1.816
-1.376e-01,1.816
-1.360e-01,1.824
-1.344e-01,1.824
-1.328e-01,1.8
-1.312e-01,1.792
-1.296e-01,1.776
-1.280e-01,1.776
-1.264e-01,1.752
-1.248e-01,1.728
-1.232e-01,1.736
-1.216e-01,1.744
-1.200e-01,1.752
-1.184e-01,1.744
-1.168e-01,1.744
-1.152e-01,1.768
-1.136e-01,1.752
-1.120e-01,1.736
-1.104e-01,1.72
-1.088e-01,1.72
-1.072e-01,1.72
-1.056e-01,1.696
-1.040e-01,1.696
-1.024e-01,1.72
-1.008e-01,1.728
-9.920e-02,1.736
-9.760e-02,1.736
-9.600e-02,1.76
-9.440e-02,1.76
-9.280e-02,1.752
-9.120e-02,1.736
-8.960e-02,1.736
-8.800e-02,1.752
-8.640e-02,1.744
-8.480e-02,1.736
-8.320e-02,1.752
-8.160e-02,1.776
-8.000e-02,1.784
-7.840e-02,1.792
-7.680e-02,1.808
-7.520e-02,1.84
-7.360e-02,1.832
-7.200e-02,1.84
-7.040e-02,1.84
-6.880e-02,1.848
-6.720e-02,1.856
-6.560e-02,1.848
-6.400e-02,1.856
-6.240e-02,1.888
-6.080e-02,1.904
-5.920e-02,1.928
-5.760e-02,1.936
-5.600e-02,1.976
-5.440e-02,1.992
-5.280e-02,1.984
-5.120e-02,1.984
-4.960e-02,1.992
-4.800e-02,2.008
-4.640e-02,2.008
-4.480e-02,2.008
-4.320e-02,2.04
-4.160e-02,2.064
-4.000e-02,2.08
-3.840e-02,2.096
-3.680e-02,2.112
-3.520e-02,2.152
-3.360e-02,2.16
-3.200e-02,2.152
-3.040e-02,2.16
-2.880e-02,2.176
-2.720e-02,2.184
-2.560e-02,2.176
-2.400e-02,2.192
-2.240e-02,2.224
-2.080e-02,2.248
-1.920e-02,2.264
-1.760e-02,2.272
-1.600e-02,2.304
-1.440e-02,2.32
-1.280e-02,2.312
-1.120e-02,2.32
-9.600e-03,2.328
-8.000e-03,2.336
-6.400e-03,2.336
-4.800e-03,2.336
-3.200e-03,2.36
-1.600e-03,2.376
2.392e-14,2.392
1.600e-03,2.408
3.200e-03,2.416
4.800e-03,2.456
6.400e-03,2.464
8.000e-03,2.456
9.600e-03,2.464
1.120e-02,2.464
1.280e-02,2.472
1.440e-02,2.448
1.600e-02,2.464
1.760e-02,2.488
1.920e-02,2.496
2.080e-02,2.512
2.240e-02,2.528
2.400e-02,2.552
2.560e-02,2.568
2.720e-02,2.56
2.880e-02,2.56
3.040e-02,2.552
3.200e-02,2.56
3.360e-02,2.552
3.520e-02,2.544
3.680e-02,2.568
3.840e-02,2.584
4.000e-02,2.6
4.160e-02,2.6
4.320e-02,2.616
4.480e-02,2.64
4.640e-02,2.648
4.800e-02,2.632
4.960e-02,2.624
5.120e-02,2.632
5.280e-02,2.624
5.440e-02,2.6
5.600e-02,2.616
5.760e-02,2.64
5.920e-02,2.648
6.080e-02,2.656
6.240e-02,2.656
6.400e-02,2.688
6.560e-02,2.696
6.720e-02,2.68
6.880e-02,2.672
7.040e-02,2.672
7.200e-02,2.68
7.360e-02,2.664
7.520e-02,2.656
7.680e-02,2.672
7.840e-02,2.68
8.000e-02,2.688
8.160e-02,2.688
8.320e-02,2.696
8.480e-02,2.728
8.640e-02,2.728
8.800e-02,2.712
8.960e-02,2.704
9.120e-02,2.696
9.280e-02,2.696
9.440e-02,2.672
9.600e-02,2.68
9.760e-02,2.704
9.920e-02,2.704
1.008e-01,2.72
1.024e-01,2.712
1.040e-01,2.744
1.056e-01,2.752
1.072e-01,2.728
1.088e-01,2.72
1.104e-01,2.712
1.120e-01,2.712
1.136e-01,2.704
1.152e-01,2.688
1.168e-01,2.696
1.184e-01,2.712
1.200e-01,2.728
1.216e-01,2.728
1.232e-01,2.736
1.248e-01,2.76
1.264e-01,2.744
1.280e-01,2.736
1.296e-01,2.728
1.312e-01,2.728
1.328e-01,2.728
1.344e-01,2.696
1.360e-01,2.696
1.376e-01,2.72
1.392e-01,2.728
1.408e-01,2.728
1.424e-01,2.736
1.440e-01,2.76
1.456e-01,2.76
1.472e-01,2.736
1.488e-01,2.736
1.504e-01,2.736
1.520e-01,2.728
1.536e-01,2.712
1.552e-01,2.704
1.568e-01,2.728
1.584e-01,2.728
1.600e-01,2.736
1.616e-01,2.736
1.632e-01,2.736
1.648e-01,2.76
1.664e-01,2.76
1.680e-01,2.744
1.696e-01,2.736
1.712e-01,2.728
1.728e-01,2.736
1.744e-01,2.712
1.760e-01,2.704
1.776e-01,2.728
1.792e-01,2.728
1.808e-01,2.744
1.824e-01,2.736
1.840e-01,2.768
1.856e-01,2.768
1.872e-01,2.752
1.888e-01,2.744
1.904e-01,2.728
1.920e-01,2.736
1.936e-01,2.72
1.952e-01,2.712
1.968e-01,2.72
1.984e-01,2.728
2.000e-01,2.736
2.016e-01,2.744
2.032e-01,2.744
2.048e-01,2.776
2.064e-01,2.768
2.080e-01,2.752
2.096e-01,2.744
2.112e-01,2.736
2.128e-01,2.736
2.144e-01,2.712
2.160e-01,2.712
2.176e-01,2.736
2.192e-01,2.744
2.208e-01,2.744
2.224e-01,2.744
2.240e-01,2.768
2.256e-01,2.768
2.272e-01,2.752
2.288e-01,2.744
2.304e-01,2.744
2.320e-01,2.744
2.336e-01,2.728
2.352e-01,2.712
2.368e-01,2.72
2.384e-01,2.736
2.400e-01,2.736
2.416e-01,2.736
2.432e-01,2.744
2.448e-01,2.776
2.464e-01,2.76
2.480e-01,2.744
2.496e-01,2.744
2.512e-01,2.744
2.528e-01,2.744
2.544e-01,2.712
2.560e-01,2.712
2.576e-01,2.728
2.592e-01,2.744
2.608e-01,2.736
2.624e-01,2.744
2.640e-01,2.768
2.656e-01,2.776
2.672e-01,2.76
2.688e-01,2.752
2.704e-01,2.744
2.720e-01,2.744
2.736e-01,2.728
2.752e-01,2.712
2.768e-01,2.72
2.784e-01,2.736
2.800e-01,2.744
2.816e-01,2.752
2.832e-01,2.744
2.848e-01,2.768
2.864e-01,2.768
2.880e-01,2.752
2.896e-01,2.744
2.912e-01,2.736
2.928e-01,2.736
2.944e-01,2.712
2.960e-01,2.72
2.976e-01,2.736
2.992e-01,2.736
3.008e-01,2.744
3.024e-01,2.752
3.040e-01,2.776
3.056e-01,2.768
3.072e-01,2.76
3.088e-01,2.752
3.104e-01,2.744
3.120e-01,2.752
3.136e-01,2.728
3.152e-01,2.72
3.168e-01,2.728
3.184e-01,2.736
3.200e-01,2.744
3.216e-01,2.744
3.232e-01,2.744
3.248e-01,2.768
3.264e-01,2.76
3.280e-01,2.752
3.296e-01,2.744
3.312e-01,2.744
3.328e-01,2.744
3.344e-01,2.712
3.360e-01,2.712
3.376e-01,2.728
3.392e-01,2.736
3.408e-01,2.744
3.424e-01,2.744
3.440e-01,2.768
3.456e-01,2.768
3.472e-01,2.752
3.488e-01,2.744
3.504e-01,2.736
3.520e-01,2.736
3.536e-01,2.728
3.552e-01,2.712
3.568e-01,2.728
3.584e-01,2.736
3.600e-01,2.744
3.616e-01,2.744
3.632e-01,2.744
3.648e-01,2.776
3.664e-01,2.768
3.680e-01,2.752
3.696e-01,2.752
3.712e-01,2.744
3.728e-01,2.736
3.744e-01,2.712
3.760e-01,2.72
3.776e-01,2.736
3.792e-01,2.736
3.808e-01,2.744
3.824e-01,2.752
3.840e-01,2.76
3.856e-01,2.768
3.872e-01,2.752
3.888e-01,2.752
3.904e-01,2.744
3.920e-01,2.752
3.936e-01,2.736
3.952e-01,2.72
3.968e-01,2.736
3.984e-01,2.744
4.000e-01,2.752
4.016e-01,2.752
4.032e-01,2.76
4.048e-01,2.776
4.064e-01,2.776
4.080e-01,2.768
4.096e-01,2.752
4.112e-01,2.752
4.128e-01,2.752
4.144e-01,2.728
4.160e-01,2.728
4.176e-01,2.744
4.192e-01,2.752
4.208e-01,2.76
4.224e-01,2.768
4.240e-01,2.784
4.256e-01,2.784
4.272e-01,2.768
4.288e-01,2.768
4.304e-01,2.752
4.320e-01,2.76
4.336e-01,2.752
4.352e-01,2.728
4.368e-01,2.744
4.384e-01,2.76
4.400e-01,2.76
4.416e-01,2.768
4.432e-01,2.768
4.448e-01,2.792
4.464e-01,2.792
4.480e-01,2.768
4.496e-01,2.76
4.512e-01,2.744
4.528e-01,2.752
4.544e-01,2.72
4.560e-01,2.72
4.576e-01,2.736
4.592e-01,2.744
4.608e-01,2.744
4.624e-01,2.744
4.640e-01,2.76
4.656e-01,2.768
4.672e-01,2.744
4.688e-01,2.736
4.704e-01,2.728
4.720e-01,2.728
4.736e-01,2.712
4.752e-01,2.68
4.768e-01,2.704
4.784e-01,2.712
4.800e-01,2.712
4.816e-01,2.704
4.832e-01,2.704
4.848e-01,2.728
4.864e-01,2.712
4.880e-01,2.696
4.896e-01,2.68
4.912e-01,2.672
4.928e-01,2.664
4.944e-01,2.632
4.960e-01,2.632
4.976e-01,2.64
4.992e-01,2.648
5.008e-01,2.648
5.024e-01,2.64
5.040e-01,2.648
5.056e-01,2.656
5.072e-01,2.624
5.088e-01,2.608
