lab_data/6 - 12/TEK00007.CSV

Model,TBS1102C
Firmware Version,v2015-08-04-prequal4ch70_v1.3

Point Format,Y
Horizontal Units,S
Horizontal Scale,0.2
Sample Interval,0.0016
Filter Frequency,2e+08
Record Length,2000
Gating,0.0% to 100.0%
Probe Attenuation,1
Vertical Units,V
Vertical Offset,1
Vertical Scale,0.2
Label,
TIME,CH1
-1.411e+00,1.768
-1.410e+00,1.76
-1.408e+00,1.784
-1.406e+00,1.792
-1.405e+00,1.8
-1.403e+00,1.8
-1.402e+00,1.808
-1.400e+00,1.824
-1.398e+00,1.808
-1.397e+00,1.8
-1.395e+00,1.792
-1.394e+00,1.792
-1.392e+00,1.792
-1.390e+00,1.76
-1.389e+00,1.776
-1.387e+00,1.784
-1.386e+00,1.792
-1.384e+00,1.792
-1.382e+00,1.8
-1.381e+00,1.824
-1.379e+00,1.816
-1.378e+00,1.8
-1.376e+00,1.792
-1.374e+00,1.784
-1.373e+00,1.792
-1.371e+00,1.76
-1.370e+00,1.768
-1.368e+00,1.784
-1.366e+00,1.784
-1.365e+00,1.8
-1.363e+00,1.8
-1.362e+00,1.8
-1.360e+00,1.832
-1.358e+00,1.816
-1.357e+00,1.8
-1.355e+00,1.8
-1.354e+00,1.792
-1.352e+00,1.784
-1.350e+00,1.76
-1.349e+00,1.768
-1.347e+00,1.784
-1.346e+00,1.792
-1.344e+00,1.792
-1.342e+00,1.8
-1.341e+00,1.832
-1.339e+00,1.824
-1.338e+00,1.8
-1.336e+00,1.792
-1.334e+00,1.792
-1.333e+00,1.784
-1.331e+00,1.76
-1.330e+00,1.76
-1.328e+00,1.776
-1.326e+00,1.792
-1.325e+00,1.8
-1.323e+00,1.8
-1.322e+00,1.808
-1.320e+00,1.824
-1.318e+00,1.808
-1.317e+00,1.8
-1.315e+00,1.792
-1.314e+00,1.784
-1.312e+00,1.792
-1.310e+00,1.76
-1.309e+00,1.768
-1.307e+00,1.792
-1.306e+00,1.792
-1.304e+00,1.792
-1.302e+00,1.8
-1.301e+00,1.824
-1.299e+00,1.824
-1.298e+00,1.8
-1.296e+00,1.8
-1.294e+00,1.784
-1.293e+00,1.784
-1.291e+00,1.76
-1.290e+00,1.76
-1.288e+00,1.784
-1.286e+00,1.784
-1.285e+00,1.8
-1.283e+00,1.8
-1.282e+00,1.808
-1.280e+00,1.832
-1.278e+00,1.808
-1.277e+00,1.8
-1.275e+00,1.784
-1.274e+00,1.784
-1.272e+00,1.792
-1.270e+00,1.76
-1.269e+00,1.768
-1.267e+00,1.776
-1.266e+00,1.792
-1.264e+00,1.8
-1.262e+00,1.792
-1.261e+00,1.824
-1.259e+00,1.824
-1.258e+00,1.808
-1.256e+00,1.792
-1.254e+00,1.792
-1.253e+00,1.784
-1.251e+00,1.76
-1.250e+00,1.76
-1.248e+00,1.776
-1.246e+00,1.784
-1.245e+00,1.8
-1.243e+00,1.8
-1.242e+00,1.808
-1.240e+00,1.824
-1.238e+00,1.808
-1.237e+00,1.8
-1.235e+00,1.792
-1.234e+00,1.784
-1.232e+00,1.784
-1.230e+00,1.76
-1.229e+00,1.76
-1.227e+00,1.784
-1.226e+00,1.784
-1.224e+00,1.8
-1.222e+00,1.8
-1.221e+00,1.824
-1.219e+00,1.816
-1.218e+00,1.8
-1.216e+00,1.8
-1.214e+00,1.792
-1.213e+00,1.792
-1.211e+00,1.768
-1.210e+00,1.76
-1.208e+00,1.784
-1.206e+00,1.784
-1.205e+00,1.792
-1.203e+00,1.792
-1.202e+00,1.808
-1.200e+00,1.832
-1.198e+00,1.816
-1.197e+00,1.8
-1.195e+00,1.792
-1.194e+00,1.784
-1.192e+00,1.792
-1.190e+00,1.76
-1.189e+00,1.768
-1.187e+00,1.784
-1.186e+00,1.792
-1.184e+00,1.792
-1.182e+00,1.792
-1.181e+00,1.824
-1.179e+00,1.824
-1.178e+00,1.808
-1.176e+00,1.8
-1.174e+00,1.792
-1.173e+00,1.784
-1.171e+00,1.768
-1.170e+00,1.768
-1.168e+00,1.784
-1.166e+00,1.784
-1.165e+00,1.8
-1.163e+00,1.792
-1.162e+00,1.792
-1.160e+00,1.832
-1.158e+00,1.808
-1.157e+00,1.792
-1.155e+00,1.8
-1.154e+00,1.792
-1.152e+00,1.784
-1.150e+00,1.76
-1.149e+00,1.76
-1.147e+00,1.784
-1.146e+00,1.792
-1.144e+00,1.8
-1.142e+00,1.8
-1.141e+00,1.816
-1.139e+00,1.824
-1.138e+00,1.808
-1.136e+00,1.8
-1.134e+00,1.792
-1.133e+00,1.792
-1.131e+00,1.768
-1.130e+00,1.768
-1.128e+00,1.776
-1.126e+00,1.784
-1.125e+00,1.792
-1.123e+00,1.792
-1.122e+00,1.8
-1.120e+00,1.824
-1.118e+00,1.808
-1.117e+00,1.8
-1.115e+00,1.792
-1.114e+00,1.792
-1.112e+00,1.784
-1.110e+00,1.76
-1.109e+00,1.768
-1.107e+00,1.784
-1.106e+00,1.792
-1.104e+00,1.792
-1.102e+00,1.792
-1.101e+00,1.824
-1.099e+00,1.816
-1.098e+00,1.8
-1.096e+00,1.8
-1.094e+00,1.8
-1.093e+00,1.792
-1.091e+00,1.768
-1.090e+00,1.76
-1.088e+00,1.776
-1.086e+00,1.784
-1.085e+00,1.8
-1.083e+00,1.792
-1.082e+00,1.808
-1.080e+00,1.824
-1.078e+00,1.808
-1.077e+00,1.8
-1.075e+00,1.8
-1.074e+00,1.8
-1.072e+00,1.8
-1.070e+00,1.76
-1.069e+00,1.76
-1.067e+00,1.784
-1.066e+00,1.784
-1.064e+00,1.8
-1.062e+00,1.792
-1.061e+00,1.832
-1.059e+00,1.816
-1.058e+00,1.808
-1.056e+00,1.808
-1.054e+00,1.792
-1.053e+00,1.792
-1.051e+00,1.76
-1.050e+00,1.768
-1.048e+00,1.776
-1.046e+00,1.792
-1.045e+00,1.792
-1.043e+00,1.792
-1.042e+00,1.816
-1.040e+00,1.832
-1.038e+00,1.808
-1.037e+00,1.792
-1.035e+00,1.792
-1.034e+00,1.792
-1.032e+00,1.784
-1.030e+00,1.76
-1.029e+00,1.768
-1.027e+00,1.776
-1.026e+00,1.792
-1.024e+00,1.8
-1.022e+00,1.8
-1.021e+00,1.824
-1.019e+00,1.824
-1.018e+00,1.808
-1.016e+00,1.8
-1.014e+00,1.792
-1.013e+00,1.792
-1.011e+00,1.768
-1.010e+00,1.76
-1.008e+00,1.792
-1.006e+00,1.784
-1.005e+00,1.792
-1.003e+00,1.8
-1.002e+00,1.808
-1.000e+00,1.832
-9.984e-01,1.808
-9.968e-01,1.8
-9.952e-01,1.792
-9.936e-01,1.792
-9.920e-01,1.792
-9.904e-01,1.76
-9.888e-01,1.776
-9.872e-01,1.792
-9.856e-01,1.792
-9.840e-01,1.8
-9.824e-01,1.792
-9.808e-01,1.824
-9.792e-01,1.824
-9.776e-01,1.792
-9.760e-01,1.792
-9.744e-01,1.8
-9.728e-01,1.792
-9.712e-01,1.76
-9.696e-01,1.768
-9.680e-01,1.776
-9.664e-01,1.784
-9.648e-01,1.792
-9.632e-01,1.792
-9.616e-01,1.808
-9.600e-01,1.824
-9.584e-01,1.808
-9.568e-01,1.808
-9.552e-01,1.792
-9.536e-01,1.784
-9.520e-01,1.792
-9.504e-01,1.76
-9.488e-01,1.776
-9.472e-01,1.776
-9.456e-01,1.792
-9.440e-01,1.792
-9.424e-01,1.8
-9.408e-01,1.824
-9.392e-01,1.816
-9.376e-01,1.808
-9.360e-01,1.784
-9.344e-01,1.792
-9.328e-01,1.792
-9.312e-01,1.768
-9.296e-01,1.768
-9.280e-01,1.784
-9.264e-01,1.792
-9.248e-01,1.792
-9.232e-01,1.8
-9.216e-01,1.808
-9.200e-01,1.824
-9.184e-01,1.808
-9.168e-01,1.8
-9.152e-01,1.8
-9.136e-01,1.784
-9.120e-01,1.784
-9.104e-01,1.768
-9.088e-01,1.776
-9.072e-01,1.784
-9.056e-01,1.792
-9.040e-01,1.8
-9.024e-01,1.8
-9.008e-01,1.816
-8.992e-01,1.808
-8.976e-01,1.808
-8.960e-01,1.792
-8.944e-01,1.792
-8.928e-01,1.792
-8.912e-01,1.768
-8.896e-01,1.768
-8.880e-01,1.784
-8.864e-01,1.792
-8.848e-01,1.8
-8.832e-01,1.792
-8.816e-01,1.8
-8.800e-01,1.824
-8.784e-01,1.808
-8.768e-01,1.8
-8.752e-01,1.792
-8.736e-01,1.792
-8.720e-01,1.784
-8.704e-01,1.752
-8.688e-01,1.776
-8.672e-01,1.784
-8.656e-01,1.792
-8.640e-01,1.8
-8.624e-01,1.8
-8.608e-01,1.824
-8.592e-01,1.816
-8.576e-01,1.8
-8.560e-01,1.792
-8.544e-01,1.784
-8.528e-01,1.784
-8.512e-01,1.768
-8.496e-01,1.768
-8.480e-01,1.784
-8.464e-01,1.792
-8.448e-01,1.8
-8.432e-01,1.792
-8.416e-01,1.808
-8.400e-01,1.832
-8.384e-01,1.808
-8.368e-01,1.792
-8.352e-01,1.784
-8.336e-01,1.792
-8.320e-01,1.784
-8.304e-01,1.76
-8.288e-01,1.768
-8.272e-01,1.784
-8.256e-01,1.792
-8.240e-01,1.792
-8.224e-01,1.8
-8.208e-01,1.824
-8.192e-01,1.816
-8.176e-01,1.8
-8.160e-01,1.792
-8.144e-01,1.792
-8.128e-01,1.784
-8.112e-01,1.768
-8.096e-01,1.76
-8.080e-01,1.784
-8.064e-01,1.784
-8.048e-01,1.8
-8.032e-01,1.8
-8.016e-01,1.8
-8.000e-01,1.824
-7.984e-01,1.808
-7.968e-01,1.8
-7.952e-01,1.784
-7.936e-01,1.792
-7.920e-01,1.792
-7.904e-01,1.76
-7.888e-01,1.768
-7.872e-01,1.784
-7.856e-01,1.784
-7.840e-01,1.792
-7.824e-01,1.792
-7.808e-01,1.824
-7.792e-01,1.816
-7.776e-01,1.8
-7.760e-01,1.8
-7.744e-01,1.792
-7.728e-01,1.792
-7.712e-01,1.76
-7.696e-01,1.76
-7.680e-01,1.776
-7.664e-01,1.792
-7.648e-01,1.8
-7.632e-01,1.792
-7.616e-01,1.808
-7.600e-01,1.832
-7.584e-01,1.808
-7.568e-01,1.8
-7.552e-01,1.792
-7.536e-01,1.792
-7.520e-01,1.784
-7.504e-01,1.76
-7.488e-01,1.776
-7.472e-01,1.784
-7.456e-01,1.792
-7.440e-01,1.8
-7.424e-01,1.8
-7.408e-01,1.824
-7.392e-01,1.816
-7.376e-01,1.816
-7.360e-01,1.792
-7.344e-01,1.784
-7.328e-01,1.784
-7.312e-01,1.768
-7.296e-01,1.768
-7.280e-01,1.784
-7.264e-01,1.784
-7.248e-01,1.8
-7.232e-01,1.792
-7.216e-01,1.808
-7.200e-01,1.824
-7.184e-01,1.808
-7.168e-01,1.8
-7.152e-01,1.792
-7.136e-01,1.792
-7.120e-01,1.792
-7.104e-01,1.76
-7.088e-01,1.768
-7.072e-01,1.784
-7.056e-01,1.784
-7.040e-01,1.792
-7.024e-01,1.8
-7.008e-01,1.824
-6.992e-01,1.824
-6.976e-01,1.808
-6.960e-01,1.8
-6.944e-01,1.792
-6.928e-01,1.792
-6.912e-01,1.768
-6.896e-01,1.76
-6.880e-01,1.784
-6.864e-01,1.784
-6.848e-01,1.8
-6.832e-01,1.8
-6.816e-01,1.816
-6.800e-01,1.832
-6.784e-01,1.816
-6.768e-01,1.8
-6.752e-01,1.792
-6.736e-01,1.784
-6.720e-01,1.784
-6.704e-01,1.76
-6.688e-01,1.776
-6.672e-01,1.784
-6.656e-01,1.792
-6.640e-01,1.792
-6.624e-01,1.8
-6.608e-01,1.832
-6.592e-01,1.824
-6.576e-01,1.808
-6.560e-01,1.792
-6.544e-01,1.784
-6.528e-01,1.784
-6.512e-01,1.768
-6.496e-01,1.76
-6.480e-01,1.784
-6.464e-01,1.784
-6.448e-01,1.8
-6.432e-01,1.8
-6.416e-01,1.816
-6.400e-01,1.824
-6.384e-01,1.808
-6.368e-01,1.808
-6.352e-01,1.792
-6.336e-01,1.792
-6.320e-01,1.792
-6.304e-01,1.76
-6.288e-01,1.768
-6.272e-01,1.784
-6.256e-01,1.792
-6.240e-01,1.792
-6.224e-01,1.8
-6.208e-01,1.824
-6.192e-01,1.824
-6.176e-01,1.8
-6.160e-01,1.792
-6.144e-01,1.784
-6.128e-01,1.792
-6.112e-01,1.768
-6.096e-01,1.768
-6.080e-01,1.784
-6.064e-01,1.792
-6.048e-01,1.8
-6.032e-01,1.792
-6.016e-01,1.808
-6.000e-01,1.832
-5.984e-01,1.816
-5.968e-01,1.808
-5.952e-01,1.792
-5.936e-01,1.8
-5.920e-01,1.792
-5.904e-01,1.768
-5.888e-01,1.768
-5.872e-01,1.784
-5.856e-01,1.792
-5.840e-01,1.8
-5.824e-01,1.792
-5.808e-01,1.832
-5.792e-01,1.824
-5.776e-01,1.816
-5.760e-01,1.808
-5.744e-01,1.8
-5.728e-01,1.808
-5.712e-01,1.768
-5.696e-01,1.768
-5.680e-01,1.792
-5.664e-01,1.792
-5.648e-01,1.808
-5.632e-01,1.808
-5.616e-01,1.824
-5.600e-01,1.848
-5.584e-01,1.832
-5.568e-01,1.816
-5.552e-01,1.808
-5.536e-01,1.816
-5.520e-01,1.816
-5.504e-01,1.776
-5.488e-01,1.792
-5.472e-01,1.808
-5.456e-01,1.824
-5.440e-01,1.824
-5.424e-01,1.832
-5.408e-01,1.856
-5.392e-01,1.864
-5.376e-01,1.84
-5.360e-01,1.84
-5.344e-01,1.84
-5.328e-01,1.832
-5.312e-01,1.808
-5.296e-01,1.8
-5.280e-01,1.816
-5.264e-01,1.832
-5.248e-01,1.84
-5.232e-01,1.84
-5.216e-01,1.856
-5.200e-01,1.88
-5.184e-01,1.864
-5.168e-01,1.856
-5.152e-01,1.848
-5.136e-01,1.84
-5.120e-01,1.832
-5.104e-01,1.808
-5.088e-01,1.816
-5.072e-01,1.824
-5.056e-01,1.832
-5.040e-01,1.84
-5.024e-01,1.832
-5.008e-01,1.864
-4.992e-01,1.856
-4.976e-01,1.84
-4.960e-01,1.832
-4.944e-01,1.824
-4.928e-01,1.824
-4.912e-01,1.792
-4.896e-01,1.792
-4.880e-01,1.808
-4.864e-01,1.808
-4.848e-01,1.808
-4.832e-01,1.8
-4.816e-01,1.824
-4.800e-01,1.832
-4.784e-01,1.816
-4.768e-01,1.8
-4.752e-01,1.792
-4.736e-01,1.784
-4.720e-01,1.776
-4.704e-01,1.744
-4.688e-01,1.752
-4.672e-01,1.768
-4.656e-01,1.768
-4.640e-01,1.76
-4.624e-01,1.76
-4.608e-01,1.784
-4.592e-01,1.768
-4.576e-01,1.752
-4.560e-01,1.736
-4.544e-01,1.72
-4.528e-01,1.72
-4.512e-01,1.688
-4.496e-01,1.68
-4.480e-01,1.696
-4.464e-01,1.704
-4.448e-01,1.696
-4.432e-01,1.696
-4.416e-01,1.704
-4.400e-01,1.712
-4.384e-01,1.688
-4.368e-01,1.68
-4.352e-01,1.664
-4.336e-01,1.656
-4.320e-01,1.656
-4.304e-01,1.616
-4.288e-01,1.616
-4.272e-01,1.624
-4.256e-01,1.624
-4.240e-01,1.624
-4.224e-01,1.624
-4.208e-01,1.64
-4.192e-01,1.632
-4.176e-01,1.608
-4.160e-01,1.6
-4.144e-01,1.592
-4.128e-01,1.576
-4.112e-01,1.552
-4.096e-01,1.544
-4.080e-01,1.56
-4.064e-01,1.568
-4.048e-01,1.56
-4.032e-01,1.552
-4.016e-01,1.56
-4.000e-01,1.576
-3.984e-01,1.56
-3.968e-01,1.536
-3.952e-01,1.536
-3.936e-01,1.536
-3.920e-01,1.528
-3.904e-01,1.496
-3.888e-01,1.496
-3.872e-01,1.512
-3.856e-01,1.52
-3.840e-01,1.52
-3.824e-01,1.512
-3.808e-01,1.544
-3.792e-01,1.528
-3.776e-01,1.512
-3.760e-01,1.504
-3.744e-01,1.488
-3.728e-01,1.496
-3.712e-01,1.472
-3.696e-01,1.464
-3.680e-01,1.488
-3.664e-01,1.496
-3.648e-01,1.496
-3.632e-01,1.496
-3.616e-01,1.512
-3.600e-01,1.528
-3.584e-01,1.52
-3.568e-01,1.504
-3.552e-01,1.496
-3.536e-01,1.496
-3.520e-01,1.496
-3.504e-01,1.472
-3.488e-01,1.488
-3.472e-01,1.504
-3.456e-01,1.512
-3.440e-01,1.512
-3.424e-01,1.52
-3.408e-01,1.552
-3.392e-01,1.552
-3.376e-01,1.544
-3.360e-01,1.536
-3.344e-01,1.536
-3.328e-01,1.536
-3.312e-01,1.512
-3.296e-01,1.52
-3.280e-01,1.536
-3.264e-01,1.552
-3.248e-01,1.56
-3.232e-01,1.56
-3.216e-01,1.576
-3.200e-01,1.608
-3.184e-01,1.592
-3.168e-01,1.584
-3.152e-01,1.576
-3.136e-01,1.592
-3.120e-01,1.592
-3.104e-01,1.568
-3.088e-01,1.592
-3.072e-01,1.608
-3.056e-01,1.616
-3.040e-01,1.632
-3.024e-01,1.64
-3.008e-01,1.672
-2.992e-01,1.672
-2.976e-01,1.664
-2.960e-01,1.664
-2.944e-01,1.656
-2.928e-01,1.664
-2.912e-01,1.64
-2.896e-01,1.648
-2.880e-01,1.68
-2.864e-01,1.688
-2.848e-01,1.704
-2.832e-01,1.712
-2.816e-01,1.728
-2.800e-01,1.752
-2.784e-01,1.736
-2.768e-01,1.736
-2.752e-01,1.736
-2.736e-01,1.744
-2.720e-01,1.744
-2.704e-01,1.72
-2.688e-01,1.736
-2.672e-01,1.768
-2.656e-01,1.776
-2.640e-01,1.784
-2.624e-01,1.792
-2.608e-01,1.824
-2.592e-01,1.824
-2.576e-01,1.816
-2.560e-01,1.816
-2.544e-01,1.816
-2.528e-01,1.816
-2.512e-01,1.8
-2.496e-01,1.8
-2.480e-01,1.832
-2.464e-01,1.84
-2.448e-01,1.856
-2.432e-01,1.864
-2.416e-01,1.88
-2.400e-01,1.904
-2.384e-01,1.888
-2.368e-01,1.88
-2.352e-01,1.88
-2.336e-01,1.88
-2.320e-01,1.888
-2.304e-01,1.864
-2.288e-01,1.88
-2.272e-01,1.896
-2.256e-01,1.912
-2.240e-01,1.92
-2.224e-01,1.92
-2.208e-01,1.96
-2.192e-01,1.952
-2.176e-01,1.944
-2.160e-01,1.936
-2.144e-01,1.936
-2.128e-01,1.944
-2.112e-01,1.912
-2.096e-01,1.928
-2.080e-01,1.944
-2.064e-01,1.952
-2.048e-01,1.96
-2.032e-01,1.968
-2.016e-01,1.984
-2.000e-01,2.008
-1.984e-01,1.984
-1.968e-01,1.976
-1.952e-01,1.968
-1.936e-01,1.976
-1.920e-01,1.968
-1.904e-01,1.936
-1.888e-01,1.952
-1.872e-01,1.968
-1.856e-01,1.968
-1.840e-01,1.976
-1.824e-01,1.976
-1.808e-01,2
-1.792e-01,1.992
-1.776e-01,1.968
-1.760e-01,1.96
-1.744e-01,1.952
-1.728e-01,1.952
-1.712e-01,1.928
-1.696e-01,1.904
-1.680e-01,1.936
-1.664e-01,1.944
-1.648e-01,1.936
-1.632e-01,1.928
-1.616e-01,1.952
-1.600e-01,1.952
-1.584e-01,1.928
-1.568e-01,1.92
-1.552e-01,1.912
-1.536e-01,1.896
-1.520e-01,1.896
-1.504e-01,1.864
-1.488e-01,1.864
-1.472e-01,1.864
-1.456e-01,1.872
-1.440e-01,1.872
-1.424e-01,1.856
-1.408e-01,1.88
-1.392e-01,1.872
-1.376e-01,1.848
-1.360e-01,1.832
-1.344e-01,1.824
-1.328e-01,1.808
-1.312e-01,1.776
-1.296e-01,1.768
-1.280e-01,1.776
-1.264e-01,1.784
-1.248e-01,1.784
-1.232e-01,1.776
-1.216e-01,1.784
-1.200e-01,1.792
-1.184e-01,1.768
-1.168e-01,1.76
-1.152e-01,1.744
-1.136e-01,1.736
-1.120e-01,1.736
-1.104e-01,1.704
-1.088e-01,1.704
-1.072e-01,1.728
-1.056e-01,1.728
-1.040e-01,1.728
-1.024e-01,1.728
-1.008e-01,1.76
-9.920e-02,1.76
-9.760e-02,1.736
-9.600e-02,1.72
-9.440e-02,1.728
-9.280e-02,1.728
-9.120e-02,1.704
-8.960e-02,1.712
-8.800e-02,1.728
-8.640e-02,1.744
-8.480e-02,1.752
-8.320e-02,1.76
-8.160e-02,1.776
-8.000e-02,1.8
-7.840e-02,1.784
-7.680e-02,1.792
-7.520e-02,1.792
-7.360e-02,1.792
-7.200e-02,1.8
-7.040e-02,1.776
-6.880e-02,1.8
-6.720e-02,1.824
-6.560e-02,1.84
-6.400e-02,1.848
-6.240e-02,1.872
-6.080e-02,1.912
-5.920e-02,1.92
-5.760e-02,1.92
-5.600e-02,1.92
-5.440e-02,1.928
-5.280e-02,1.936
-5.120e-02,1.928
-4.960e-02,1.936
-4.800e-02,1.968
-4.640e-02,1.984
-4.480e-02,2.016
-4.320e-02,2.016
-4.160e-02,2.048
-4.000e-02,2.08
-3.840e-02,2.08
-3.680e-02,2.088
-3.520e-02,2.088
-3.360e-02,2.104
-3.200e-02,2.12
-3.040e-02,2.096
-2.880e-02,2.128
-2.720e-02,2.152
-2.560e-02,2.176
-2.400e-02,2.184
-2.240e-02,2.2
-2.080e-02,2.248
-1.920e-02,2.256
-1.760e-02,2.256
-1.600e-02,2.264
-1.440e-02,2.264
-1.280e-02,2.28
-1.120e-02,2.264
-9.600e-03,2.272
-8.000e-03,2.312
-6.400e-03,2.328
-4.800e-03,2.344
-3.200e-03,2.352
-1.600e-03,2.384
2.392e-14,2.408
1.600e-03,2.4
3.200e-03,2.408
4.800e-03,2.408
6.400e-03,2.424
8.000e-03,2.416
9.600e-03,2.408
1.120e-02,2.424
1.280e-02,2.456
1.440e-02,2.472
1.600e-02,2.472
1.760e-02,2.48
1.920e-02,2.528
2.080e-02,2.528
2.240e-02,2.52
2.400e-02,2.528
2.560e-02,2.52
2.720e-02,2.536
2.880e-02,2.52
3.040e-02,2.52
3.200e-02,2.544
3.360e-02,2.56
3.520e-02,2.576
3.680e-02,2.576
3.840e-02,2.6
4.000e-02,2.624
4.160e-02,2.608
4.320e-02,2.616
4.480e-02,2.608
4.640e-02,2.616
4.800e-02,2.616
4.960e-02,2.584
5.120e-02,2.6
5.280e-02,2.624
5.440e-02,2.632
5.600e-02,2.64
5.760e-02,2.64
5.920e-02,2.672
6.080e-02,2.68
6.240e-02,2.664
6.400e-02,2.664
6.560e-02,2.656
6.720e-02,2.656
6.880e-02,2.64
7.040e-02,2.64
7.200e-02,2.656
7.360e-02,2.672
7.520e-02,2.68
7.680e-02,2.68
7.840e-02,2.704
8.000e-02,2.72
8.160e-02,2.704
8.320e-02,2.704
8.480e-02,2.696
8.640e-02,2.696
8.800e-02,2.688
8.960e-02,2.664
9.120e-02,2.68
9.280e-02,2.688
9.440e-02,2.704
9.600e-02,2.704
9.760e-02,2.712
9.920e-02,2.736
1.008e-01,2.744
1.024e-01,2.72
1.040e-01,2.72
1.056e-01,2.712
1.072e-01,2.712
1.088e-01,2.688
1.104e-01,2.688
1.120e-01,2.712
1.136e-01,2.712
1.152e-01,2.72
1.168e-01,2.728
1.184e-01,2.736
1.200e-01,2.76
1.216e-01,2.736
1.232e-01,2.736
1.248e-01,2.72
1.264e-01,2.72
1.280e-01,2.728
1.296e-01,2.696
1.312e-01,2.704
1.328e-01,2.72
1.344e-01,2.728
1.360e-01,2.728
1.376e-01,2.736
1.392e-01,2.752
1.408e-01,2.752
1.424e-01,2.744
1.440e-01,2.736
1.456e-01,2.728
1.472e-01,2.736
1.488e-01,2.704
1.504e-01,2.696
1.520e-01,2.72
1.536e-01,2.728
1.552e-01,2.728
1.568e-01,2.736
1.584e-01,2.752
1.600e-01,2.768
1.616e-01,2.752
1.632e-01,2.736
1.648e-01,2.736
1.664e-01,2.736
1.680e-01,2.728
1.696e-01,2.704
1.712e-01,2.712
1.728e-01,2.728
1.744e-01,2.728
1.760e-01,2.744
1.776e-01,2.736
1.792e-01,2.768
1.808e-01,2.76
1.824e-01,2.744
1.840e-01,2.736
1.856e-01,2.736
1.872e-01,2.736
1.888e-01,2.712
1.904e-01,2.712
1.920e-01,2.728
1.936e-01,2.728
1.952e-01,2.736
1.968e-01,2.736
1.984e-01,2.752
2.000e-01,2.768
2.016e-01,2.744
2.032e-01,2.744
2.048e-01,2.736
2.064e-01,2.736
2.080e-01,2.728
2.096e-01,2.704
2.112e-01,2.72
2.128e-01,2.736
2.144e-01,2.736
2.160e-01,2.744
2.176e-01,2.744
2.192e-01,2.768
2.208e-01,2.768
2.224e-01,2.752
2.240e-01,2.744
2.256e-01,2.736
2.272e-01,2.736
2.288e-01,2.712
2.304e-01,2.712
2.320e-01,2.728
2.336e-01,2.736
2.352e-01,2.744
2.368e-01,2.744
2.384e-01,2.752
2.400e-01,2.768
2.416e-01,2.752
2.432e-01,2.744
2.448e-01,2.736
2.464e-01,2.744
2.480e-01,2.736
2.496e-01,2.712
2.512e-01,2.72
2.528e-01,2.736
2.544e-01,2.744
2.560e-01,2.744
2.576e-01,2.744
2.592e-01,2.776
2.608e-01,2.768
2.624e-01,2.752
2.640e-01,2.744
2.656e-01,2.736
2.672e-01,2.744
2.688e-01,2.712
2.704e-01,2.712
2.720e-01,2.736
2.736e-01,2.736
2.752e-01,2.752
2.768e-01,2.752
2.784e-01,2.76
2.800e-01,2.776
2.816e-01,2.752
2.832e-01,2.752
2.848e-01,2.744
2.864e-01,2.736
2.880e-01,2.736
2.896e-01,2.712
2.912e-01,2.736
2.928e-01,2.736
2.944e-01,2.744
2.960e-01,2.744
2.976e-01,2.744
2.992e-01,2.776
3.008e-01,2.768
3.024e-01,2.752
3.040e-01,2.744
3.056e-01,2.744
3.072e-01,2.736
3.088e-01,2.712
3.104e-01,2.72
3.120e-01,2.736
3.136e-01,2.736
3.152e-01,2.752
3.168e-01,2.744
3.184e-01,2.76
3.200e-01,2.784
3.216e-01,2.76
3.232e-01,2.752
3.248e-01,2.736
3.264e-01,2.736
3.280e-01,2.736
3.296e-01,2.712
3.312e-01,2.72
3.328e-01,2.736
3.344e-01,2.744
3.360e-01,2.752
3.376e-01,2.752
3.392e-01,2.776
3.408e-01,2.768
3.424e-01,2.752
3.440e-01,2.752
3.456e-01,2.736
3.472e-01,2.744
3.488e-01,2.72
3.504e-01,2.72
3.520e-01,2.736
3.536e-01,2.744
3.552e-01,2.752
3.568e-01,2.752
3.584e-01,2.768
3.600e-01,2.776
3.616e-01,2.76
3.632e-01,2.752
3.648e-01,2.736
3.664e-01,2.744
3.680e-01,2.736
3.696e-01,2.712
3.712e-01,2.728
3.728e-01,2.744
3.744e-01,2.744
3.760e-01,2.752
3.776e-01,2.744
3.792e-01,2.776
3.808e-01,2.784
3.824e-01,2.76
3.840e-01,2.744
3.856e-01,2.736
3.872e-01,2.744
3.888e-01,2.72
3.904e-01,2.712
3.920e-01,2.728
3.936e-01,2.736
3.952e-01,2.744
3.968e-01,2.744
3.984e-01,2.768
4.000e-01,2.776
4.016e-01,2.768
4.032e-01,2.752
4.048e-01,2.744
4.064e-01,2.744
4.080e-01,2.736
4.096e-01,2.712
4.112e-01,2.72
4.128e-01,2.736
4.144e-01,2.744
4.160e-01,2.752
4.176e-01,2.752
4.192e-01,2.776
4.208e-01,2.768
4.224e-01,2.76
4.240e-01,2.752
4.256e-01,2.744
4.272e-01,2.736
4.288e-01,2.72
4.304e-01,2.712
4.320e-01,2.736
4.336e-01,2.744
4.352e-01,2.752
4.368e-01,2.752
4.384e-01,2.768
4.400e-01,2.784
4.416e-01,2.768
4.432e-01,2.76
4.448e-01,2.744
4.464e-01,2.744
4.480e-01,2.744
4.496e-01,2.712
4.512e-01,2.728
4.528e-01,2.744
4.544e-01,2.752
4.560e-01,2.752
4.576e-01,2.76
4.592e-01,2.784
4.608e-01,2.784
4.624e-01,2.768
4.640e-01,2.76
4.656e-01,2.752
4.672e-01,2.752
4.688e-01,2.728
4.704e-01,2.728
4.720e-01,2.744
4.736e-01,2.752
4.752e-01,2.76
4.768e-01,2.76
4.784e-01,2.784
4.800e-01,2.8
4.816e-01,2.776
4.832e-01,2.776
4.848e-01,2.76
4.864e-01,2.76
4.880e-01,2.752
4.896e-01,2.728
4.912e-01,2.752
4.928e-01,2.752
4.944e-01,2.76
4.960e-01,2.768
4.976e-01,2.768
4.992e-01,2.8
5.008e-01,2.792
5.024e-01,2.768
5.040e-01,2.768
5.056e-01,2.76
