lab_data/15 - 20/TEK00000.CSV

Model,TBS1102C
Firmware Version,v2015-08-04-prequal4ch70_v1.3

Point Format,Y
Horizontal Units,S
Horizontal Scale,0.1
Sample Interval,0.0008
Filter Frequency,2e+08
Record Length,2000
Gating,0.0% to 100.0%
Probe Attenuation,1
Vertical Units,V
Vertical Offset,1
Vertical Scale,0.2
Label,
TIME,CH1
-5.2800e-01,1.768
-5.2720e-01,1.784
-5.2640e-01,1.792
-5.2560e-01,1.8
-5.2480e-01,1.784
-5.2400e-01,1.776
-5.2320e-01,1.776
-5.2240e-01,1.776
-5.2160e-01,1.768
-5.2080e-01,1.768
-5.2000e-01,1.768
-5.1920e-01,1.76
-5.1840e-01,1.76
-5.1760e-01,1.752
-5.1680e-01,1.736
-5.1600e-01,1.736
-5.1520e-01,1.744
-5.1440e-01,1.752
-5.1360e-01,1.76
-5.1280e-01,1.76
-5.1200e-01,1.76
-5.1120e-01,1.76
-5.1040e-01,1.776
-5.0960e-01,1.776
-5.0880e-01,1.768
-5.0800e-01,1.768
-5.0720e-01,1.784
-5.0640e-01,1.792
-5.0560e-01,1.8
-5.0480e-01,1.784
-5.0400e-01,1.784
-5.0320e-01,1.776
-5.0240e-01,1.776
-5.0160e-01,1.768
-5.0080e-01,1.76
-5.0000e-01,1.768
-4.9920e-01,1.76
-4.9840e-01,1.76
-4.9760e-01,1.76
-4.9680e-01,1.744
-4.9600e-01,1.736
-4.9520e-01,1.736
-4.9440e-01,1.752
-4.9360e-01,1.752
-4.9280e-01,1.768
-4.9200e-01,1.768
-4.9120e-01,1.776
-4.9040e-01,1.776
-4.8960e-01,1.768
-4.8880e-01,1.768
-4.8800e-01,1.776
-4.8720e-01,1.792
-4.8640e-01,1.792
-4.8560e-01,1.792
-4.8480e-01,1.784
-4.8400e-01,1.784
-4.8320e-01,1.776
-4.8240e-01,1.776
-4.8160e-01,1.776
-4.8080e-01,1.76
-4.8000e-01,1.768
-4.7920e-01,1.76
-4.7840e-01,1.76
-4.7760e-01,1.768
-4.7680e-01,1.744
-4.7600e-01,1.728
-4.7520e-01,1.736
-4.7440e-01,1.752
-4.7360e-01,1.752
-4.7280e-01,1.768
-4.7200e-01,1.76
-4.7120e-01,1.76
-4.7040e-01,1.776
-4.6960e-01,1.776
-4.6880e-01,1.768
-4.6800e-01,1.776
-4.6720e-01,1.784
-4.6640e-01,1.8
-4.6560e-01,1.8
-4.6480e-01,1.792
-4.6400e-01,1.784
-4.6320e-01,1.768
-4.6240e-01,1.768
-4.6160e-01,1.768
-4.6080e-01,1.76
-4.6000e-01,1.768
-4.5920e-01,1.76
-4.5840e-01,1.76
-4.5760e-01,1.752
-4.5680e-01,1.736
-4.5600e-01,1.736
-4.5520e-01,1.736
-4.5440e-01,1.752
-4.5360e-01,1.76
-4.5280e-01,1.752
-4.5200e-01,1.76
-4.5120e-01,1.768
-4.5040e-01,1.768
-4.4960e-01,1.768
-4.4880e-01,1.768
-4.4800e-01,1.768
-4.4720e-01,1.784
-4.4640e-01,1.8
-4.4560e-01,1.792
-4.4480e-01,1.792
-4.4400e-01,1.776
-4.4320e-01,1.776
-4.4240e-01,1.776
-4.4160e-01,1.76
-4.4080e-01,1.76
-4.4000e-01,1.76
-4.3920e-01,1.76
-4.3840e-01,1.76
-4.3760e-01,1.76
-4.3680e-01,1.736
-4.3600e-01,1.728
-4.3520e-01,1.728
-4.3440e-01,1.752
-4.3360e-01,1.76
-4.3280e-01,1.76
-4.3200e-01,1.768
-4.3120e-01,1.768
-4.3040e-01,1.768
-4.2960e-01,1.776
-4.2880e-01,1.76
-4.2800e-01,1.768
-4.2720e-01,1.784
-4.2640e-01,1.8
-4.2560e-01,1.8
-4.2480e-01,1.792
-4.2400e-01,1.784
-4.2320e-01,1.776
-4.2240e-01,1.776
-4.2160e-01,1.768
-4.2080e-01,1.76
-4.2000e-01,1.768
-4.1920e-01,1.768
-4.1840e-01,1.768
-4.1760e-01,1.76
-4.1680e-01,1.736
-4.1600e-01,1.736
-4.1520e-01,1.744
-4.1440e-01,1.744
-4.1360e-01,1.76
-4.1280e-01,1.76
-4.1200e-01,1.768
-4.1120e-01,1.776
-4.1040e-01,1.768
-4.0960e-01,1.768
-4.0880e-01,1.768
-4.0800e-01,1.768
-4.0720e-01,1.784
-4.0640e-01,1.8
-4.0560e-01,1.8
-4.0480e-01,1.792
-4.0400e-01,1.784
-4.0320e-01,1.784
-4.0240e-01,1.776
-4.0160e-01,1.768
-4.0080e-01,1.768
-4.0000e-01,1.768
-3.9920e-01,1.768
-3.9840e-01,1.76
-3.9760e-01,1.76
-3.9680e-01,1.744
-3.9600e-01,1.736
-3.9520e-01,1.736
-3.9440e-01,1.752
-3.9360e-01,1.76
-3.9280e-01,1.76
-3.9200e-01,1.768
-3.9120e-01,1.768
-3.9040e-01,1.768
-3.8960e-01,1.776
-3.8880e-01,1.776
-3.8800e-01,1.776
-3.8720e-01,1.784
-3.8640e-01,1.8
-3.8560e-01,1.792
-3.8480e-01,1.792
-3.8400e-01,1.784
-3.8320e-01,1.776
-3.8240e-01,1.776
-3.8160e-01,1.776
-3.8080e-01,1.76
-3.8000e-01,1.76
-3.7920e-01,1.768
-3.7840e-01,1.768
-3.7760e-01,1.768
-3.7680e-01,1.744
-3.7600e-01,1.736
-3.7520e-01,1.736
-3.7440e-01,1.744
-3.7360e-01,1.752
-3.7280e-01,1.76
-3.7200e-01,1.76
-3.7120e-01,1.768
-3.7040e-01,1.768
-3.6960e-01,1.776
-3.6880e-01,1.776
-3.6800e-01,1.776
-3.6720e-01,1.784
-3.6640e-01,1.8
-3.6560e-01,1.8
-3.6480e-01,1.792
-3.6400e-01,1.784
-3.6320e-01,1.776
-3.6240e-01,1.784
-3.6160e-01,1.776
-3.6080e-01,1.768
-3.6000e-01,1.768
-3.5920e-01,1.768
-3.5840e-01,1.768
-3.5760e-01,1.768
-3.5680e-01,1.744
-3.5600e-01,1.736
-3.5520e-01,1.736
-3.5440e-01,1.76
-3.5360e-01,1.768
-3.5280e-01,1.776
-3.5200e-01,1.776
-3.5120e-01,1.776
-3.5040e-01,1.784
-3.4960e-01,1.784
-3.4880e-01,1.784
-3.4800e-01,1.792
-3.4720e-01,1.808
-3.4640e-01,1.816
-3.4560e-01,1.816
-3.4480e-01,1.808
-3.4400e-01,1.808
-3.4320e-01,1.8
-3.4240e-01,1.8
-3.4160e-01,1.8
-3.4080e-01,1.8
-3.4000e-01,1.792
-3.3920e-01,1.792
-3.3840e-01,1.8
-3.3760e-01,1.792
-3.3680e-01,1.776
-3.3600e-01,1.768
-3.3520e-01,1.776
-3.3440e-01,1.784
-3.3360e-01,1.792
-3.3280e-01,1.8
-3.3200e-01,1.8
-3.3120e-01,1.808
-3.3040e-01,1.816
-3.2960e-01,1.816
-3.2880e-01,1.808
-3.2800e-01,1.816
-3.2720e-01,1.832
-3.2640e-01,1.848
-3.2560e-01,1.856
-3.2480e-01,1.848
-3.2400e-01,1.832
-3.2320e-01,1.832
-3.2240e-01,1.824
-3.2160e-01,1.824
-3.2080e-01,1.816
-3.2000e-01,1.808
-3.1920e-01,1.816
-3.1840e-01,1.816
-3.1760e-01,1.816
-3.1680e-01,1.792
-3.1600e-01,1.776
-3.1520e-01,1.776
-3.1440e-01,1.792
-3.1360e-01,1.8
-3.1280e-01,1.8
-3.1200e-01,1.8
-3.1120e-01,1.808
-3.1040e-01,1.808
-3.0960e-01,1.808
-3.0880e-01,1.816
-3.0800e-01,1.8
-3.0720e-01,1.808
-3.0640e-01,1.832
-3.0560e-01,1.832
-3.0480e-01,1.816
-3.0400e-01,1.808
-3.0320e-01,1.792
-3.0240e-01,1.792
-3.0160e-01,1.784
-3.0080e-01,1.784
-3.0000e-01,1.776
-2.9920e-01,1.776
-2.9840e-01,1.768
-2.9760e-01,1.76
-2.9680e-01,1.744
-2.9600e-01,1.728
-2.9520e-01,1.728
-2.9440e-01,1.744
-2.9360e-01,1.744
-2.9280e-01,1.744
-2.9200e-01,1.744
-2.9120e-01,1.744
-2.9040e-01,1.744
-2.8960e-01,1.744
-2.8880e-01,1.736
-2.8800e-01,1.728
-2.8720e-01,1.744
-2.8640e-01,1.752
-2.8560e-01,1.752
-2.8480e-01,1.736
-2.8400e-01,1.72
-2.8320e-01,1.712
-2.8240e-01,1.712
-2.8160e-01,1.704
-2.8080e-01,1.68
-2.8000e-01,1.68
-2.7920e-01,1.68
-2.7840e-01,1.672
-2.7760e-01,1.664
-2.7680e-01,1.648
-2.7600e-01,1.632
-2.7520e-01,1.624
-2.7440e-01,1.624
-2.7360e-01,1.64
-2.7280e-01,1.632
-2.7200e-01,1.632
-2.7120e-01,1.632
-2.7040e-01,1.632
-2.6960e-01,1.624
-2.6880e-01,1.632
-2.6800e-01,1.624
-2.6720e-01,1.632
-2.6640e-01,1.632
-2.6560e-01,1.64
-2.6480e-01,1.624
-2.6400e-01,1.608
-2.6320e-01,1.592
-2.6240e-01,1.592
-2.6160e-01,1.584
-2.6080e-01,1.576
-2.6000e-01,1.568
-2.5920e-01,1.568
-2.5840e-01,1.56
-2.5760e-01,1.552
-2.5680e-01,1.536
-2.5600e-01,1.52
-2.5520e-01,1.52
-2.5440e-01,1.528
-2.5360e-01,1.528
-2.5280e-01,1.536
-2.5200e-01,1.528
-2.5120e-01,1.528
-2.5040e-01,1.536
-2.4960e-01,1.52
-2.4880e-01,1.52
-2.4800e-01,1.52
-2.4720e-01,1.536
-2.4640e-01,1.544
-2.4560e-01,1.544
-2.4480e-01,1.528
-2.4400e-01,1.528
-2.4320e-01,1.512
-2.4240e-01,1.512
-2.4160e-01,1.496
-2.4080e-01,1.496
-2.4000e-01,1.496
-2.3920e-01,1.496
-2.3840e-01,1.488
-2.3760e-01,1.488
-2.3680e-01,1.464
-2.3600e-01,1.448
-2.3520e-01,1.448
-2.3440e-01,1.464
-2.3360e-01,1.472
-2.3280e-01,1.472
-2.3200e-01,1.472
-2.3120e-01,1.48
-2.3040e-01,1.48
-2.2960e-01,1.488
-2.2880e-01,1.48
-2.2800e-01,1.48
-2.2720e-01,1.496
-2.2640e-01,1.512
-2.2560e-01,1.512
-2.2480e-01,1.504
-2.2400e-01,1.504
-2.2320e-01,1.488
-2.2240e-01,1.496
-2.2160e-01,1.488
-2.2080e-01,1.48
-2.2000e-01,1.48
-2.1920e-01,1.48
-2.1840e-01,1.488
-2.1760e-01,1.488
-2.1680e-01,1.464
-2.1600e-01,1.464
-2.1520e-01,1.472
-2.1440e-01,1.48
-2.1360e-01,1.488
-2.1280e-01,1.496
-2.1200e-01,1.496
-2.1120e-01,1.504
-2.1040e-01,1.512
-2.0960e-01,1.512
-2.0880e-01,1.52
-2.0800e-01,1.528
-2.0720e-01,1.536
-2.0640e-01,1.56
-2.0560e-01,1.56
-2.0480e-01,1.552
-2.0400e-01,1.56
-2.0320e-01,1.552
-2.0240e-01,1.552
-2.0160e-01,1.552
-2.0080e-01,1.552
-2.0000e-01,1.552
-1.9920e-01,1.56
-1.9840e-01,1.56
-1.9760e-01,1.56
-1.9680e-01,1.544
-1.9600e-01,1.536
-1.9520e-01,1.552
-1.9440e-01,1.56
-1.9360e-01,1.576
-1.9280e-01,1.584
-1.9200e-01,1.592
-1.9120e-01,1.592
-1.9040e-01,1.608
-1.8960e-01,1.616
-1.8880e-01,1.624
-1.8800e-01,1.632
-1.8720e-01,1.648
-1.8640e-01,1.664
-1.8560e-01,1.672
-1.8480e-01,1.672
-1.8400e-01,1.664
-1.8320e-01,1.664
-1.8240e-01,1.664
-1.8160e-01,1.664
-1.8080e-01,1.664
-1.8000e-01,1.672
-1.7920e-01,1.68
-1.7840e-01,1.68
-1.7760e-01,1.688
-1.7680e-01,1.672
-1.7600e-01,1.672
-1.7520e-01,1.68
-1.7440e-01,1.696
-1.7360e-01,1.704
-1.7280e-01,1.704
-1.7200e-01,1.72
-1.7120e-01,1.736
-1.7040e-01,1.736
-1.6960e-01,1.744
-1.6880e-01,1.752
-1.6800e-01,1.76
-1.6720e-01,1.776
-1.6640e-01,1.792
-1.6560e-01,1.8
-1.6480e-01,1.8
-1.6400e-01,1.792
-1.6320e-01,1.8
-1.6240e-01,1.8
-1.6160e-01,1.8
-1.6080e-01,1.792
-1.6000e-01,1.808
-1.5920e-01,1.808
-1.5840e-01,1.816
-1.5760e-01,1.816
-1.5680e-01,1.792
-1.5600e-01,1.792
-1.5520e-01,1.8
-1.5440e-01,1.816
-1.5360e-01,1.824
-1.5280e-01,1.84
-1.5200e-01,1.832
-1.5120e-01,1.848
-1.5040e-01,1.856
-1.4960e-01,1.864
-1.4880e-01,1.872
-1.4800e-01,1.864
-1.4720e-01,1.888
-1.4640e-01,1.904
-1.4560e-01,1.912
-1.4480e-01,1.904
-1.4400e-01,1.904
-1.4320e-01,1.896
-1.4240e-01,1.904
-1.4160e-01,1.904
-1.4080e-01,1.896
-1.4000e-01,1.896
-1.3920e-01,1.904
-1.3840e-01,1.912
-1.3760e-01,1.904
-1.3680e-01,1.888
-1.3600e-01,1.888
-1.3520e-01,1.888
-1.3440e-01,1.904
-1.3360e-01,1.92
-1.3280e-01,1.92
-1.3200e-01,1.936
-1.3120e-01,1.936
-1.3040e-01,1.936
-1.2960e-01,1.936
-1.2880e-01,1.944
-1.2800e-01,1.952
-1.2720e-01,1.96
-1.2640e-01,1.976
-1.2560e-01,1.976
-1.2480e-01,1.976
-1.2400e-01,1.96
-1.2320e-01,1.96
-1.2240e-01,1.952
-1.2160e-01,1.96
-1.2080e-01,1.944
-1.2000e-01,1.952
-1.1920e-01,1.952
-1.1840e-01,1.944
-1.1760e-01,1.944
-1.1680e-01,1.912
-1.1600e-01,1.904
-1.1520e-01,1.912
-1.1440e-01,1.912
-1.1360e-01,1.928
-1.1280e-01,1.928
-1.1200e-01,1.92
-1.1120e-01,1.928
-1.1040e-01,1.928
-1.0960e-01,1.928
-1.0880e-01,1.928
-1.0800e-01,1.928
-1.0720e-01,1.936
-1.0640e-01,1.944
-1.0560e-01,1.944
-1.0480e-01,1.928
-1.0400e-01,1.92
-1.0320e-01,1.912
-1.0240e-01,1.904
-1.0160e-01,1.896
-1.0080e-01,1.888
-1.0000e-01,1.88
-9.9200e-02,1.88
-9.8400e-02,1.872
-9.7600e-02,1.872
-9.6800e-02,1.84
-9.6000e-02,1.824
-9.5200e-02,1.824
-9.4400e-02,1.832
-9.3600e-02,1.832
-9.2800e-02,1.824
-9.2000e-02,1.824
-9.1200e-02,1.824
-9.0400e-02,1.824
-8.9600e-02,1.824
-8.8800e-02,1.808
-8.8000e-02,1.808
-8.7200e-02,1.816
-8.6400e-02,1.824
-8.5600e-02,1.824
-8.4800e-02,1.816
-8.4000e-02,1.792
-8.3200e-02,1.784
-8.2400e-02,1.776
-8.1600e-02,1.768
-8.0800e-02,1.76
-8.0000e-02,1.752
-7.9200e-02,1.752
-7.8400e-02,1.744
-7.7600e-02,1.736
-7.6800e-02,1.712
-7.6000e-02,1.696
-7.5200e-02,1.704
-7.4400e-02,1.704
-7.3600e-02,1.712
-7.2800e-02,1.712
-7.2000e-02,1.712
-7.1200e-02,1.72
-7.0400e-02,1.712
-6.9600e-02,1.72
-6.8800e-02,1.72
-6.8000e-02,1.72
-6.7200e-02,1.728
-6.6400e-02,1.736
-6.5600e-02,1.744
-6.4800e-02,1.744
-6.4000e-02,1.736
-6.3200e-02,1.728
-6.2400e-02,1.728
-6.1600e-02,1.72
-6.0800e-02,1.728
-6.0000e-02,1.72
-5.9200e-02,1.72
-5.8400e-02,1.728
-5.7600e-02,1.728
-5.6800e-02,1.712
-5.6000e-02,1.704
-5.5200e-02,1.712
-5.4400e-02,1.728
-5.3600e-02,1.752
-5.2800e-02,1.752
-5.2000e-02,1.768
-5.1200e-02,1.776
-5.0400e-02,1.792
-4.9600e-02,1.784
-4.8800e-02,1.8
-4.8000e-02,1.8
-4.7200e-02,1.824
-4.6400e-02,1.848
-4.5600e-02,1.864
-4.4800e-02,1.864
-4.4000e-02,1.856
-4.3200e-02,1.864
-4.2400e-02,1.864
-4.1600e-02,1.872
-4.0800e-02,1.88
-4.0000e-02,1.888
-3.9200e-02,1.904
-3.8400e-02,1.904
-3.7600e-02,1.912
-3.6800e-02,1.896
-3.6000e-02,1.904
-3.5200e-02,1.92
-3.4400e-02,1.928
-3.3600e-02,1.944
-3.2800e-02,1.968
-3.2000e-02,1.984
-3.1200e-02,1.992
-3.0400e-02,2.008
-2.9600e-02,2.024
-2.8800e-02,2.032
-2.8000e-02,2.048
-2.7200e-02,2.064
-2.6400e-02,2.096
-2.5600e-02,2.112
-2.4800e-02,2.104
-2.4000e-02,2.112
-2.3200e-02,2.12
-2.2400e-02,2.128
-2.1600e-02,2.136
-2.0800e-02,2.144
-2.0000e-02,2.152
-1.9200e-02,2.16
-1.8400e-02,2.168
-1.7600e-02,2.176
-1.6800e-02,2.168
-1.6000e-02,2.16
-1.5200e-02,2.184
-1.4400e-02,2.2
-1.3600e-02,2.224
-1.2800e-02,2.232
-1.2000e-02,2.248
-1.1200e-02,2.256
-1.0400e-02,2.28
-9.6000e-03,2.288
-8.8000e-03,2.296
-8.0000e-03,2.304
-7.2000e-03,2.328
-6.4000e-03,2.352
-5.6000e-03,2.368
-4.8000e-03,2.368
-4.0000e-03,2.36
-3.2000e-03,2.368
-2.4000e-03,2.368
-1.6000e-03,2.368
-8.0000e-04,2.376
6.8537e-15,2.384
8.0000e-04,2.4
1.6000e-03,2.408
2.4000e-03,2.408
3.2000e-03,2.392
4.0000e-03,2.392
4.8000e-03,2.408
5.6000e-03,2.424
6.4000e-03,2.448
7.2000e-03,2.448
8.0000e-03,2.456
8.8000e-03,2.472
9.6000e-03,2.472
1.0400e-02,2.48
1.1200e-02,2.488
1.2000e-02,2.496
1.2800e-02,2.512
1.3600e-02,2.528
1.4400e-02,2.544
1.5200e-02,2.544
1.6000e-02,2.544
1.6800e-02,2.536
1.7600e-02,2.544
1.8400e-02,2.536
1.9200e-02,2.544
2.0000e-02,2.544
2.0800e-02,2.552
2.1600e-02,2.552
2.2400e-02,2.552
2.3200e-02,2.536
2.4000e-02,2.536
2.4800e-02,2.536
2.5600e-02,2.552
2.6400e-02,2.568
2.7200e-02,2.576
2.8000e-02,2.584
2.8800e-02,2.584
2.9600e-02,2.6
3.0400e-02,2.592
3.1200e-02,2.608
3.2000e-02,2.608
3.2800e-02,2.616
3.3600e-02,2.64
3.4400e-02,2.64
3.5200e-02,2.64
3.6000e-02,2.632
3.6800e-02,2.632
3.7600e-02,2.632
3.8400e-02,2.624
3.9200e-02,2.624
4.0000e-02,2.624
4.0800e-02,2.632
4.1600e-02,2.624
4.2400e-02,2.624
4.3200e-02,2.608
4.4000e-02,2.6
4.4800e-02,2.608
4.5600e-02,2.616
4.6400e-02,2.632
4.7200e-02,2.648
4.8000e-02,2.64
4.8800e-02,2.64
4.9600e-02,2.656
5.0400e-02,2.648
5.1200e-02,2.648
5.2000e-02,2.656
5.2800e-02,2.664
5.3600e-02,2.68
5.4400e-02,2.688
5.5200e-02,2.688
5.6000e-02,2.68
5.6800e-02,2.664
5.7600e-02,2.672
5.8400e-02,2.664
5.9200e-02,2.664
6.0000e-02,2.664
6.0800e-02,2.664
6.1600e-02,2.664
6.2400e-02,2.664
6.3200e-02,2.64
6.4000e-02,2.632
6.4800e-02,2.64
6.5600e-02,2.64
6.6400e-02,2.656
6.7200e-02,2.664
6.8000e-02,2.664
6.8800e-02,2.672
6.9600e-02,2.672
7.0400e-02,2.68
7.1200e-02,2.68
7.2000e-02,2.672
7.2800e-02,2.688
7.3600e-02,2.712
7.4400e-02,2.712
7.5200e-02,2.704
7.6000e-02,2.696
7.6800e-02,2.688
7.7600e-02,2.68
7.8400e-02,2.688
7.9200e-02,2.688
8.0000e-02,2.68
8.0800e-02,2.68
8.1600e-02,2.68
8.2400e-02,2.68
8.3200e-02,2.664
8.4000e-02,2.648
8.4800e-02,2.656
8.5600e-02,2.664
8.6400e-02,2.672
8.7200e-02,2.688
8.8000e-02,2.68
8.8800e-02,2.68
8.9600e-02,2.68
9.0400e-02,2.688
9.1200e-02,2.688
9.2000e-02,2.696
9.2800e-02,2.688
9.3600e-02,2.72
9.4400e-02,2.72
9.5200e-02,2.72
9.6000e-02,2.712
9.6800e-02,2.704
9.7600e-02,2.696
9.8400e-02,2.688
9.9200e-02,2.696
1.0000e-01,2.696
1.0080e-01,2.688
1.0160e-01,2.688
1.0240e-01,2.68
1.0320e-01,2.672
1.0400e-01,2.664
1.0480e-01,2.656
1.0560e-01,2.672
1.0640e-01,2.672
1.0720e-01,2.688
1.0800e-01,2.696
1.0880e-01,2.696
1.0960e-01,2.704
1.1040e-01,2.696
1.1120e-01,2.696
1.1200e-01,2.704
1.1280e-01,2.704
1.1360e-01,2.728
1.1440e-01,2.728
1.1520e-01,2.72
1.1600e-01,2.712
1.1680e-01,2.704
1.1760e-01,2.704
1.1840e-01,2.704
1.1920e-01,2.704
1.2000e-01,2.696
1.2080e-01,2.688
1.2160e-01,2.696
1.2240e-01,2.688
1.2320e-01,2.672
1.2400e-01,2.664
1.2480e-01,2.664
1.2560e-01,2.672
1.2640e-01,2.688
1.2720e-01,2.68
1.2800e-01,2.688
1.2880e-01,2.688
1.2960e-01,2.696
1.3040e-01,2.696
1.3120e-01,2.696
1.3200e-01,2.704
1.3280e-01,2.704
1.3360e-01,2.72
1.3440e-01,2.728
1.3520e-01,2.72
1.3600e-01,2.712
1.3680e-01,2.704
1.3760e-01,2.704
1.3840e-01,2.696
1.3920e-01,2.688
1.4000e-01,2.688
1.4080e-01,2.696
1.4160e-01,2.696
1.4240e-01,2.688
1.4320e-01,2.664
1.4400e-01,2.664
1.4480e-01,2.656
1.4560e-01,2.672
1.4640e-01,2.688
1.4720e-01,2.688
1.4800e-01,2.696
1.4880e-01,2.696
1.4960e-01,2.696
1.5040e-01,2.704
1.5120e-01,2.696
1.5200e-01,2.696
1.5280e-01,2.712
1.5360e-01,2.728
1.5440e-01,2.728
1.5520e-01,2.72
1.5600e-01,2.712
1.5680e-01,2.712
1.5760e-01,2.704
1.5840e-01,2.704
1.5920e-01,2.704
1.6000e-01,2.696
1.6080e-01,2.696
1.6160e-01,2.688
1.6240e-01,2.696
1.6320e-01,2.672
1.6400e-01,2.664
1.6480e-01,2.664
1.6560e-01,2.672
1.6640e-01,2.696
1.6720e-01,2.688
1.6800e-01,2.704
1.6880e-01,2.696
1.6960e-01,2.696
1.7040e-01,2.696
1.7120e-01,2.696
1.7200e-01,2.704
1.7280e-01,2.712
1.7360e-01,2.728
1.7440e-01,2.736
1.7520e-01,2.728
1.7600e-01,2.72
1.7680e-01,2.712
1.7760e-01,2.704
1.7840e-01,2.712
1.7920e-01,2.704
1.8000e-01,2.704
1.8080e-01,2.696
1.8160e-01,2.712
1.8240e-01,2.696
1.8320e-01,2.672
1.8400e-01,2.672
1.8480e-01,2.664
1.8560e-01,2.672
1.8640e-01,2.688
1.8720e-01,2.696
1.8800e-01,2.696
1.8880e-01,2.704
1.8960e-01,2.704
1.9040e-01,2.704
1.9120e-01,2.712
1.9200e-01,2.704
1.9280e-01,2.712
1.9360e-01,2.728
1.9440e-01,2.728
1.9520e-01,2.736
1.9600e-01,2.72
1.9680e-01,2.712
1.9760e-01,2.712
1.9840e-01,2.704
1.9920e-01,2.704
2.0000e-01,2.704
2.0080e-01,2.696
2.0160e-01,2.704
2.0240e-01,2.696
2.0320e-01,2.688
2.0400e-01,2.672
2.0480e-01,2.672
2.0560e-01,2.68
2.0640e-01,2.696
2.0720e-01,2.688
2.0800e-01,2.696
2.0880e-01,2.704
2.0960e-01,2.704
2.1040e-01,2.704
2.1120e-01,2.712
2.1200e-01,2.712
2.1280e-01,2.712
2.1360e-01,2.728
2.1440e-01,2.736
2.1520e-01,2.728
2.1600e-01,2.72
2.1680e-01,2.712
2.1760e-01,2.712
2.1840e-01,2.712
2.1920e-01,2.696
2.2000e-01,2.696
2.2080e-01,2.712
2.2160e-01,2.704
2.2240e-01,2.696
2.2320e-01,2.68
2.2400e-01,2.672
2.2480e-01,2.664
2.2560e-01,2.68
2.2640e-01,2.68
2.2720e-01,2.696
2.2800e-01,2.688
2.2880e-01,2.704
2.2960e-01,2.704
2.3040e-01,2.704
2.3120e-01,2.704
2.3200e-01,2.704
2.3280e-01,2.712
2.3360e-01,2.728
2.3440e-01,2.744
2.3520e-01,2.728
2.3600e-01,2.72
2.3680e-01,2.712
2.3760e-01,2.704
2.3840e-01,2.704
2.3920e-01,2.704
2.4000e-01,2.704
2.4080e-01,2.696
2.4160e-01,2.696
2.4240e-01,2.696
2.4320e-01,2.68
2.4400e-01,2.672
2.4480e-01,2.672
2.4560e-01,2.68
2.4640e-01,2.696
2.4720e-01,2.696
2.4800e-01,2.696
2.4880e-01,2.696
2.4960e-01,2.704
2.5040e-01,2.704
2.5120e-01,2.704
2.5200e-01,2.712
2.5280e-01,2.712
2.5360e-01,2.736
2.5440e-01,2.736
2.5520e-01,2.728
2.5600e-01,2.728
2.5680e-01,2.712
2.5760e-01,2.712
2.5840e-01,2.704
2.5920e-01,2.704
2.6000e-01,2.696
2.6080e-01,2.696
2.6160e-01,2.704
2.6240e-01,2.704
2.6320e-01,2.68
2.6400e-01,2.672
2.6480e-01,2.68
2.6560e-01,2.68
2.6640e-01,2.696
2.6720e-01,2.696
2.6800e-01,2.696
2.6880e-01,2.696
2.6960e-01,2.704
2.7040e-01,2.712
2.7120e-01,2.712
2.7200e-01,2.712
2.7280e-01,2.712
2.7360e-01,2.736
2.7440e-01,2.744
2.7520e-01,2.736
2.7600e-01,2.72
2.7680e-01,2.72
2.7760e-01,2.712
2.7840e-01,2.72
2.7920e-01,2.712
2.8000e-01,2.712
2.8080e-01,2.704
2.8160e-01,2.704
2.8240e-01,2.704
2.8320e-01,2.688
2.8400e-01,2.68
2.8480e-01,2.672
2.8560e-01,2.68
2.8640e-01,2.696
2.8720e-01,2.696
2.8800e-01,2.696
2.8880e-01,2.704
2.8960e-01,2.704
2.9040e-01,2.712
2.9120e-01,2.712
2.9200e-01,2.712
2.9280e-01,2.712
2.9360e-01,2.744
2.9440e-01,2.736
2.9520e-01,2.736
2.9600e-01,2.72
2.9680e-01,2.72
2.9760e-01,2.72
2.9840e-01,2.72
2.9920e-01,2.712
3.0000e-01,2.704
3.0080e-01,2.704
3.0160e-01,2.704
3.0240e-01,2.696
3.0320e-01,2.688
3.0400e-01,2.672
3.0480e-01,2.672
3.0560e-01,2.68
3.0640e-01,2.696
3.0720e-01,2.712
3.0800e-01,2.696
3.0880e-01,2.712
3.0960e-01,2.704
3.1040e-01,2.712
3.1120e-01,2.712
3.1200e-01,2.712
3.1280e-01,2.712
3.1360e-01,2.736
3.1440e-01,2.744
3.1520e-01,2.736
3.1600e-01,2.728
3.1680e-01,2.72
3.1760e-01,2.712
3.1840e-01,2.712
3.1920e-01,2.712
3.2000e-01,2.704
3.2080e-01,2.712
3.2160e-01,2.704
3.2240e-01,2.704
3.2320e-01,2.68
3.2400e-01,2.68
3.2480e-01,2.672
3.2560e-01,2.68
3.2640e-01,2.688
3.2720e-01,2.696
3.2800e-01,2.696
3.2880e-01,2.704
3.2960e-01,2.704
3.3040e-01,2.712
3.3120e-01,2.704
3.3200e-01,2.712
3.3280e-01,2.712
3.3360e-01,2.736
3.3440e-01,2.744
3.3520e-01,2.728
3.3600e-01,2.728
3.3680e-01,2.72
3.3760e-01,2.712
3.3840e-01,2.712
3.3920e-01,2.704
3.4000e-01,2.704
3.4080e-01,2.704
3.4160e-01,2.704
3.4240e-01,2.696
3.4320e-01,2.688
3.4400e-01,2.672
3.4480e-01,2.68
3.4560e-01,2.68
3.4640e-01,2.696
3.4720e-01,2.696
3.4800e-01,2.704
3.4880e-01,2.704
3.4960e-01,2.704
3.5040e-01,2.712
3.5120e-01,2.712
3.5200e-01,2.712
3.5280e-01,2.728
3.5360e-01,2.736
3.5440e-01,2.744
3.5520e-01,2.736
3.5600e-01,2.736
3.5680e-01,2.72
3.5760e-01,2.712
3.5840e-01,2.72
3.5920e-01,2.704
3.6000e-01,2.704
3.6080e-01,2.704
3.6160e-01,2.704
3.6240e-01,2.704
3.6320e-01,2.68
3.6400e-01,2.672
3.6480e-01,2.672
3.6560e-01,2.688
3.6640e-01,2.696
3.6720e-01,2.696
3.6800e-01,2.696
3.6880e-01,2.704
3.6960e-01,2.712
3.7040e-01,2.712
3.7120e-01,2.72
3.7200e-01,2.72
3.7280e-01,2.712
3.7360e-01,2.736
3.7440e-01,2.744
3.7520e-01,2.736
3.7600e-01,2.736
3.7680e-01,2.72
3.7760e-01,2.712
3.7840e-01,2.712
