lab_data/15 - 20/TEK00004.CSV

Model,TBS1102C
Firmware Version,v2015-08-04-prequal4ch70_v1.3

Point Format,Y
Horizontal Units,S
Horizontal Scale,0.1
Sample Interval,0.0008
Filter Frequency,2e+08
Record Length,2000
Gating,0.0% to 100.0%
Probe Attenuation,1
Vertical Units,V
Vertical Offset,1
Vertical Scale,0.2
Label,
TIME,CH1
-5.2800e-01,1.736
-5.2720e-01,1.744
-5.2640e-01,1.752
-5.2560e-01,1.768
-5.2480e-01,1.76
-5.2400e-01,1.768
-5.2320e-01,1.768
-5.2240e-01,1.768
-5.2160e-01,1.768
-5.2080e-01,1.776
-5.2000e-01,1.776
-5.1920e-01,1.8
-5.1840e-01,1.8
-5.1760e-01,1.8
-5.1680e-01,1.784
-5.1600e-01,1.776
-5.1520e-01,1.776
-5.1440e-01,1.776
-5.1360e-01,1.768
-5.1280e-01,1.76
-5.1200e-01,1.76
-5.1120e-01,1.768
-5.1040e-01,1.76
-5.0960e-01,1.744
-5.0880e-01,1.736
-5.0800e-01,1.728
-5.0720e-01,1.744
-5.0640e-01,1.752
-5.0560e-01,1.76
-5.0480e-01,1.76
-5.0400e-01,1.76
-5.0320e-01,1.768
-5.0240e-01,1.776
-5.0160e-01,1.776
-5.0080e-01,1.768
-5.0000e-01,1.768
-4.9920e-01,1.8
-4.9840e-01,1.8
-4.9760e-01,1.792
-4.9680e-01,1.784
-4.9600e-01,1.776
-4.9520e-01,1.776
-4.9440e-01,1.768
-4.9360e-01,1.768
-4.9280e-01,1.768
-4.9200e-01,1.76
-4.9120e-01,1.768
-4.9040e-01,1.768
-4.8960e-01,1.744
-4.8880e-01,1.736
-4.8800e-01,1.736
-4.8720e-01,1.744
-4.8640e-01,1.752
-4.8560e-01,1.76
-4.8480e-01,1.76
-4.8400e-01,1.76
-4.8320e-01,1.768
-4.8240e-01,1.768
-4.8160e-01,1.768
-4.8080e-01,1.776
-4.8000e-01,1.776
-4.7920e-01,1.8
-4.7840e-01,1.8
-4.7760e-01,1.8
-4.7680e-01,1.792
-4.7600e-01,1.784
-4.7520e-01,1.776
-4.7440e-01,1.776
-4.7360e-01,1.76
-4.7280e-01,1.76
-4.7200e-01,1.76
-4.7120e-01,1.768
-4.7040e-01,1.768
-4.6960e-01,1.744
-4.6880e-01,1.728
-4.6800e-01,1.728
-4.6720e-01,1.736
-4.6640e-01,1.752
-4.6560e-01,1.76
-4.6480e-01,1.76
-4.6400e-01,1.768
-4.6320e-01,1.76
-4.6240e-01,1.768
-4.6160e-01,1.768
-4.6080e-01,1.768
-4.6000e-01,1.776
-4.5920e-01,1.8
-4.5840e-01,1.792
-4.5760e-01,1.792
-4.5680e-01,1.784
-4.5600e-01,1.776
-4.5520e-01,1.776
-4.5440e-01,1.768
-4.5360e-01,1.76
-4.5280e-01,1.76
-4.5200e-01,1.76
-4.5120e-01,1.76
-4.5040e-01,1.76
-4.4960e-01,1.752
-4.4880e-01,1.736
-4.4800e-01,1.736
-4.4720e-01,1.744
-4.4640e-01,1.752
-4.4560e-01,1.76
-4.4480e-01,1.76
-4.4400e-01,1.768
-4.4320e-01,1.768
-4.4240e-01,1.768
-4.4160e-01,1.768
-4.4080e-01,1.776
-4.4000e-01,1.768
-4.3920e-01,1.792
-4.3840e-01,1.8
-4.3760e-01,1.784
-4.3680e-01,1.784
-4.3600e-01,1.776
-4.3520e-01,1.776
-4.3440e-01,1.768
-4.3360e-01,1.768
-4.3280e-01,1.768
-4.3200e-01,1.768
-4.3120e-01,1.76
-4.3040e-01,1.76
-4.2960e-01,1.752
-4.2880e-01,1.728
-4.2800e-01,1.736
-4.2720e-01,1.744
-4.2640e-01,1.752
-4.2560e-01,1.76
-4.2480e-01,1.76
-4.2400e-01,1.768
-4.2320e-01,1.768
-4.2240e-01,1.768
-4.2160e-01,1.768
-4.2080e-01,1.768
-4.2000e-01,1.768
-4.1920e-01,1.8
-4.1840e-01,1.8
-4.1760e-01,1.8
-4.1680e-01,1.784
-4.1600e-01,1.776
-4.1520e-01,1.776
-4.1440e-01,1.768
-4.1360e-01,1.768
-4.1280e-01,1.76
-4.1200e-01,1.76
-4.1120e-01,1.768
-4.1040e-01,1.768
-4.0960e-01,1.752
-4.0880e-01,1.736
-4.0800e-01,1.736
-4.0720e-01,1.736
-4.0640e-01,1.752
-4.0560e-01,1.76
-4.0480e-01,1.76
-4.0400e-01,1.768
-4.0320e-01,1.768
-4.0240e-01,1.768
-4.0160e-01,1.776
-4.0080e-01,1.768
-4.0000e-01,1.776
-3.9920e-01,1.8
-3.9840e-01,1.808
-3.9760e-01,1.792
-3.9680e-01,1.792
-3.9600e-01,1.784
-3.9520e-01,1.776
-3.9440e-01,1.776
-3.9360e-01,1.768
-3.9280e-01,1.76
-3.9200e-01,1.76
-3.9120e-01,1.76
-3.9040e-01,1.76
-3.8960e-01,1.736
-3.8880e-01,1.728
-3.8800e-01,1.736
-3.8720e-01,1.736
-3.8640e-01,1.744
-3.8560e-01,1.76
-3.8480e-01,1.76
-3.8400e-01,1.76
-3.8320e-01,1.768
-3.8240e-01,1.768
-3.8160e-01,1.76
-3.8080e-01,1.76
-3.8000e-01,1.768
-3.7920e-01,1.792
-3.7840e-01,1.8
-3.7760e-01,1.8
-3.7680e-01,1.792
-3.7600e-01,1.776
-3.7520e-01,1.776
-3.7440e-01,1.76
-3.7360e-01,1.76
-3.7280e-01,1.76
-3.7200e-01,1.76
-3.7120e-01,1.768
-3.7040e-01,1.76
-3.6960e-01,1.752
-3.6880e-01,1.736
-3.6800e-01,1.728
-3.6720e-01,1.736
-3.6640e-01,1.752
-3.6560e-01,1.76
-3.6480e-01,1.76
-3.6400e-01,1.768
-3.6320e-01,1.768
-3.6240e-01,1.768
-3.6160e-01,1.776
-3.6080e-01,1.768
-3.6000e-01,1.776
-3.5920e-01,1.792
-3.5840e-01,1.8
-3.5760e-01,1.808
-3.5680e-01,1.792
-3.5600e-01,1.792
-3.5520e-01,1.784
-3.5440e-01,1.784
-3.5360e-01,1.776
-3.5280e-01,1.768
-3.5200e-01,1.768
-3.5120e-01,1.768
-3.5040e-01,1.768
-3.4960e-01,1.76
-3.4880e-01,1.744
-3.4800e-01,1.752
-3.4720e-01,1.752
-3.4640e-01,1.768
-3.4560e-01,1.768
-3.4480e-01,1.776
-3.4400e-01,1.784
-3.4320e-01,1.792
-3.4240e-01,1.792
-3.4160e-01,1.784
-3.4080e-01,1.792
-3.4000e-01,1.792
-3.3920e-01,1.816
-3.3840e-01,1.824
-3.3760e-01,1.824
-3.3680e-01,1.808
-3.3600e-01,1.808
-3.3520e-01,1.8
-3.3440e-01,1.8
-3.3360e-01,1.8
-3.3280e-01,1.8
-3.3200e-01,1.8
-3.3120e-01,1.8
-3.3040e-01,1.8
-3.2960e-01,1.784
-3.2880e-01,1.776
-3.2800e-01,1.776
-3.2720e-01,1.784
-3.2640e-01,1.8
-3.2560e-01,1.808
-3.2480e-01,1.808
-3.2400e-01,1.808
-3.2320e-01,1.816
-3.2240e-01,1.816
-3.2160e-01,1.824
-3.2080e-01,1.808
-3.2000e-01,1.824
-3.1920e-01,1.848
-3.1840e-01,1.848
-3.1760e-01,1.848
-3.1680e-01,1.832
-3.1600e-01,1.832
-3.1520e-01,1.824
-3.1440e-01,1.824
-3.1360e-01,1.816
-3.1280e-01,1.816
-3.1200e-01,1.816
-3.1120e-01,1.816
-3.1040e-01,1.808
-3.0960e-01,1.792
-3.0880e-01,1.784
-3.0800e-01,1.776
-3.0720e-01,1.784
-3.0640e-01,1.792
-3.0560e-01,1.792
-3.0480e-01,1.8
-3.0400e-01,1.8
-3.0320e-01,1.808
-3.0240e-01,1.8
-3.0160e-01,1.8
-3.0080e-01,1.8
-3.0000e-01,1.8
-2.9920e-01,1.816
-2.9840e-01,1.824
-2.9760e-01,1.816
-2.9680e-01,1.808
-2.9600e-01,1.792
-2.9520e-01,1.784
-2.9440e-01,1.776
-2.9360e-01,1.776
-2.9280e-01,1.768
-2.9200e-01,1.768
-2.9120e-01,1.76
-2.9040e-01,1.752
-2.8960e-01,1.736
-2.8880e-01,1.72
-2.8800e-01,1.712
-2.8720e-01,1.712
-2.8640e-01,1.728
-2.8560e-01,1.736
-2.8480e-01,1.728
-2.8400e-01,1.72
-2.8320e-01,1.728
-2.8240e-01,1.728
-2.8160e-01,1.72
-2.8080e-01,1.72
-2.8000e-01,1.712
-2.7920e-01,1.728
-2.7840e-01,1.744
-2.7760e-01,1.728
-2.7680e-01,1.712
-2.7600e-01,1.704
-2.7520e-01,1.696
-2.7440e-01,1.688
-2.7360e-01,1.68
-2.7280e-01,1.672
-2.7200e-01,1.664
-2.7120e-01,1.656
-2.7040e-01,1.656
-2.6960e-01,1.64
-2.6880e-01,1.616
-2.6800e-01,1.608
-2.6720e-01,1.616
-2.6640e-01,1.624
-2.6560e-01,1.624
-2.6480e-01,1.616
-2.6400e-01,1.616
-2.6320e-01,1.608
-2.6240e-01,1.608
-2.6160e-01,1.608
-2.6080e-01,1.6
-2.6000e-01,1.592
-2.5920e-01,1.616
-2.5840e-01,1.624
-2.5760e-01,1.616
-2.5680e-01,1.608
-2.5600e-01,1.592
-2.5520e-01,1.584
-2.5440e-01,1.576
-2.5360e-01,1.568
-2.5280e-01,1.56
-2.5200e-01,1.552
-2.5120e-01,1.552
-2.5040e-01,1.536
-2.4960e-01,1.528
-2.4880e-01,1.504
-2.4800e-01,1.504
-2.4720e-01,1.504
-2.4640e-01,1.512
-2.4560e-01,1.512
-2.4480e-01,1.52
-2.4400e-01,1.52
-2.4320e-01,1.52
-2.4240e-01,1.512
-2.4160e-01,1.512
-2.4080e-01,1.504
-2.4000e-01,1.504
-2.3920e-01,1.52
-2.3840e-01,1.536
-2.3760e-01,1.528
-2.3680e-01,1.512
-2.3600e-01,1.512
-2.3520e-01,1.496
-2.3440e-01,1.488
-2.3360e-01,1.488
-2.3280e-01,1.488
-2.3200e-01,1.48
-2.3120e-01,1.488
-2.3040e-01,1.48
-2.2960e-01,1.464
-2.2880e-01,1.448
-2.2800e-01,1.448
-2.2720e-01,1.456
-2.2640e-01,1.464
-2.2560e-01,1.464
-2.2480e-01,1.464
-2.2400e-01,1.48
-2.2320e-01,1.488
-2.2240e-01,1.48
-2.2160e-01,1.488
-2.2080e-01,1.48
-2.2000e-01,1.488
-2.1920e-01,1.512
-2.1840e-01,1.512
-2.1760e-01,1.512
-2.1680e-01,1.504
-2.1600e-01,1.496
-2.1520e-01,1.496
-2.1440e-01,1.488
-2.1360e-01,1.496
-2.1280e-01,1.496
-2.1200e-01,1.488
-2.1120e-01,1.496
-2.1040e-01,1.496
-2.0960e-01,1.488
-2.0880e-01,1.48
-2.0800e-01,1.472
-2.0720e-01,1.488
-2.0640e-01,1.504
-2.0560e-01,1.512
-2.0480e-01,1.512
-2.0400e-01,1.528
-2.0320e-01,1.528
-2.0240e-01,1.528
-2.0160e-01,1.536
-2.0080e-01,1.536
-2.0000e-01,1.544
-1.9920e-01,1.568
-1.9840e-01,1.584
-1.9760e-01,1.584
-1.9680e-01,1.576
-1.9600e-01,1.576
-1.9520e-01,1.568
-1.9440e-01,1.568
-1.9360e-01,1.568
-1.9280e-01,1.576
-1.9200e-01,1.576
-1.9120e-01,1.584
-1.9040e-01,1.592
-1.8960e-01,1.584
-1.8880e-01,1.576
-1.8800e-01,1.568
-1.8720e-01,1.584
-1.8640e-01,1.6
-1.8560e-01,1.608
-1.8480e-01,1.616
-1.8400e-01,1.632
-1.8320e-01,1.64
-1.8240e-01,1.648
-1.8160e-01,1.648
-1.8080e-01,1.656
-1.8000e-01,1.664
-1.7920e-01,1.696
-1.7840e-01,1.696
-1.7760e-01,1.704
-1.7680e-01,1.704
-1.7600e-01,1.696
-1.7520e-01,1.704
-1.7440e-01,1.704
-1.7360e-01,1.704
-1.7280e-01,1.712
-1.7200e-01,1.712
-1.7120e-01,1.72
-1.7040e-01,1.712
-1.6960e-01,1.712
-1.6880e-01,1.712
-1.6800e-01,1.704
-1.6720e-01,1.712
-1.6640e-01,1.736
-1.6560e-01,1.744
-1.6480e-01,1.752
-1.6400e-01,1.76
-1.6320e-01,1.768
-1.6240e-01,1.776
-1.6160e-01,1.784
-1.6080e-01,1.784
-1.6000e-01,1.8
-1.5920e-01,1.824
-1.5840e-01,1.832
-1.5760e-01,1.832
-1.5680e-01,1.832
-1.5600e-01,1.832
-1.5520e-01,1.824
-1.5440e-01,1.832
-1.5360e-01,1.832
-1.5280e-01,1.832
-1.5200e-01,1.84
-1.5120e-01,1.848
-1.5040e-01,1.84
-1.4960e-01,1.832
-1.4880e-01,1.824
-1.4800e-01,1.816
-1.4720e-01,1.824
-1.4640e-01,1.848
-1.4560e-01,1.856
-1.4480e-01,1.864
-1.4400e-01,1.88
-1.4320e-01,1.88
-1.4240e-01,1.88
-1.4160e-01,1.896
-1.4080e-01,1.888
-1.4000e-01,1.904
-1.3920e-01,1.928
-1.3840e-01,1.936
-1.3760e-01,1.936
-1.3680e-01,1.928
-1.3600e-01,1.928
-1.3520e-01,1.92
-1.3440e-01,1.928
-1.3360e-01,1.912
-1.3280e-01,1.92
-1.3200e-01,1.928
-1.3120e-01,1.928
-1.3040e-01,1.928
-1.2960e-01,1.92
-1.2880e-01,1.904
-1.2800e-01,1.904
-1.2720e-01,1.912
-1.2640e-01,1.936
-1.2560e-01,1.936
-1.2480e-01,1.936
-1.2400e-01,1.952
-1.2320e-01,1.952
-1.2240e-01,1.952
-1.2160e-01,1.944
-1.2080e-01,1.952
-1.2000e-01,1.96
-1.1920e-01,1.976
-1.1840e-01,1.984
-1.1760e-01,1.984
-1.1680e-01,1.968
-1.1600e-01,1.96
-1.1520e-01,1.952
-1.1440e-01,1.952
-1.1360e-01,1.952
-1.1280e-01,1.936
-1.1200e-01,1.936
-1.1120e-01,1.928
-1.1040e-01,1.928
-1.0960e-01,1.92
-1.0880e-01,1.896
-1.0800e-01,1.888
-1.0720e-01,1.896
-1.0640e-01,1.912
-1.0560e-01,1.912
-1.0480e-01,1.912
-1.0400e-01,1.912
-1.0320e-01,1.912
-1.0240e-01,1.904
-1.0160e-01,1.912
-1.0080e-01,1.904
-1.0000e-01,1.896
-9.9200e-02,1.92
-9.8400e-02,1.92
-9.7600e-02,1.92
-9.6800e-02,1.896
-9.6000e-02,1.888
-9.5200e-02,1.88
-9.4400e-02,1.872
-9.3600e-02,1.856
-9.2800e-02,1.856
-9.2000e-02,1.848
-9.1200e-02,1.832
-9.0400e-02,1.832
-8.9600e-02,1.816
-8.8800e-02,1.792
-8.8000e-02,1.784
-8.7200e-02,1.784
-8.6400e-02,1.792
-8.5600e-02,1.792
-8.4800e-02,1.792
-8.4000e-02,1.784
-8.3200e-02,1.776
-8.2400e-02,1.784
-8.1600e-02,1.776
-8.0800e-02,1.768
-8.0000e-02,1.768
-7.9200e-02,1.776
-7.8400e-02,1.792
-7.7600e-02,1.776
-7.6800e-02,1.776
-7.6000e-02,1.752
-7.5200e-02,1.752
-7.4400e-02,1.736
-7.3600e-02,1.728
-7.2800e-02,1.728
-7.2000e-02,1.72
-7.1200e-02,1.72
-7.0400e-02,1.72
-6.9600e-02,1.704
-6.8800e-02,1.688
-6.8000e-02,1.68
-6.7200e-02,1.688
-6.6400e-02,1.696
-6.5600e-02,1.704
-6.4800e-02,1.704
-6.4000e-02,1.712
-6.3200e-02,1.72
-6.2400e-02,1.72
-6.1600e-02,1.72
-6.0800e-02,1.72
-6.0000e-02,1.728
-5.9200e-02,1.744
-5.8400e-02,1.752
-5.7600e-02,1.76
-5.6800e-02,1.752
-5.6000e-02,1.744
-5.5200e-02,1.752
-5.4400e-02,1.752
-5.3600e-02,1.752
-5.2800e-02,1.752
-5.2000e-02,1.76
-5.1200e-02,1.76
-5.0400e-02,1.768
-4.9600e-02,1.76
-4.8800e-02,1.752
-4.8000e-02,1.76
-4.7200e-02,1.768
-4.6400e-02,1.792
-4.5600e-02,1.808
-4.4800e-02,1.824
-4.4000e-02,1.832
-4.3200e-02,1.84
-4.2400e-02,1.848
-4.1600e-02,1.864
-4.0800e-02,1.872
-4.0000e-02,1.88
-3.9200e-02,1.912
-3.8400e-02,1.928
-3.7600e-02,1.944
-3.6800e-02,1.936
-3.6000e-02,1.936
-3.5200e-02,1.952
-3.4400e-02,1.952
-3.3600e-02,1.968
-3.2800e-02,1.968
-3.2000e-02,1.984
-3.1200e-02,1.992
-3.0400e-02,2
-2.9600e-02,2.008
-2.8800e-02,1.992
-2.8000e-02,2.008
-2.7200e-02,2.024
-2.6400e-02,2.032
-2.5600e-02,2.064
-2.4800e-02,2.072
-2.4000e-02,2.088
-2.3200e-02,2.104
-2.2400e-02,2.12
-2.1600e-02,2.128
-2.0800e-02,2.136
-2.0000e-02,2.152
-1.9200e-02,2.184
-1.8400e-02,2.208
-1.7600e-02,2.208
-1.6800e-02,2.224
-1.6000e-02,2.216
-1.5200e-02,2.216
-1.4400e-02,2.232
-1.3600e-02,2.232
-1.2800e-02,2.248
-1.2000e-02,2.256
-1.1200e-02,2.272
-1.0400e-02,2.272
-9.6000e-03,2.264
-8.8000e-03,2.264
-8.0000e-03,2.264
-7.2000e-03,2.288
-6.4000e-03,2.312
-5.6000e-03,2.32
-4.8000e-03,2.328
-4.0000e-03,2.344
-3.2000e-03,2.36
-2.4000e-03,2.376
-1.6000e-03,2.368
-8.0000e-04,2.392
6.8537e-15,2.392
8.0000e-04,2.432
1.6000e-03,2.44
2.4000e-03,2.448
3.2000e-03,2.448
4.0000e-03,2.44
4.8000e-03,2.448
5.6000e-03,2.448
6.4000e-03,2.456
7.2000e-03,2.456
8.0000e-03,2.456
8.8000e-03,2.464
9.6000e-03,2.472
1.0400e-02,2.464
1.1200e-02,2.456
1.2000e-02,2.464
1.2800e-02,2.472
1.3600e-02,2.488
1.4400e-02,2.496
1.5200e-02,2.504
1.6000e-02,2.52
1.6800e-02,2.536
1.7600e-02,2.536
1.8400e-02,2.544
1.9200e-02,2.544
2.0000e-02,2.552
2.0800e-02,2.576
2.1600e-02,2.584
2.2400e-02,2.592
2.3200e-02,2.584
2.4000e-02,2.584
2.4800e-02,2.584
2.5600e-02,2.576
2.6400e-02,2.584
2.7200e-02,2.584
2.8000e-02,2.584
2.8800e-02,2.584
2.9600e-02,2.592
3.0400e-02,2.584
3.1200e-02,2.568
3.2000e-02,2.568
3.2800e-02,2.584
3.3600e-02,2.6
3.4400e-02,2.6
3.5200e-02,2.616
3.6000e-02,2.608
3.6800e-02,2.624
3.7600e-02,2.624
3.8400e-02,2.632
3.9200e-02,2.632
4.0000e-02,2.64
4.0800e-02,2.656
4.1600e-02,2.664
4.2400e-02,2.672
4.3200e-02,2.664
4.4000e-02,2.656
4.4800e-02,2.648
4.5600e-02,2.64
4.6400e-02,2.64
4.7200e-02,2.648
4.8000e-02,2.648
4.8800e-02,2.648
4.9600e-02,2.64
5.0400e-02,2.64
5.1200e-02,2.616
5.2000e-02,2.616
5.2800e-02,2.624
5.3600e-02,2.632
5.4400e-02,2.648
5.5200e-02,2.656
5.6000e-02,2.656
5.6800e-02,2.664
5.7600e-02,2.664
5.8400e-02,2.664
5.9200e-02,2.672
6.0000e-02,2.664
6.0800e-02,2.696
6.1600e-02,2.704
6.2400e-02,2.696
6.3200e-02,2.688
6.4000e-02,2.688
6.4800e-02,2.672
6.5600e-02,2.672
6.6400e-02,2.672
6.7200e-02,2.672
6.8000e-02,2.672
6.8800e-02,2.672
6.9600e-02,2.672
7.0400e-02,2.664
7.1200e-02,2.648
7.2000e-02,2.648
7.2800e-02,2.648
7.3600e-02,2.656
7.4400e-02,2.664
7.5200e-02,2.68
7.6000e-02,2.672
7.6800e-02,2.68
7.7600e-02,2.688
7.8400e-02,2.688
7.9200e-02,2.688
8.0000e-02,2.688
8.0800e-02,2.712
8.1600e-02,2.72
8.2400e-02,2.712
8.3200e-02,2.704
8.4000e-02,2.704
8.4800e-02,2.696
8.5600e-02,2.696
8.6400e-02,2.688
8.7200e-02,2.68
8.8000e-02,2.68
8.8800e-02,2.688
8.9600e-02,2.688
9.0400e-02,2.68
9.1200e-02,2.656
9.2000e-02,2.648
9.2800e-02,2.664
9.3600e-02,2.672
9.4400e-02,2.68
9.5200e-02,2.68
9.6000e-02,2.688
9.6800e-02,2.688
9.7600e-02,2.696
9.8400e-02,2.688
9.9200e-02,2.696
1.0000e-01,2.696
1.0080e-01,2.712
1.0160e-01,2.72
1.0240e-01,2.72
1.0320e-01,2.72
1.0400e-01,2.712
1.0480e-01,2.696
1.0560e-01,2.704
1.0640e-01,2.688
1.0720e-01,2.696
1.0800e-01,2.688
1.0880e-01,2.688
1.0960e-01,2.688
1.1040e-01,2.672
1.1120e-01,2.664
1.1200e-01,2.656
1.1280e-01,2.664
1.1360e-01,2.672
1.1440e-01,2.68
1.1520e-01,2.688
1.1600e-01,2.696
1.1680e-01,2.704
1.1760e-01,2.696
1.1840e-01,2.704
1.1920e-01,2.688
1.2000e-01,2.704
1.2080e-01,2.72
1.2160e-01,2.728
1.2240e-01,2.728
1.2320e-01,2.72
1.2400e-01,2.712
1.2480e-01,2.704
1.2560e-01,2.704
1.2640e-01,2.696
1.2720e-01,2.696
1.2800e-01,2.696
1.2880e-01,2.688
1.2960e-01,2.696
1.3040e-01,2.672
1.3120e-01,2.672
1.3200e-01,2.656
1.3280e-01,2.672
1.3360e-01,2.672
1.3440e-01,2.688
1.3520e-01,2.688
1.3600e-01,2.688
1.3680e-01,2.696
1.3760e-01,2.696
1.3840e-01,2.688
1.3920e-01,2.696
1.4000e-01,2.704
1.4080e-01,2.72
1.4160e-01,2.736
1.4240e-01,2.72
1.4320e-01,2.712
1.4400e-01,2.712
1.4480e-01,2.712
1.4560e-01,2.704
1.4640e-01,2.696
1.4720e-01,2.688
1.4800e-01,2.696
1.4880e-01,2.688
1.4960e-01,2.696
1.5040e-01,2.688
1.5120e-01,2.672
1.5200e-01,2.656
1.5280e-01,2.672
1.5360e-01,2.68
1.5440e-01,2.68
1.5520e-01,2.688
1.5600e-01,2.688
1.5680e-01,2.696
1.5760e-01,2.704
1.5840e-01,2.696
1.5920e-01,2.696
1.6000e-01,2.704
1.6080e-01,2.72
1.6160e-01,2.728
1.6240e-01,2.728
1.6320e-01,2.728
1.6400e-01,2.712
1.6480e-01,2.712
1.6560e-01,2.704
1.6640e-01,2.704
1.6720e-01,2.704
1.6800e-01,2.696
1.6880e-01,2.704
1.6960e-01,2.696
1.7040e-01,2.688
1.7120e-01,2.664
1.7200e-01,2.664
1.7280e-01,2.672
1.7360e-01,2.68
1.7440e-01,2.688
1.7520e-01,2.696
1.7600e-01,2.696
1.7680e-01,2.696
1.7760e-01,2.704
1.7840e-01,2.704
1.7920e-01,2.704
1.8000e-01,2.712
1.8080e-01,2.728
1.8160e-01,2.736
1.8240e-01,2.736
1.8320e-01,2.728
1.8400e-01,2.712
1.8480e-01,2.712
1.8560e-01,2.712
1.8640e-01,2.704
1.8720e-01,2.704
1.8800e-01,2.704
1.8880e-01,2.704
1.8960e-01,2.704
1.9040e-01,2.696
1.9120e-01,2.664
1.9200e-01,2.664
1.9280e-01,2.68
1.9360e-01,2.688
1.9440e-01,2.696
1.9520e-01,2.704
1.9600e-01,2.696
1.9680e-01,2.704
1.9760e-01,2.704
1.9840e-01,2.696
1.9920e-01,2.704
2.0000e-01,2.704
2.0080e-01,2.728
2.0160e-01,2.736
2.0240e-01,2.736
2.0320e-01,2.728
2.0400e-01,2.72
2.0480e-01,2.712
2.0560e-01,2.712
2.0640e-01,2.704
2.0720e-01,2.704
2.0800e-01,2.704
2.0880e-01,2.704
2.0960e-01,2.704
2.1040e-01,2.696
2.1120e-01,2.672
2.1200e-01,2.664
2.1280e-01,2.672
2.1360e-01,2.68
2.1440e-01,2.688
2.1520e-01,2.696
2.1600e-01,2.696
2.1680e-01,2.704
2.1760e-01,2.704
2.1840e-01,2.704
2.1920e-01,2.704
2.2000e-01,2.712
2.2080e-01,2.728
2.2160e-01,2.736
2.2240e-01,2.736
2.2320e-01,2.728
2.2400e-01,2.712
2.2480e-01,2.712
2.2560e-01,2.712
2.2640e-01,2.712
2.2720e-01,2.704
2.2800e-01,2.696
2.2880e-01,2.712
2.2960e-01,2.704
2.3040e-01,2.688
2.3120e-01,2.672
2.3200e-01,2.672
2.3280e-01,2.672
2.3360e-01,2.688
2.3440e-01,2.688
2.3520e-01,2.696
2.3600e-01,2.696
2.3680e-01,2.704
2.3760e-01,2.704
2.3840e-01,2.704
2.3920e-01,2.712
2.4000e-01,2.712
2.4080e-01,2.728
2.4160e-01,2.736
2.4240e-01,2.728
2.4320e-01,2.728
2.4400e-01,2.72
2.4480e-01,2.704
2.4560e-01,2.712
2.4640e-01,2.712
2.4720e-01,2.704
2.4800e-01,2.704
2.4880e-01,2.696
2.4960e-01,2.712
2.5040e-01,2.704
2.5120e-01,2.68
2.5200e-01,2.672
2.5280e-01,2.68
2.5360e-01,2.688
2.5440e-01,2.696
2.5520e-01,2.704
2.5600e-01,2.704
2.5680e-01,2.712
2.5760e-01,2.712
2.5840e-01,2.712
2.5920e-01,2.712
2.6000e-01,2.712
2.6080e-01,2.728
2.6160e-01,2.736
2.6240e-01,2.736
2.6320e-01,2.736
2.6400e-01,2.72
2.6480e-01,2.712
2.6560e-01,2.712
2.6640e-01,2.712
2.6720e-01,2.704
2.6800e-01,2.704
2.6880e-01,2.704
2.6960e-01,2.704
2.7040e-01,2.704
2.7120e-01,2.68
2.7200e-01,2.68
2.7280e-01,2.68
2.7360e-01,2.696
2.7440e-01,2.696
2.7520e-01,2.704
2.7600e-01,2.696
2.7680e-01,2.712
2.7760e-01,2.712
2.7840e-01,2.704
2.7920e-01,2.72
2.8000e-01,2.72
2.8080e-01,2.728
2.8160e-01,2.736
2.8240e-01,2.744
2.8320e-01,2.728
2.8400e-01,2.72
2.8480e-01,2.712
2.8560e-01,2.712
2.8640e-01,2.712
2.8720e-01,2.704
2.8800e-01,2.704
2.8880e-01,2.704
2.8960e-01,2.704
2.9040e-01,2.704
2.9120e-01,2.68
2.9200e-01,2.68
2.9280e-01,2.68
2.9360e-01,2.688
2.9440e-01,2.696
2.9520e-01,2.696
2.9600e-01,2.704
2.9680e-01,2.704
2.9760e-01,2.712
2.9840e-01,2.704
2.9920e-01,2.704
3.0000e-01,2.712
3.0080e-01,2.736
3.0160e-01,2.736
3.0240e-01,2.744
3.0320e-01,2.736
3.0400e-01,2.712
3.0480e-01,2.712
3.0560e-01,2.712
3.0640e-01,2.712
3.0720e-01,2.704
3.0800e-01,2.704
3.0880e-01,2.704
3.0960e-01,2.696
3.1040e-01,2.696
3.1120e-01,2.68
3.1200e-01,2.672
3.1280e-01,2.68
3.1360e-01,2.68
3.1440e-01,2.696
3.1520e-01,2.704
3.1600e-01,2.696
3.1680e-01,2.704
3.1760e-01,2.712
3.1840e-01,2.712
3.1920e-01,2.704
3.2000e-01,2.712
3.2080e-01,2.728
3.2160e-01,2.736
3.2240e-01,2.736
3.2320e-01,2.728
3.2400e-01,2.72
3.2480e-01,2.712
3.2560e-01,2.72
3.2640e-01,2.712
3.2720e-01,2.704
3.2800e-01,2.704
3.2880e-01,2.704
3.2960e-01,2.704
3.3040e-01,2.696
3.3120e-01,2.672
3.3200e-01,2.672
3.3280e-01,2.68
3.3360e-01,2.688
3.3440e-01,2.704
3.3520e-01,2.704
3.3600e-01,2.704
3.3680e-01,2.712
3.3760e-01,2.712
3.3840e-01,2.712
3.3920e-01,2.712
3.4000e-01,2.712
3.4080e-01,2.744
3.4160e-01,2.736
3.4240e-01,2.744
3.4320e-01,2.736
3.4400e-01,2.72
3.4480e-01,2.72
3.4560e-01,2.712
3.4640e-01,2.704
3.4720e-01,2.712
3.4800e-01,2.704
3.4880e-01,2.704
3.4960e-01,2.712
3.5040e-01,2.696
3.5120e-01,2.68
3.5200e-01,2.68
3.5280e-01,2.68
3.5360e-01,2.688
3.5440e-01,2.696
3.5520e-01,2.704
3.5600e-01,2.704
3.5680e-01,2.712
3.5760e-01,2.712
3.5840e-01,2.704
3.5920e-01,2.712
3.6000e-01,2.72
3.6080e-01,2.736
3.6160e-01,2.736
3.6240e-01,2.744
3.6320e-01,2.728
3.6400e-01,2.72
3.6480e-01,2.712
3.6560e-01,2.712
3.6640e-01,2.712
3.6720e-01,2.712
3.6800e-01,2.704
3.6880e-01,2.704
3.6960e-01,2.712
3.7040e-01,2.704
3.7120e-01,2.688
3.7200e-01,2.672
3.7280e-01,2.68
3.7360e-01,2.696
3.7440e-01,2.696
3.7520e-01,2.696
3.7600e-01,2.704
3.7680e-01,2.712
3.7760e-01,2.712
3.7840e-01,2.712
