lab_data/5 - 15/TEK00004.CSV

Model,TBS1102C
Firmware Version,v2015-08-04-prequal4ch70_v1.3

Point Format,Y
Horizontal Units,S
Horizontal Scale,0.1
Sample Interval,0.0008
Filter Frequency,2e+08
Record Length,2000
Gating,0.0% to 100.0%
Probe Attenuation,1
Vertical Units,V
Vertical Offset,1
Vertical Scale,0.2
Label,
TIME,CH1
-6.240e-01,1.784
-6.232e-01,1.784
-6.224e-01,1.784
-6.216e-01,1.784
-6.208e-01,1.8
-6.200e-01,1.816
-6.192e-01,1.816
-6.184e-01,1.808
-6.176e-01,1.8
-6.168e-01,1.792
-6.160e-01,1.792
-6.152e-01,1.784
-6.144e-01,1.792
-6.136e-01,1.784
-6.128e-01,1.784
-6.120e-01,1.776
-6.112e-01,1.776
-6.104e-01,1.752
-6.096e-01,1.76
-6.088e-01,1.76
-6.080e-01,1.768
-6.072e-01,1.768
-6.064e-01,1.776
-6.056e-01,1.776
-6.048e-01,1.784
-6.040e-01,1.792
-6.032e-01,1.792
-6.024e-01,1.792
-6.016e-01,1.792
-6.008e-01,1.8
-6.000e-01,1.816
-5.992e-01,1.808
-5.984e-01,1.808
-5.976e-01,1.8
-5.968e-01,1.792
-5.960e-01,1.792
-5.952e-01,1.792
-5.944e-01,1.776
-5.936e-01,1.784
-5.928e-01,1.776
-5.920e-01,1.784
-5.912e-01,1.776
-5.904e-01,1.752
-5.896e-01,1.752
-5.888e-01,1.76
-5.880e-01,1.768
-5.872e-01,1.776
-5.864e-01,1.776
-5.856e-01,1.784
-5.848e-01,1.784
-5.840e-01,1.792
-5.832e-01,1.784
-5.824e-01,1.784
-5.816e-01,1.792
-5.808e-01,1.808
-5.800e-01,1.816
-5.792e-01,1.816
-5.784e-01,1.808
-5.776e-01,1.808
-5.768e-01,1.784
-5.760e-01,1.792
-5.752e-01,1.784
-5.744e-01,1.784
-5.736e-01,1.776
-5.728e-01,1.784
-5.720e-01,1.776
-5.712e-01,1.776
-5.704e-01,1.76
-5.696e-01,1.752
-5.688e-01,1.752
-5.680e-01,1.752
-5.672e-01,1.776
-5.664e-01,1.784
-5.656e-01,1.768
-5.648e-01,1.776
-5.640e-01,1.792
-5.632e-01,1.792
-5.624e-01,1.792
-5.616e-01,1.792
-5.608e-01,1.808
-5.600e-01,1.808
-5.592e-01,1.816
-5.584e-01,1.808
-5.576e-01,1.8
-5.568e-01,1.792
-5.560e-01,1.792
-5.552e-01,1.792
-5.544e-01,1.776
-5.536e-01,1.784
-5.528e-01,1.792
-5.520e-01,1.776
-5.512e-01,1.784
-5.504e-01,1.76
-5.496e-01,1.744
-5.488e-01,1.768
-5.480e-01,1.768
-5.472e-01,1.776
-5.464e-01,1.784
-5.456e-01,1.784
-5.448e-01,1.792
-5.440e-01,1.792
-5.432e-01,1.792
-5.424e-01,1.792
-5.416e-01,1.792
-5.408e-01,1.808
-5.400e-01,1.824
-5.392e-01,1.816
-5.384e-01,1.816
-5.376e-01,1.8
-5.368e-01,1.792
-5.360e-01,1.792
-5.352e-01,1.792
-5.344e-01,1.784
-5.336e-01,1.784
-5.328e-01,1.792
-5.320e-01,1.784
-5.312e-01,1.784
-5.304e-01,1.768
-5.296e-01,1.752
-5.288e-01,1.768
-5.280e-01,1.776
-5.272e-01,1.784
-5.264e-01,1.792
-5.256e-01,1.792
-5.248e-01,1.792
-5.240e-01,1.8
-5.232e-01,1.8
-5.224e-01,1.8
-5.216e-01,1.8
-5.208e-01,1.816
-5.200e-01,1.824
-5.192e-01,1.832
-5.184e-01,1.824
-5.176e-01,1.808
-5.168e-01,1.8
-5.160e-01,1.808
-5.152e-01,1.8
-5.144e-01,1.792
-5.136e-01,1.784
-5.128e-01,1.8
-5.120e-01,1.8
-5.112e-01,1.784
-5.104e-01,1.768
-5.096e-01,1.76
-5.088e-01,1.768
-5.080e-01,1.776
-5.072e-01,1.784
-5.064e-01,1.8
-5.056e-01,1.792
-5.048e-01,1.8
-5.040e-01,1.808
-5.032e-01,1.808
-5.024e-01,1.8
-5.016e-01,1.816
-5.008e-01,1.832
-5.000e-01,1.84
-4.992e-01,1.848
-4.984e-01,1.84
-4.976e-01,1.824
-4.968e-01,1.824
-4.960e-01,1.824
-4.952e-01,1.816
-4.944e-01,1.824
-4.936e-01,1.808
-4.928e-01,1.816
-4.920e-01,1.808
-4.912e-01,1.816
-4.904e-01,1.792
-4.896e-01,1.784
-4.888e-01,1.792
-4.880e-01,1.808
-4.872e-01,1.816
-4.864e-01,1.816
-4.856e-01,1.816
-4.848e-01,1.832
-4.840e-01,1.824
-4.832e-01,1.824
-4.824e-01,1.832
-4.816e-01,1.832
-4.808e-01,1.848
-4.800e-01,1.856
-4.792e-01,1.864
-4.784e-01,1.864
-4.776e-01,1.848
-4.768e-01,1.84
-4.760e-01,1.84
-4.752e-01,1.832
-4.744e-01,1.832
-4.736e-01,1.832
-4.728e-01,1.832
-4.720e-01,1.832
-4.712e-01,1.832
-4.704e-01,1.8
-4.696e-01,1.8
-4.688e-01,1.808
-4.680e-01,1.816
-4.672e-01,1.824
-4.664e-01,1.824
-4.656e-01,1.824
-4.648e-01,1.832
-4.640e-01,1.832
-4.632e-01,1.832
-4.624e-01,1.832
-4.616e-01,1.832
-4.608e-01,1.856
-4.600e-01,1.856
-4.592e-01,1.864
-4.584e-01,1.856
-4.576e-01,1.84
-4.568e-01,1.84
-4.560e-01,1.832
-4.552e-01,1.824
-4.544e-01,1.832
-4.536e-01,1.824
-4.528e-01,1.824
-4.520e-01,1.824
-4.512e-01,1.816
-4.504e-01,1.784
-4.496e-01,1.784
-4.488e-01,1.792
-4.480e-01,1.8
-4.472e-01,1.808
-4.464e-01,1.808
-4.456e-01,1.808
-4.448e-01,1.808
-4.440e-01,1.816
-4.432e-01,1.808
-4.424e-01,1.808
-4.416e-01,1.8
-4.408e-01,1.824
-4.400e-01,1.824
-4.392e-01,1.84
-4.384e-01,1.824
-4.376e-01,1.8
-4.368e-01,1.8
-4.360e-01,1.792
-4.352e-01,1.8
-4.344e-01,1.792
-4.336e-01,1.784
-4.328e-01,1.776
-4.320e-01,1.784
-4.312e-01,1.776
-4.304e-01,1.752
-4.296e-01,1.744
-4.288e-01,1.744
-4.280e-01,1.752
-4.272e-01,1.76
-4.264e-01,1.768
-4.256e-01,1.76
-4.248e-01,1.76
-4.240e-01,1.76
-4.232e-01,1.752
-4.224e-01,1.768
-4.216e-01,1.76
-4.208e-01,1.768
-4.200e-01,1.776
-4.192e-01,1.768
-4.184e-01,1.768
-4.176e-01,1.752
-4.168e-01,1.744
-4.160e-01,1.736
-4.152e-01,1.736
-4.144e-01,1.728
-4.136e-01,1.728
-4.128e-01,1.72
-4.120e-01,1.712
-4.112e-01,1.712
-4.104e-01,1.688
-4.096e-01,1.68
-4.088e-01,1.672
-4.080e-01,1.68
-4.072e-01,1.688
-4.064e-01,1.688
-4.056e-01,1.696
-4.048e-01,1.688
-4.040e-01,1.688
-4.032e-01,1.68
-4.024e-01,1.688
-4.016e-01,1.68
-4.008e-01,1.696
-4.000e-01,1.712
-3.992e-01,1.704
-3.984e-01,1.696
-3.976e-01,1.68
-3.968e-01,1.672
-3.960e-01,1.672
-3.952e-01,1.656
-3.944e-01,1.656
-3.936e-01,1.648
-3.928e-01,1.64
-3.920e-01,1.632
-3.912e-01,1.632
-3.904e-01,1.6
-3.896e-01,1.6
-3.888e-01,1.6
-3.880e-01,1.6
-3.872e-01,1.608
-3.864e-01,1.608
-3.856e-01,1.608
-3.848e-01,1.608
-3.840e-01,1.624
-3.832e-01,1.608
-3.824e-01,1.608
-3.816e-01,1.608
-3.808e-01,1.616
-3.800e-01,1.632
-3.792e-01,1.624
-3.784e-01,1.616
-3.776e-01,1.608
-3.768e-01,1.592
-3.760e-01,1.592
-3.752e-01,1.584
-3.744e-01,1.576
-3.736e-01,1.576
-3.728e-01,1.568
-3.720e-01,1.568
-3.712e-01,1.56
-3.704e-01,1.536
-3.696e-01,1.528
-3.688e-01,1.528
-3.680e-01,1.536
-3.672e-01,1.536
-3.664e-01,1.544
-3.656e-01,1.544
-3.648e-01,1.536
-3.640e-01,1.544
-3.632e-01,1.536
-3.624e-01,1.536
-3.616e-01,1.544
-3.608e-01,1.552
-3.600e-01,1.56
-3.592e-01,1.56
-3.584e-01,1.544
-3.576e-01,1.544
-3.568e-01,1.536
-3.560e-01,1.536
-3.552e-01,1.52
-3.544e-01,1.52
-3.536e-01,1.512
-3.528e-01,1.504
-3.520e-01,1.504
-3.512e-01,1.504
-3.504e-01,1.48
-3.496e-01,1.464
-3.488e-01,1.472
-3.480e-01,1.488
-3.472e-01,1.496
-3.464e-01,1.496
-3.456e-01,1.496
-3.448e-01,1.496
-3.440e-01,1.504
-3.432e-01,1.504
-3.424e-01,1.496
-3.416e-01,1.504
-3.408e-01,1.512
-3.400e-01,1.528
-3.392e-01,1.528
-3.384e-01,1.52
-3.376e-01,1.512
-3.368e-01,1.512
-3.360e-01,1.504
-3.352e-01,1.496
-3.344e-01,1.488
-3.336e-01,1.488
-3.328e-01,1.488
-3.320e-01,1.496
-3.312e-01,1.488
-3.304e-01,1.464
-3.296e-01,1.464
-3.288e-01,1.464
-3.280e-01,1.472
-3.272e-01,1.488
-3.264e-01,1.48
-3.256e-01,1.488
-3.248e-01,1.496
-3.240e-01,1.496
-3.232e-01,1.496
-3.224e-01,1.496
-3.216e-01,1.504
-3.208e-01,1.512
-3.200e-01,1.528
-3.192e-01,1.528
-3.184e-01,1.52
-3.176e-01,1.52
-3.168e-01,1.504
-3.160e-01,1.512
-3.152e-01,1.512
-3.144e-01,1.496
-3.136e-01,1.504
-3.128e-01,1.504
-3.120e-01,1.512
-3.112e-01,1.504
-3.104e-01,1.488
-3.096e-01,1.488
-3.088e-01,1.488
-3.080e-01,1.496
-3.072e-01,1.512
-3.064e-01,1.52
-3.056e-01,1.52
-3.048e-01,1.528
-3.040e-01,1.528
-3.032e-01,1.536
-3.024e-01,1.536
-3.016e-01,1.536
-3.008e-01,1.552
-3.000e-01,1.568
-2.992e-01,1.576
-2.984e-01,1.576
-2.976e-01,1.552
-2.968e-01,1.552
-2.960e-01,1.56
-2.952e-01,1.552
-2.944e-01,1.552
-2.936e-01,1.56
-2.928e-01,1.56
-2.920e-01,1.552
-2.912e-01,1.56
-2.904e-01,1.544
-2.896e-01,1.544
-2.888e-01,1.544
-2.880e-01,1.552
-2.872e-01,1.56
-2.864e-01,1.576
-2.856e-01,1.576
-2.848e-01,1.584
-2.840e-01,1.6
-2.832e-01,1.6
-2.824e-01,1.6
-2.816e-01,1.608
-2.808e-01,1.624
-2.800e-01,1.64
-2.792e-01,1.64
-2.784e-01,1.64
-2.776e-01,1.64
-2.768e-01,1.632
-2.760e-01,1.632
-2.752e-01,1.632
-2.744e-01,1.632
-2.736e-01,1.624
-2.728e-01,1.632
-2.720e-01,1.64
-2.712e-01,1.64
-2.704e-01,1.616
-2.696e-01,1.624
-2.688e-01,1.616
-2.680e-01,1.632
-2.672e-01,1.648
-2.664e-01,1.656
-2.656e-01,1.672
-2.648e-01,1.672
-2.640e-01,1.672
-2.632e-01,1.68
-2.624e-01,1.68
-2.616e-01,1.688
-2.608e-01,1.704
-2.600e-01,1.72
-2.592e-01,1.728
-2.584e-01,1.72
-2.576e-01,1.72
-2.568e-01,1.72
-2.560e-01,1.728
-2.552e-01,1.72
-2.544e-01,1.72
-2.536e-01,1.72
-2.528e-01,1.728
-2.520e-01,1.728
-2.512e-01,1.728
-2.504e-01,1.704
-2.496e-01,1.704
-2.488e-01,1.712
-2.480e-01,1.72
-2.472e-01,1.736
-2.464e-01,1.744
-2.456e-01,1.76
-2.448e-01,1.76
-2.440e-01,1.768
-2.432e-01,1.768
-2.424e-01,1.768
-2.416e-01,1.776
-2.408e-01,1.792
-2.400e-01,1.816
-2.392e-01,1.816
-2.384e-01,1.808
-2.376e-01,1.808
-2.368e-01,1.808
-2.360e-01,1.8
-2.352e-01,1.8
-2.344e-01,1.8
-2.336e-01,1.8
-2.328e-01,1.8
-2.320e-01,1.808
-2.312e-01,1.808
-2.304e-01,1.792
-2.296e-01,1.784
-2.288e-01,1.792
-2.280e-01,1.8
-2.272e-01,1.816
-2.264e-01,1.832
-2.256e-01,1.832
-2.248e-01,1.848
-2.240e-01,1.848
-2.232e-01,1.848
-2.224e-01,1.864
-2.216e-01,1.864
-2.208e-01,1.864
-2.200e-01,1.896
-2.192e-01,1.904
-2.184e-01,1.896
-2.176e-01,1.888
-2.168e-01,1.888
-2.160e-01,1.88
-2.152e-01,1.88
-2.144e-01,1.88
-2.136e-01,1.88
-2.128e-01,1.88
-2.120e-01,1.896
-2.112e-01,1.88
-2.104e-01,1.872
-2.096e-01,1.856
-2.088e-01,1.864
-2.080e-01,1.88
-2.072e-01,1.896
-2.064e-01,1.896
-2.056e-01,1.904
-2.048e-01,1.904
-2.040e-01,1.912
-2.032e-01,1.92
-2.024e-01,1.92
-2.016e-01,1.92
-2.008e-01,1.936
-2.000e-01,1.944
-1.992e-01,1.96
-1.984e-01,1.952
-1.976e-01,1.952
-1.968e-01,1.944
-1.960e-01,1.944
-1.952e-01,1.944
-1.944e-01,1.936
-1.936e-01,1.936
-1.928e-01,1.944
-1.920e-01,1.936
-1.912e-01,1.944
-1.904e-01,1.928
-1.896e-01,1.92
-1.888e-01,1.92
-1.880e-01,1.928
-1.872e-01,1.944
-1.864e-01,1.952
-1.856e-01,1.96
-1.848e-01,1.96
-1.840e-01,1.96
-1.832e-01,1.96
-1.824e-01,1.968
-1.816e-01,1.968
-1.808e-01,1.976
-1.800e-01,1.992
-1.792e-01,2
-1.784e-01,1.984
-1.776e-01,1.984
-1.768e-01,1.968
-1.760e-01,1.968
-1.752e-01,1.968
-1.744e-01,1.968
-1.736e-01,1.96
-1.728e-01,1.968
-1.720e-01,1.968
-1.712e-01,1.96
-1.704e-01,1.944
-1.696e-01,1.936
-1.688e-01,1.928
-1.680e-01,1.936
-1.672e-01,1.952
-1.664e-01,1.952
-1.656e-01,1.96
-1.648e-01,1.952
-1.640e-01,1.968
-1.632e-01,1.968
-1.624e-01,1.96
-1.616e-01,1.96
-1.608e-01,1.968
-1.600e-01,1.984
-1.592e-01,1.984
-1.584e-01,1.984
-1.576e-01,1.968
-1.568e-01,1.968
-1.560e-01,1.952
-1.552e-01,1.952
-1.544e-01,1.944
-1.536e-01,1.944
-1.528e-01,1.936
-1.520e-01,1.936
-1.512e-01,1.92
-1.504e-01,1.896
-1.496e-01,1.888
-1.488e-01,1.896
-1.480e-01,1.904
-1.472e-01,1.904
-1.464e-01,1.912
-1.456e-01,1.904
-1.448e-01,1.912
-1.440e-01,1.912
-1.432e-01,1.912
-1.424e-01,1.904
-1.416e-01,1.912
-1.408e-01,1.904
-1.400e-01,1.92
-1.392e-01,1.936
-1.384e-01,1.912
-1.376e-01,1.904
-1.368e-01,1.896
-1.360e-01,1.888
-1.352e-01,1.888
-1.344e-01,1.872
-1.336e-01,1.864
-1.328e-01,1.872
-1.320e-01,1.856
-1.312e-01,1.856
-1.304e-01,1.824
-1.296e-01,1.816
-1.288e-01,1.816
-1.280e-01,1.824
-1.272e-01,1.824
-1.264e-01,1.832
-1.256e-01,1.824
-1.248e-01,1.824
-1.240e-01,1.824
-1.232e-01,1.816
-1.224e-01,1.816
-1.216e-01,1.808
-1.208e-01,1.824
-1.200e-01,1.832
-1.192e-01,1.832
-1.184e-01,1.824
-1.176e-01,1.808
-1.168e-01,1.8
-1.160e-01,1.792
-1.152e-01,1.784
-1.144e-01,1.768
-1.136e-01,1.768
-1.128e-01,1.768
-1.120e-01,1.752
-1.112e-01,1.752
-1.104e-01,1.728
-1.096e-01,1.728
-1.088e-01,1.72
-1.080e-01,1.728
-1.072e-01,1.736
-1.064e-01,1.744
-1.056e-01,1.744
-1.048e-01,1.744
-1.040e-01,1.752
-1.032e-01,1.744
-1.024e-01,1.744
-1.016e-01,1.744
-1.008e-01,1.744
-1.000e-01,1.76
-9.920e-02,1.768
-9.840e-02,1.76
-9.760e-02,1.752
-9.680e-02,1.736
-9.600e-02,1.744
-9.520e-02,1.736
-9.440e-02,1.72
-9.360e-02,1.72
-9.280e-02,1.728
-9.200e-02,1.728
-9.120e-02,1.712
-9.040e-02,1.704
-8.960e-02,1.696
-8.880e-02,1.696
-8.800e-02,1.704
-8.720e-02,1.72
-8.640e-02,1.72
-8.560e-02,1.728
-8.480e-02,1.736
-8.400e-02,1.736
-8.320e-02,1.736
-8.240e-02,1.736
-8.160e-02,1.744
-8.080e-02,1.752
-8.000e-02,1.776
-7.920e-02,1.784
-7.840e-02,1.776
-7.760e-02,1.768
-7.680e-02,1.768
-7.600e-02,1.768
-7.520e-02,1.776
-7.440e-02,1.768
-7.360e-02,1.768
-7.280e-02,1.768
-7.200e-02,1.776
-7.120e-02,1.776
-7.040e-02,1.776
-6.960e-02,1.76
-6.880e-02,1.768
-6.800e-02,1.768
-6.720e-02,1.8
-6.640e-02,1.808
-6.560e-02,1.808
-6.480e-02,1.824
-6.400e-02,1.824
-6.320e-02,1.832
-6.240e-02,1.84
-6.160e-02,1.84
-6.080e-02,1.856
-6.000e-02,1.88
-5.920e-02,1.904
-5.840e-02,1.896
-5.760e-02,1.896
-5.680e-02,1.896
-5.600e-02,1.896
-5.520e-02,1.896
-5.440e-02,1.896
-5.360e-02,1.904
-5.280e-02,1.904
-5.200e-02,1.912
-5.120e-02,1.92
-5.040e-02,1.904
-4.960e-02,1.912
-4.880e-02,1.912
-4.800e-02,1.928
-4.720e-02,1.944
-4.640e-02,1.96
-4.560e-02,1.968
-4.480e-02,1.976
-4.400e-02,1.984
-4.320e-02,2
-4.240e-02,2
-4.160e-02,2.024
-4.080e-02,2.032
-4.000e-02,2.056
-3.920e-02,2.072
-3.840e-02,2.072
-3.760e-02,2.072
-3.680e-02,2.064
-3.600e-02,2.072
-3.520e-02,2.08
-3.440e-02,2.088
-3.360e-02,2.096
-3.280e-02,2.096
-3.200e-02,2.112
-3.120e-02,2.104
-3.040e-02,2.096
-2.960e-02,2.096
-2.880e-02,2.096
-2.800e-02,2.112
-2.720e-02,2.136
-2.640e-02,2.152
-2.560e-02,2.16
-2.480e-02,2.176
-2.400e-02,2.176
-2.320e-02,2.192
-2.240e-02,2.192
-2.160e-02,2.2
-2.080e-02,2.216
-2.000e-02,2.248
-1.920e-02,2.256
-1.840e-02,2.256
-1.760e-02,2.256
-1.680e-02,2.248
-1.600e-02,2.256
-1.520e-02,2.256
-1.440e-02,2.264
-1.360e-02,2.264
-1.280e-02,2.28
-1.200e-02,2.272
-1.120e-02,2.288
-1.040e-02,2.272
-9.600e-03,2.272
-8.800e-03,2.28
-8.000e-03,2.288
-7.200e-03,2.312
-6.400e-03,2.32
-5.600e-03,2.336
-4.800e-03,2.344
-4.000e-03,2.36
-3.200e-03,2.352
-2.400e-03,2.368
-1.600e-03,2.376
-8.000e-04,2.376
9.629e-15,2.408
8.000e-04,2.424
1.600e-03,2.424
2.400e-03,2.408
3.200e-03,2.416
4.000e-03,2.416
4.800e-03,2.416
5.600e-03,2.416
6.400e-03,2.424
7.200e-03,2.424
8.000e-03,2.432
8.800e-03,2.44
9.600e-03,2.424
1.040e-02,2.416
1.120e-02,2.424
1.200e-02,2.432
1.280e-02,2.456
1.360e-02,2.456
1.440e-02,2.464
1.520e-02,2.48
1.600e-02,2.48
1.680e-02,2.488
1.760e-02,2.496
1.840e-02,2.504
1.920e-02,2.512
2.000e-02,2.536
2.080e-02,2.544
2.160e-02,2.544
2.240e-02,2.536
2.320e-02,2.536
2.400e-02,2.536
2.480e-02,2.544
2.560e-02,2.536
2.640e-02,2.536
2.720e-02,2.536
2.800e-02,2.536
2.880e-02,2.552
2.960e-02,2.528
3.040e-02,2.528
3.120e-02,2.52
3.200e-02,2.536
3.280e-02,2.552
3.360e-02,2.552
3.440e-02,2.568
3.520e-02,2.568
3.600e-02,2.584
3.680e-02,2.576
3.760e-02,2.592
3.840e-02,2.592
3.920e-02,2.592
4.000e-02,2.624
4.080e-02,2.632
4.160e-02,2.632
4.240e-02,2.616
4.320e-02,2.608
4.400e-02,2.624
4.480e-02,2.616
4.560e-02,2.608
4.640e-02,2.624
4.720e-02,2.624
4.800e-02,2.616
4.880e-02,2.616
4.960e-02,2.6
5.040e-02,2.6
5.120e-02,2.592
5.200e-02,2.6
5.280e-02,2.608
5.360e-02,2.624
5.440e-02,2.632
5.520e-02,2.64
5.600e-02,2.64
5.680e-02,2.64
5.760e-02,2.648
5.840e-02,2.656
5.920e-02,2.656
6.000e-02,2.68
6.080e-02,2.688
6.160e-02,2.68
6.240e-02,2.672
6.320e-02,2.672
6.400e-02,2.664
6.480e-02,2.664
6.560e-02,2.656
6.640e-02,2.664
6.720e-02,2.656
6.800e-02,2.664
6.880e-02,2.656
6.960e-02,2.648
7.040e-02,2.632
7.120e-02,2.64
7.200e-02,2.648
7.280e-02,2.664
7.360e-02,2.664
7.440e-02,2.672
7.520e-02,2.672
7.600e-02,2.68
7.680e-02,2.672
7.760e-02,2.688
7.840e-02,2.688
7.920e-02,2.696
8.000e-02,2.712
8.080e-02,2.72
8.160e-02,2.72
8.240e-02,2.704
8.320e-02,2.704
8.400e-02,2.696
8.480e-02,2.696
8.560e-02,2.688
8.640e-02,2.688
8.720e-02,2.688
8.800e-02,2.688
8.880e-02,2.696
8.960e-02,2.672
9.040e-02,2.656
9.120e-02,2.664
9.200e-02,2.672
9.280e-02,2.68
9.360e-02,2.688
9.440e-02,2.688
9.520e-02,2.688
9.600e-02,2.696
9.680e-02,2.704
9.760e-02,2.696
9.840e-02,2.696
9.920e-02,2.704
1.000e-01,2.736
1.008e-01,2.736
1.016e-01,2.728
1.024e-01,2.72
1.032e-01,2.712
1.040e-01,2.704
1.048e-01,2.704
1.056e-01,2.696
1.064e-01,2.704
1.072e-01,2.704
1.080e-01,2.696
1.088e-01,2.696
1.096e-01,2.68
1.104e-01,2.68
1.112e-01,2.68
1.120e-01,2.68
1.128e-01,2.688
1.136e-01,2.696
1.144e-01,2.696
1.152e-01,2.704
1.160e-01,2.704
1.168e-01,2.712
1.176e-01,2.712
1.184e-01,2.72
1.192e-01,2.72
1.200e-01,2.736
1.208e-01,2.744
1.216e-01,2.744
1.224e-01,2.728
1.232e-01,2.72
1.240e-01,2.728
1.248e-01,2.712
1.256e-01,2.712
1.264e-01,2.712
1.272e-01,2.712
1.280e-01,2.704
1.288e-01,2.712
1.296e-01,2.696
1.304e-01,2.68
1.312e-01,2.68
1.320e-01,2.68
1.328e-01,2.696
1.336e-01,2.704
1.344e-01,2.704
1.352e-01,2.712
1.360e-01,2.72
1.368e-01,2.712
1.376e-01,2.712
1.384e-01,2.72
1.392e-01,2.712
1.400e-01,2.744
1.408e-01,2.744
1.416e-01,2.752
1.424e-01,2.744
1.432e-01,2.728
1.440e-01,2.72
1.448e-01,2.72
1.456e-01,2.72
1.464e-01,2.712
1.472e-01,2.712
1.480e-01,2.712
1.488e-01,2.712
1.496e-01,2.696
1.504e-01,2.688
1.512e-01,2.696
1.520e-01,2.696
1.528e-01,2.696
1.536e-01,2.704
1.544e-01,2.704
1.552e-01,2.72
1.560e-01,2.728
1.568e-01,2.72
1.576e-01,2.72
1.584e-01,2.72
1.592e-01,2.72
1.600e-01,2.744
1.608e-01,2.744
1.616e-01,2.744
1.624e-01,2.736
1.632e-01,2.72
1.640e-01,2.728
1.648e-01,2.728
1.656e-01,2.712
1.664e-01,2.712
1.672e-01,2.712
1.680e-01,2.712
1.688e-01,2.712
1.696e-01,2.696
1.704e-01,2.68
1.712e-01,2.688
1.720e-01,2.688
1.728e-01,2.696
1.736e-01,2.704
1.744e-01,2.72
1.752e-01,2.712
1.760e-01,2.72
1.768e-01,2.712
1.776e-01,2.72
1.784e-01,2.72
1.792e-01,2.728
1.800e-01,2.744
1.808e-01,2.744
1.816e-01,2.744
1.824e-01,2.736
1.832e-01,2.728
1.840e-01,2.728
1.848e-01,2.72
1.856e-01,2.72
1.864e-01,2.712
1.872e-01,2.72
1.880e-01,2.72
1.888e-01,2.712
1.896e-01,2.696
1.904e-01,2.688
1.912e-01,2.688
1.920e-01,2.696
1.928e-01,2.704
1.936e-01,2.712
1.944e-01,2.712
1.952e-01,2.712
1.960e-01,2.72
1.968e-01,2.72
1.976e-01,2.72
1.984e-01,2.72
1.992e-01,2.736
2.000e-01,2.752
2.008e-01,2.76
2.016e-01,2.752
2.024e-01,2.736
2.032e-01,2.736
2.040e-01,2.736
2.048e-01,2.744
2.056e-01,2.736
2.064e-01,2.728
2.072e-01,2.728
2.080e-01,2.72
2.088e-01,2.72
2.096e-01,2.712
2.104e-01,2.696
2.112e-01,2.688
2.120e-01,2.704
2.128e-01,2.712
2.136e-01,2.728
2.144e-01,2.72
2.152e-01,2.728
2.160e-01,2.728
2.168e-01,2.736
2.176e-01,2.72
2.184e-01,2.736
2.192e-01,2.736
2.200e-01,2.76
2.208e-01,2.76
2.216e-01,2.76
2.224e-01,2.752
2.232e-01,2.744
2.240e-01,2.728
2.248e-01,2.736
2.256e-01,2.728
2.264e-01,2.728
2.272e-01,2.728
2.280e-01,2.736
2.288e-01,2.728
2.296e-01,2.72
2.304e-01,2.704
2.312e-01,2.704
2.320e-01,2.712
2.328e-01,2.712
2.336e-01,2.728
2.344e-01,2.728
2.352e-01,2.736
2.360e-01,2.736
2.368e-01,2.744
2.376e-01,2.744
2.384e-01,2.736
2.392e-01,2.736
2.400e-01,2.768
2.408e-01,2.768
2.416e-01,2.768
2.424e-01,2.76
2.432e-01,2.752
2.440e-01,2.744
2.448e-01,2.744
2.456e-01,2.736
2.464e-01,2.728
2.472e-01,2.728
2.480e-01,2.736
2.488e-01,2.728
2.496e-01,2.712
2.504e-01,2.704
2.512e-01,2.704
2.520e-01,2.704
2.528e-01,2.712
2.536e-01,2.72
2.544e-01,2.728
2.552e-01,2.736
2.560e-01,2.728
2.568e-01,2.728
2.576e-01,2.736
2.584e-01,2.736
2.592e-01,2.736
2.600e-01,2.76
2.608e-01,2.76
2.616e-01,2.76
2.624e-01,2.752
2.632e-01,2.744
2.640e-01,2.736
2.648e-01,2.728
2.656e-01,2.728
2.664e-01,2.728
2.672e-01,2.72
2.680e-01,2.72
2.688e-01,2.712
2.696e-01,2.704
2.704e-01,2.688
2.712e-01,2.688
2.720e-01,2.688
2.728e-01,2.704
2.736e-01,2.696
2.744e-01,2.704
2.752e-01,2.704
2.760e-01,2.704
2.768e-01,2.712
2.776e-01,2.704
2.784e-01,2.696
2.792e-01,2.704
2.800e-01,2.728
2.808e-01,2.728
2.816e-01,2.72
2.824e-01,2.712
2.832e-01,2.704
2.840e-01,2.696
2.848e-01,2.688
2.856e-01,2.688
2.864e-01,2.68
2.872e-01,2.672
2.880e-01,2.664
2.888e-01,2.664
2.896e-01,2.648
2.904e-01,2.64
2.912e-01,2.632
2.920e-01,2.632
2.928e-01,2.64
2.936e-01,2.648
2.944e-01,2.648
2.952e-01,2.648
2.960e-01,2.648
2.968e-01,2.64
2.976e-01,2.64
2.984e-01,2.64
2.992e-01,2.64
3.000e-01,2.664
3.008e-01,2.664
3.016e-01,2.656
3.024e-01,2.64
3.032e-01,2.624
3.040e-01,2.616
3.048e-01,2.616
3.056e-01,2.616
3.064e-01,2.6
3.072e-01,2.592
3.080e-01,2.6
3.088e-01,2.592
3.096e-01,2.56
3.104e-01,2.552
3.112e-01,2.552
3.120e-01,2.552
3.128e-01,2.56
3.136e-01,2.56
3.144e-01,2.552
3.152e-01,2.56
3.160e-01,2.56
3.168e-01,2.56
3.176e-01,2.544
3.184e-01,2.544
3.192e-01,2.544
3.200e-01,2.56
3.208e-01,2.56
3.216e-01,2.56
3.224e-01,2.544
3.232e-01,2.536
3.240e-01,2.52
3.248e-01,2.52
3.256e-01,2.504
3.264e-01,2.496
3.272e-01,2.504
3.280e-01,2.488
3.288e-01,2.488
3.296e-01,2.464
3.304e-01,2.456
3.312e-01,2.448
3.320e-01,2.448
3.328e-01,2.448
3.336e-01,2.456
3.344e-01,2.456
3.352e-01,2.456
