lab_data/40 - 40/TEK00010.CSV

Model,TBS1102C
Firmware Version,v2015-08-04-prequal4ch70_v1.3

Point Format,Y
Horizontal Units,S
Horizontal Scale,0.04
Sample Interval,0.00032
Filter Frequency,2e+08
Record Length,2000
Gating,0.0% to 100.0%
Probe Attenuation,1
Vertical Units,V
Vertical Offset,1
Vertical Scale,0.2
Label,
TIME,CH1
-2.003e-01,1.752
-2.000e-01,1.752
-1.997e-01,1.752
-1.994e-01,1.76
-1.990e-01,1.76
-1.987e-01,1.776
-1.984e-01,1.776
-1.981e-01,1.784
-1.978e-01,1.792
-1.974e-01,1.784
-1.971e-01,1.776
-1.968e-01,1.776
-1.965e-01,1.768
-1.962e-01,1.776
-1.958e-01,1.768
-1.955e-01,1.768
-1.952e-01,1.76
-1.949e-01,1.76
-1.946e-01,1.76
-1.942e-01,1.76
-1.939e-01,1.76
-1.936e-01,1.744
-1.933e-01,1.752
-1.930e-01,1.752
-1.926e-01,1.752
-1.923e-01,1.76
-1.920e-01,1.752
-1.917e-01,1.736
-1.914e-01,1.744
-1.910e-01,1.752
-1.907e-01,1.752
-1.904e-01,1.744
-1.901e-01,1.744
-1.898e-01,1.744
-1.894e-01,1.752
-1.891e-01,1.744
-1.888e-01,1.728
-1.885e-01,1.72
-1.882e-01,1.72
-1.878e-01,1.728
-1.875e-01,1.72
-1.872e-01,1.72
-1.869e-01,1.728
-1.866e-01,1.728
-1.862e-01,1.728
-1.859e-01,1.744
-1.856e-01,1.736
-1.853e-01,1.736
-1.850e-01,1.744
-1.846e-01,1.752
-1.843e-01,1.744
-1.840e-01,1.744
-1.837e-01,1.744
-1.834e-01,1.752
-1.830e-01,1.752
-1.827e-01,1.752
-1.824e-01,1.752
-1.821e-01,1.752
-1.818e-01,1.752
-1.814e-01,1.76
-1.811e-01,1.752
-1.808e-01,1.752
-1.805e-01,1.76
-1.802e-01,1.76
-1.798e-01,1.76
-1.795e-01,1.752
-1.792e-01,1.76
-1.789e-01,1.768
-1.786e-01,1.776
-1.782e-01,1.784
-1.779e-01,1.8
-1.776e-01,1.784
-1.773e-01,1.792
-1.770e-01,1.784
-1.766e-01,1.784
-1.763e-01,1.776
-1.760e-01,1.776
-1.757e-01,1.776
-1.754e-01,1.768
-1.750e-01,1.768
-1.747e-01,1.768
-1.744e-01,1.76
-1.741e-01,1.768
-1.738e-01,1.76
-1.734e-01,1.76
-1.731e-01,1.752
-1.728e-01,1.752
-1.725e-01,1.752
-1.722e-01,1.752
-1.718e-01,1.752
-1.715e-01,1.744
-1.712e-01,1.752
-1.709e-01,1.752
-1.706e-01,1.752
-1.702e-01,1.744
-1.699e-01,1.744
-1.696e-01,1.752
-1.693e-01,1.744
-1.690e-01,1.736
-1.686e-01,1.728
-1.683e-01,1.72
-1.680e-01,1.712
-1.677e-01,1.712
-1.674e-01,1.712
-1.670e-01,1.72
-1.667e-01,1.712
-1.664e-01,1.72
-1.661e-01,1.728
-1.658e-01,1.728
-1.654e-01,1.736
-1.651e-01,1.736
-1.648e-01,1.736
-1.645e-01,1.736
-1.642e-01,1.736
-1.638e-01,1.736
-1.635e-01,1.744
-1.632e-01,1.736
-1.629e-01,1.744
-1.626e-01,1.744
-1.622e-01,1.752
-1.619e-01,1.736
-1.616e-01,1.752
-1.613e-01,1.744
-1.610e-01,1.744
-1.606e-01,1.744
-1.603e-01,1.736
-1.600e-01,1.744
-1.597e-01,1.744
-1.594e-01,1.744
-1.590e-01,1.744
-1.587e-01,1.76
-1.584e-01,1.76
-1.581e-01,1.768
-1.578e-01,1.768
-1.574e-01,1.768
-1.571e-01,1.768
-1.568e-01,1.752
-1.565e-01,1.76
-1.562e-01,1.752
-1.558e-01,1.752
-1.555e-01,1.744
-1.552e-01,1.736
-1.549e-01,1.744
-1.546e-01,1.744
-1.542e-01,1.744
-1.539e-01,1.736
-1.536e-01,1.736
-1.533e-01,1.736
-1.530e-01,1.736
-1.526e-01,1.728
-1.523e-01,1.728
-1.520e-01,1.728
-1.517e-01,1.728
-1.514e-01,1.736
-1.510e-01,1.728
-1.507e-01,1.728
-1.504e-01,1.736
-1.501e-01,1.736
-1.498e-01,1.736
-1.494e-01,1.728
-1.491e-01,1.728
-1.488e-01,1.72
-1.485e-01,1.72
-1.482e-01,1.712
-1.478e-01,1.712
-1.475e-01,1.72
-1.472e-01,1.712
-1.469e-01,1.72
-1.466e-01,1.72
-1.462e-01,1.72
-1.459e-01,1.736
-1.456e-01,1.736
-1.453e-01,1.744
-1.450e-01,1.744
-1.446e-01,1.744
-1.443e-01,1.752
-1.440e-01,1.752
-1.437e-01,1.752
-1.434e-01,1.752
-1.430e-01,1.76
-1.427e-01,1.76
-1.424e-01,1.76
-1.421e-01,1.768
-1.418e-01,1.768
-1.414e-01,1.76
-1.411e-01,1.76
-1.408e-01,1.768
-1.405e-01,1.768
-1.402e-01,1.768
-1.398e-01,1.768
-1.395e-01,1.776
-1.392e-01,1.776
-1.389e-01,1.792
-1.386e-01,1.792
-1.382e-01,1.8
-1.379e-01,1.808
-1.376e-01,1.808
-1.373e-01,1.808
-1.370e-01,1.8
-1.366e-01,1.792
-1.363e-01,1.792
-1.360e-01,1.792
-1.357e-01,1.784
-1.354e-01,1.784
-1.350e-01,1.784
-1.347e-01,1.776
-1.344e-01,1.792
-1.341e-01,1.776
-1.338e-01,1.784
-1.334e-01,1.784
-1.331e-01,1.768
-1.328e-01,1.776
-1.325e-01,1.776
-1.322e-01,1.776
-1.318e-01,1.776
-1.315e-01,1.776
-1.312e-01,1.776
-1.309e-01,1.776
-1.306e-01,1.776
-1.302e-01,1.776
-1.299e-01,1.784
-1.296e-01,1.784
-1.293e-01,1.784
-1.290e-01,1.768
-1.286e-01,1.752
-1.283e-01,1.76
-1.280e-01,1.76
-1.277e-01,1.76
-1.274e-01,1.752
-1.270e-01,1.752
-1.267e-01,1.76
-1.264e-01,1.768
-1.261e-01,1.768
-1.258e-01,1.784
-1.254e-01,1.784
-1.251e-01,1.792
-1.248e-01,1.792
-1.245e-01,1.792
-1.242e-01,1.792
-1.238e-01,1.8
-1.235e-01,1.808
-1.232e-01,1.808
-1.229e-01,1.808
-1.226e-01,1.8
-1.222e-01,1.808
-1.219e-01,1.808
-1.216e-01,1.808
-1.213e-01,1.8
-1.210e-01,1.816
-1.206e-01,1.808
-1.203e-01,1.816
-1.200e-01,1.816
-1.197e-01,1.808
-1.194e-01,1.816
-1.190e-01,1.816
-1.187e-01,1.832
-1.184e-01,1.832
-1.181e-01,1.832
-1.178e-01,1.832
-1.174e-01,1.84
-1.171e-01,1.848
-1.168e-01,1.832
-1.165e-01,1.824
-1.162e-01,1.816
-1.158e-01,1.808
-1.155e-01,1.808
-1.152e-01,1.8
-1.149e-01,1.8
-1.146e-01,1.792
-1.142e-01,1.792
-1.139e-01,1.792
-1.136e-01,1.784
-1.133e-01,1.784
-1.130e-01,1.776
-1.126e-01,1.768
-1.123e-01,1.768
-1.120e-01,1.768
-1.117e-01,1.76
-1.114e-01,1.76
-1.110e-01,1.752
-1.107e-01,1.752
-1.104e-01,1.752
-1.101e-01,1.744
-1.098e-01,1.736
-1.094e-01,1.744
-1.091e-01,1.728
-1.088e-01,1.712
-1.085e-01,1.696
-1.082e-01,1.696
-1.078e-01,1.688
-1.075e-01,1.68
-1.072e-01,1.68
-1.069e-01,1.672
-1.066e-01,1.672
-1.062e-01,1.672
-1.059e-01,1.68
-1.056e-01,1.68
-1.053e-01,1.68
-1.050e-01,1.672
-1.046e-01,1.664
-1.043e-01,1.664
-1.040e-01,1.656
-1.037e-01,1.656
-1.034e-01,1.656
-1.030e-01,1.656
-1.027e-01,1.648
-1.024e-01,1.64
-1.021e-01,1.648
-1.018e-01,1.632
-1.014e-01,1.624
-1.011e-01,1.632
-1.008e-01,1.624
-1.005e-01,1.616
-1.002e-01,1.616
-9.984e-02,1.616
-9.952e-02,1.608
-9.920e-02,1.6
-9.888e-02,1.616
-9.856e-02,1.616
-9.824e-02,1.616
-9.792e-02,1.616
-9.760e-02,1.6
-9.728e-02,1.6
-9.696e-02,1.592
-9.664e-02,1.592
-9.632e-02,1.584
-9.600e-02,1.576
-9.568e-02,1.568
-9.536e-02,1.56
-9.504e-02,1.552
-9.472e-02,1.552
-9.440e-02,1.544
-9.408e-02,1.536
-9.376e-02,1.536
-9.344e-02,1.536
-9.312e-02,1.52
-9.280e-02,1.52
-9.248e-02,1.504
-9.216e-02,1.512
-9.184e-02,1.512
-9.152e-02,1.512
-9.120e-02,1.504
-9.088e-02,1.488
-9.056e-02,1.504
-9.024e-02,1.488
-8.992e-02,1.496
-8.960e-02,1.488
-8.928e-02,1.488
-8.896e-02,1.472
-8.864e-02,1.456
-8.832e-02,1.456
-8.800e-02,1.456
-8.768e-02,1.456
-8.736e-02,1.456
-8.704e-02,1.448
-8.672e-02,1.456
-8.640e-02,1.448
-8.608e-02,1.456
-8.576e-02,1.464
-8.544e-02,1.472
-8.512e-02,1.472
-8.480e-02,1.472
-8.448e-02,1.472
-8.416e-02,1.48
-8.384e-02,1.48
-8.352e-02,1.488
-8.320e-02,1.48
-8.288e-02,1.488
-8.256e-02,1.496
-8.224e-02,1.488
-8.192e-02,1.496
-8.160e-02,1.496
-8.128e-02,1.496
-8.096e-02,1.504
-8.064e-02,1.496
-8.032e-02,1.504
-8.000e-02,1.504
-7.968e-02,1.512
-7.936e-02,1.512
-7.904e-02,1.528
-7.872e-02,1.544
-7.840e-02,1.552
-7.808e-02,1.552
-7.776e-02,1.56
-7.744e-02,1.56
-7.712e-02,1.56
-7.680e-02,1.568
-7.648e-02,1.568
-7.616e-02,1.568
-7.584e-02,1.568
-7.552e-02,1.56
-7.520e-02,1.56
-7.488e-02,1.576
-7.456e-02,1.576
-7.424e-02,1.576
-7.392e-02,1.576
-7.360e-02,1.576
-7.328e-02,1.592
-7.296e-02,1.592
-7.264e-02,1.592
-7.232e-02,1.592
-7.200e-02,1.6
-7.168e-02,1.6
-7.136e-02,1.608
-7.104e-02,1.608
-7.072e-02,1.624
-7.040e-02,1.624
-7.008e-02,1.624
-6.976e-02,1.632
-6.944e-02,1.632
-6.912e-02,1.632
-6.880e-02,1.64
-6.848e-02,1.632
-6.816e-02,1.632
-6.784e-02,1.632
-6.752e-02,1.64
-6.720e-02,1.648
-6.688e-02,1.656
-6.656e-02,1.664
-6.624e-02,1.672
-6.592e-02,1.688
-6.560e-02,1.688
-6.528e-02,1.696
-6.496e-02,1.72
-6.464e-02,1.712
-6.432e-02,1.72
-6.400e-02,1.728
-6.368e-02,1.736
-6.336e-02,1.744
-6.304e-02,1.752
-6.272e-02,1.76
-6.240e-02,1.76
-6.208e-02,1.768
-6.176e-02,1.776
-6.144e-02,1.776
-6.112e-02,1.784
-6.080e-02,1.792
-6.048e-02,1.8
-6.016e-02,1.8
-5.984e-02,1.8
-5.952e-02,1.808
-5.920e-02,1.824
-5.888e-02,1.832
-5.856e-02,1.848
-5.824e-02,1.848
-5.792e-02,1.864
-5.760e-02,1.864
-5.728e-02,1.872
-5.696e-02,1.864
-5.664e-02,1.864
-5.632e-02,1.872
-5.600e-02,1.872
-5.568e-02,1.872
-5.536e-02,1.872
-5.504e-02,1.864
-5.472e-02,1.872
-5.440e-02,1.888
-5.408e-02,1.888
-5.376e-02,1.88
-5.344e-02,1.88
-5.312e-02,1.888
-5.280e-02,1.888
-5.248e-02,1.896
-5.216e-02,1.888
-5.184e-02,1.896
-5.152e-02,1.904
-5.120e-02,1.904
-5.088e-02,1.904
-5.056e-02,1.912
-5.024e-02,1.912
-4.992e-02,1.912
-4.960e-02,1.92
-4.928e-02,1.92
-4.896e-02,1.904
-4.864e-02,1.896
-4.832e-02,1.904
-4.800e-02,1.896
-4.768e-02,1.896
-4.736e-02,1.896
-4.704e-02,1.896
-4.672e-02,1.904
-4.640e-02,1.904
-4.608e-02,1.912
-4.576e-02,1.912
-4.544e-02,1.92
-4.512e-02,1.912
-4.480e-02,1.92
-4.448e-02,1.92
-4.416e-02,1.92
-4.384e-02,1.92
-4.352e-02,1.912
-4.320e-02,1.92
-4.288e-02,1.92
-4.256e-02,1.912
-4.224e-02,1.92
-4.192e-02,1.92
-4.160e-02,1.92
-4.128e-02,1.912
-4.096e-02,1.904
-4.064e-02,1.904
-4.032e-02,1.896
-4.000e-02,1.896
-3.968e-02,1.896
-3.936e-02,1.888
-3.904e-02,1.896
-3.872e-02,1.904
-3.840e-02,1.904
-3.808e-02,1.904
-3.776e-02,1.904
-3.744e-02,1.888
-3.712e-02,1.88
-3.680e-02,1.888
-3.648e-02,1.872
-3.616e-02,1.856
-3.584e-02,1.856
-3.552e-02,1.848
-3.520e-02,1.84
-3.488e-02,1.832
-3.456e-02,1.824
-3.424e-02,1.808
-3.392e-02,1.808
-3.360e-02,1.8
-3.328e-02,1.8
-3.296e-02,1.792
-3.264e-02,1.784
-3.232e-02,1.776
-3.200e-02,1.776
-3.168e-02,1.76
-3.136e-02,1.752
-3.104e-02,1.744
-3.072e-02,1.752
-3.040e-02,1.752
-3.008e-02,1.736
-2.976e-02,1.736
-2.944e-02,1.728
-2.912e-02,1.72
-2.880e-02,1.704
-2.848e-02,1.696
-2.816e-02,1.68
-2.784e-02,1.68
-2.752e-02,1.672
-2.720e-02,1.688
-2.688e-02,1.68
-2.656e-02,1.68
-2.624e-02,1.688
-2.592e-02,1.688
-2.560e-02,1.696
-2.528e-02,1.696
-2.496e-02,1.704
-2.464e-02,1.696
-2.432e-02,1.712
-2.400e-02,1.712
-2.368e-02,1.712
-2.336e-02,1.72
-2.304e-02,1.728
-2.272e-02,1.728
-2.240e-02,1.736
-2.208e-02,1.736
-2.176e-02,1.744
-2.144e-02,1.752
-2.112e-02,1.76
-2.080e-02,1.76
-2.048e-02,1.752
-2.016e-02,1.776
-1.984e-02,1.776
-1.952e-02,1.792
-1.920e-02,1.792
-1.888e-02,1.808
-1.856e-02,1.824
-1.824e-02,1.84
-1.792e-02,1.856
-1.760e-02,1.864
-1.728e-02,1.864
-1.696e-02,1.872
-1.664e-02,1.888
-1.632e-02,1.888
-1.600e-02,1.888
-1.568e-02,1.896
-1.536e-02,1.904
-1.504e-02,1.92
-1.472e-02,1.92
-1.440e-02,1.928
-1.408e-02,1.936
-1.376e-02,1.952
-1.344e-02,1.96
-1.312e-02,1.968
-1.280e-02,1.976
-1.248e-02,1.976
-1.216e-02,1.992
-1.184e-02,2.008
-1.152e-02,2.016
-1.120e-02,2.024
-1.088e-02,2.04
-1.056e-02,2.048
-1.024e-02,2.064
-9.920e-03,2.072
-9.600e-03,2.08
-9.280e-03,2.088
-8.960e-03,2.088
-8.640e-03,2.088
-8.320e-03,2.096
-8.000e-03,2.104
-7.680e-03,2.112
-7.360e-03,2.128
-7.040e-03,2.136
-6.720e-03,2.144
-6.400e-03,2.16
-6.080e-03,2.168
-5.760e-03,2.184
-5.440e-03,2.208
-5.120e-03,2.224
-4.800e-03,2.232
-4.480e-03,2.24
-4.160e-03,2.248
-3.840e-03,2.256
-3.520e-03,2.272
-3.200e-03,2.28
-2.880e-03,2.288
-2.560e-03,2.304
-2.240e-03,2.312
-1.920e-03,2.312
-1.600e-03,2.328
-1.280e-03,2.336
-9.600e-04,2.344
-6.400e-04,2.352
-3.200e-04,2.352
-2.700e-15,2.36
3.200e-04,2.368
6.400e-04,2.376
9.600e-04,2.4
1.280e-03,2.416
1.600e-03,2.432
1.920e-03,2.432
2.240e-03,2.456
2.560e-03,2.448
2.880e-03,2.464
3.200e-03,2.456
3.520e-03,2.456
3.840e-03,2.456
4.160e-03,2.464
4.480e-03,2.464
4.800e-03,2.472
5.120e-03,2.472
5.440e-03,2.472
5.760e-03,2.48
6.080e-03,2.48
6.400e-03,2.48
6.720e-03,2.48
7.040e-03,2.488
7.360e-03,2.496
7.680e-03,2.496
8.000e-03,2.504
8.320e-03,2.504
8.640e-03,2.512
8.960e-03,2.512
9.280e-03,2.512
9.600e-03,2.52
9.920e-03,2.52
1.024e-02,2.528
1.056e-02,2.528
1.088e-02,2.512
1.120e-02,2.512
1.152e-02,2.512
1.184e-02,2.52
1.216e-02,2.512
1.248e-02,2.52
1.280e-02,2.52
1.312e-02,2.528
1.344e-02,2.536
1.376e-02,2.536
1.408e-02,2.552
1.440e-02,2.56
1.472e-02,2.56
1.504e-02,2.568
1.536e-02,2.568
1.568e-02,2.568
1.600e-02,2.576
1.632e-02,2.584
1.664e-02,2.576
1.696e-02,2.584
1.728e-02,2.584
1.760e-02,2.592
1.792e-02,2.6
1.824e-02,2.6
1.856e-02,2.592
1.888e-02,2.592
1.920e-02,2.6
1.952e-02,2.6
1.984e-02,2.608
2.016e-02,2.6
2.048e-02,2.608
2.080e-02,2.608
2.112e-02,2.624
2.144e-02,2.632
2.176e-02,2.64
2.208e-02,2.64
2.240e-02,2.648
2.272e-02,2.648
2.304e-02,2.64
2.336e-02,2.64
2.368e-02,2.632
2.400e-02,2.64
2.432e-02,2.632
2.464e-02,2.632
2.496e-02,2.632
2.528e-02,2.624
2.560e-02,2.632
2.592e-02,2.632
2.624e-02,2.632
2.656e-02,2.632
2.688e-02,2.632
2.720e-02,2.624
2.752e-02,2.624
2.784e-02,2.624
2.816e-02,2.624
2.848e-02,2.624
2.880e-02,2.624
2.912e-02,2.632
2.944e-02,2.632
2.976e-02,2.632
3.008e-02,2.632
3.040e-02,2.632
3.072e-02,2.632
3.104e-02,2.616
3.136e-02,2.608
3.168e-02,2.6
3.200e-02,2.6
3.232e-02,2.6
3.264e-02,2.608
3.296e-02,2.6
3.328e-02,2.608
3.360e-02,2.608
3.392e-02,2.616
3.424e-02,2.624
3.456e-02,2.632
3.488e-02,2.624
3.520e-02,2.624
3.552e-02,2.64
3.584e-02,2.632
3.616e-02,2.64
3.648e-02,2.64
3.680e-02,2.632
3.712e-02,2.64
3.744e-02,2.64
3.776e-02,2.64
3.808e-02,2.64
3.840e-02,2.648
3.872e-02,2.64
3.904e-02,2.64
3.936e-02,2.64
3.968e-02,2.648
4.000e-02,2.648
4.032e-02,2.656
4.064e-02,2.648
4.096e-02,2.656
4.128e-02,2.664
4.160e-02,2.68
4.192e-02,2.68
4.224e-02,2.68
4.256e-02,2.68
4.288e-02,2.68
4.320e-02,2.68
4.352e-02,2.672
4.384e-02,2.664
4.416e-02,2.656
4.448e-02,2.664
4.480e-02,2.664
4.512e-02,2.656
4.544e-02,2.656
4.576e-02,2.648
4.608e-02,2.656
4.640e-02,2.656
4.672e-02,2.656
4.704e-02,2.648
4.736e-02,2.64
4.768e-02,2.656
4.800e-02,2.648
4.832e-02,2.648
4.864e-02,2.648
4.896e-02,2.648
4.928e-02,2.656
4.960e-02,2.648
4.992e-02,2.648
5.024e-02,2.648
5.056e-02,2.648
5.088e-02,2.64
5.120e-02,2.632
5.152e-02,2.624
5.184e-02,2.616
5.216e-02,2.616
5.248e-02,2.624
5.280e-02,2.624
5.312e-02,2.632
5.344e-02,2.624
5.376e-02,2.624
5.408e-02,2.64
5.440e-02,2.64
5.472e-02,2.648
5.504e-02,2.64
5.536e-02,2.648
5.568e-02,2.656
5.600e-02,2.648
5.632e-02,2.648
5.664e-02,2.648
5.696e-02,2.656
5.728e-02,2.656
5.760e-02,2.664
5.792e-02,2.664
5.824e-02,2.664
5.856e-02,2.664
5.888e-02,2.656
5.920e-02,2.656
5.952e-02,2.664
5.984e-02,2.656
6.016e-02,2.664
6.048e-02,2.664
6.080e-02,2.664
6.112e-02,2.688
6.144e-02,2.688
6.176e-02,2.688
6.208e-02,2.696
6.240e-02,2.696
6.272e-02,2.696
6.304e-02,2.688
6.336e-02,2.688
6.368e-02,2.688
6.400e-02,2.68
6.432e-02,2.672
6.464e-02,2.664
6.496e-02,2.672
6.528e-02,2.672
6.560e-02,2.68
6.592e-02,2.664
6.624e-02,2.664
6.656e-02,2.664
6.688e-02,2.664
6.720e-02,2.664
6.752e-02,2.664
6.784e-02,2.664
6.816e-02,2.656
6.848e-02,2.664
6.880e-02,2.664
6.912e-02,2.656
6.944e-02,2.656
6.976e-02,2.664
7.008e-02,2.656
7.040e-02,2.656
7.072e-02,2.664
7.104e-02,2.64
7.136e-02,2.632
7.168e-02,2.64
7.200e-02,2.632
7.232e-02,2.624
7.264e-02,2.624
7.296e-02,2.632
7.328e-02,2.64
7.360e-02,2.64
7.392e-02,2.64
7.424e-02,2.648
7.456e-02,2.656
7.488e-02,2.656
7.520e-02,2.656
7.552e-02,2.648
7.584e-02,2.656
7.616e-02,2.664
7.648e-02,2.664
7.680e-02,2.664
7.712e-02,2.656
7.744e-02,2.664
7.776e-02,2.672
7.808e-02,2.672
7.840e-02,2.664
7.872e-02,2.664
7.904e-02,2.664
7.936e-02,2.664
7.968e-02,2.672
8.000e-02,2.664
8.032e-02,2.672
8.064e-02,2.672
8.096e-02,2.688
8.128e-02,2.696
8.160e-02,2.696
8.192e-02,2.696
8.224e-02,2.704
8.256e-02,2.696
8.288e-02,2.696
8.320e-02,2.696
8.352e-02,2.688
8.384e-02,2.688
8.416e-02,2.688
8.448e-02,2.68
8.480e-02,2.68
8.512e-02,2.68
8.544e-02,2.672
8.576e-02,2.672
8.608e-02,2.672
8.640e-02,2.672
8.672e-02,2.672
8.704e-02,2.672
8.736e-02,2.664
8.768e-02,2.664
8.800e-02,2.656
8.832e-02,2.656
8.864e-02,2.664
8.896e-02,2.664
8.928e-02,2.664
8.960e-02,2.664
8.992e-02,2.664
9.024e-02,2.656
9.056e-02,2.664
9.088e-02,2.648
9.120e-02,2.632
9.152e-02,2.64
9.184e-02,2.632
9.216e-02,2.632
9.248e-02,2.632
9.280e-02,2.632
9.312e-02,2.64
9.344e-02,2.64
9.376e-02,2.64
9.408e-02,2.648
9.440e-02,2.656
9.472e-02,2.648
9.504e-02,2.664
9.536e-02,2.656
9.568e-02,2.656
9.600e-02,2.648
9.632e-02,2.664
9.664e-02,2.672
9.696e-02,2.672
9.728e-02,2.664
9.760e-02,2.664
9.792e-02,2.664
9.824e-02,2.672
9.856e-02,2.672
9.888e-02,2.672
9.920e-02,2.664
9.952e-02,2.672
9.984e-02,2.672
1.002e-01,2.672
1.005e-01,2.672
1.008e-01,2.672
1.011e-01,2.688
1.014e-01,2.696
1.018e-01,2.704
1.021e-01,2.704
1.024e-01,2.704
1.027e-01,2.696
1.030e-01,2.704
1.034e-01,2.696
1.037e-01,2.688
1.040e-01,2.688
1.043e-01,2.68
1.046e-01,2.688
1.050e-01,2.68
1.053e-01,2.672
1.056e-01,2.672
1.059e-01,2.672
1.062e-01,2.672
1.066e-01,2.672
1.069e-01,2.664
1.072e-01,2.656
1.075e-01,2.664
1.078e-01,2.664
1.082e-01,2.664
1.085e-01,2.656
1.088e-01,2.664
1.091e-01,2.664
1.094e-01,2.672
1.098e-01,2.672
1.101e-01,2.664
1.104e-01,2.664
1.107e-01,2.656
1.110e-01,2.648
1.114e-01,2.64
1.117e-01,2.632
1.120e-01,2.632
1.123e-01,2.632
1.126e-01,2.64
1.130e-01,2.632
1.133e-01,2.64
1.136e-01,2.648
1.139e-01,2.648
1.142e-01,2.656
1.146e-01,2.648
1.149e-01,2.664
1.152e-01,2.656
1.155e-01,2.664
1.158e-01,2.656
1.162e-01,2.664
1.165e-01,2.656
1.168e-01,2.664
1.171e-01,2.664
1.174e-01,2.672
1.178e-01,2.672
1.181e-01,2.664
1.184e-01,2.672
1.187e-01,2.672
1.190e-01,2.664
1.194e-01,2.672
1.197e-01,2.664
1.200e-01,2.672
1.203e-01,2.672
1.206e-01,2.664
1.210e-01,2.688
1.213e-01,2.696
1.216e-01,2.696
1.219e-01,2.704
1.222e-01,2.712
1.226e-01,2.696
1.229e-01,2.696
1.232e-01,2.696
1.235e-01,2.704
1.238e-01,2.696
1.242e-01,2.68
1.245e-01,2.68
1.248e-01,2.68
1.251e-01,2.68
1.254e-01,2.672
1.258e-01,2.672
1.261e-01,2.672
1.264e-01,2.68
1.267e-01,2.672
1.270e-01,2.664
1.274e-01,2.664
1.277e-01,2.664
1.280e-01,2.656
1.283e-01,2.664
1.286e-01,2.664
1.290e-01,2.664
1.293e-01,2.664
1.296e-01,2.664
1.299e-01,2.664
1.302e-01,2.664
1.306e-01,2.656
1.309e-01,2.656
1.312e-01,2.64
1.315e-01,2.64
1.318e-01,2.632
1.322e-01,2.632
1.325e-01,2.632
1.328e-01,2.632
1.331e-01,2.64
1.334e-01,2.64
1.338e-01,2.64
1.341e-01,2.648
1.344e-01,2.648
1.347e-01,2.656
1.350e-01,2.656
1.354e-01,2.656
1.357e-01,2.656
1.360e-01,2.656
1.363e-01,2.656
1.366e-01,2.664
1.370e-01,2.664
1.373e-01,2.664
1.376e-01,2.664
1.379e-01,2.672
1.382e-01,2.672
1.386e-01,2.664
1.389e-01,2.664
1.392e-01,2.672
1.395e-01,2.664
1.398e-01,2.664
1.402e-01,2.664
1.405e-01,2.664
1.408e-01,2.672
1.411e-01,2.688
1.414e-01,2.696
1.418e-01,2.688
1.421e-01,2.696
1.424e-01,2.696
1.427e-01,2.696
1.430e-01,2.688
1.434e-01,2.688
1.437e-01,2.688
1.440e-01,2.688
1.443e-01,2.68
1.446e-01,2.672
1.450e-01,2.672
1.453e-01,2.68
1.456e-01,2.672
1.459e-01,2.672
1.462e-01,2.672
1.466e-01,2.664
1.469e-01,2.656
1.472e-01,2.664
1.475e-01,2.664
1.478e-01,2.656
1.482e-01,2.656
1.485e-01,2.664
1.488e-01,2.664
1.491e-01,2.664
1.494e-01,2.656
1.498e-01,2.656
1.501e-01,2.664
1.504e-01,2.648
1.507e-01,2.656
1.510e-01,2.648
1.514e-01,2.64
1.517e-01,2.632
1.520e-01,2.624
1.523e-01,2.624
1.526e-01,2.632
1.530e-01,2.632
1.533e-01,2.632
1.536e-01,2.64
1.539e-01,2.64
1.542e-01,2.648
1.546e-01,2.648
1.549e-01,2.656
1.552e-01,2.656
1.555e-01,2.648
1.558e-01,2.648
1.562e-01,2.656
1.565e-01,2.656
1.568e-01,2.664
1.571e-01,2.664
1.574e-01,2.664
1.578e-01,2.672
1.581e-01,2.664
1.584e-01,2.664
1.587e-01,2.656
1.590e-01,2.656
1.594e-01,2.656
1.597e-01,2.664
1.600e-01,2.664
1.603e-01,2.664
1.606e-01,2.664
1.610e-01,2.68
1.613e-01,2.696
1.616e-01,2.696
1.619e-01,2.688
1.622e-01,2.696
1.626e-01,2.696
1.629e-01,2.696
1.632e-01,2.68
1.635e-01,2.688
1.638e-01,2.688
1.642e-01,2.672
1.645e-01,2.672
1.648e-01,2.672
1.651e-01,2.672
1.654e-01,2.672
1.658e-01,2.672
1.661e-01,2.664
1.664e-01,2.664
1.667e-01,2.664
1.670e-01,2.664
1.674e-01,2.664
1.677e-01,2.656
1.680e-01,2.648
1.683e-01,2.656
1.686e-01,2.656
1.690e-01,2.656
1.693e-01,2.648
1.696e-01,2.656
1.699e-01,2.656
1.702e-01,2.648
1.706e-01,2.648
1.709e-01,2.64
1.712e-01,2.632
1.715e-01,2.624
1.718e-01,2.624
1.722e-01,2.624
1.725e-01,2.624
1.728e-01,2.616
1.731e-01,2.624
1.734e-01,2.624
1.738e-01,2.632
1.741e-01,2.632
1.744e-01,2.64
1.747e-01,2.64
1.750e-01,2.64
1.754e-01,2.648
1.757e-01,2.64
1.760e-01,2.648
1.763e-01,2.648
1.766e-01,2.648
1.770e-01,2.656
1.773e-01,2.656
1.776e-01,2.648
1.779e-01,2.648
1.782e-01,2.648
1.786e-01,2.656
1.789e-01,2.656
1.792e-01,2.648
1.795e-01,2.656
1.798e-01,2.656
1.802e-01,2.656
1.805e-01,2.664
1.808e-01,2.664
1.811e-01,2.672
1.814e-01,2.68
1.818e-01,2.688
1.821e-01,2.68
1.824e-01,2.68
1.827e-01,2.688
1.830e-01,2.688
1.834e-01,2.68
1.837e-01,2.68
1.840e-01,2.672
1.843e-01,2.664
1.846e-01,2.656
1.850e-01,2.656
1.853e-01,2.664
1.856e-01,2.656
