lab_data/40 - 40/TEK00002.CSV

Model,TBS1102C
Firmware Version,v2015-08-04-prequal4ch70_v1.3

Point Format,Y
Horizontal Units,S
Horizontal Scale,0.04
Sample Interval,0.00032
Filter Frequency,2e+08
Record Length,2000
Gating,0.0% to 100.0%
Probe Attenuation,1
Vertical Units,V
Vertical Offset,1
Vertical Scale,0.2
Label,
TIME,CH1
-2.003e-01,1.792
-2.000e-01,1.792
-1.997e-01,1.808
-1.994e-01,1.8
-1.990e-01,1.792
-1.987e-01,1.784
-1.984e-01,1.792
-1.981e-01,1.784
-1.978e-01,1.776
-1.974e-01,1.784
-1.971e-01,1.776
-1.968e-01,1.768
-1.965e-01,1.776
-1.962e-01,1.776
-1.958e-01,1.768
-1.955e-01,1.768
-1.952e-01,1.76
-1.949e-01,1.768
-1.946e-01,1.76
-1.942e-01,1.768
-1.939e-01,1.76
-1.936e-01,1.76
-1.933e-01,1.752
-1.930e-01,1.76
-1.926e-01,1.76
-1.923e-01,1.76
-1.920e-01,1.76
-1.917e-01,1.76
-1.914e-01,1.752
-1.910e-01,1.752
-1.907e-01,1.736
-1.904e-01,1.728
-1.901e-01,1.728
-1.898e-01,1.728
-1.894e-01,1.72
-1.891e-01,1.736
-1.888e-01,1.728
-1.885e-01,1.736
-1.882e-01,1.736
-1.878e-01,1.744
-1.875e-01,1.752
-1.872e-01,1.752
-1.869e-01,1.752
-1.866e-01,1.752
-1.862e-01,1.752
-1.859e-01,1.76
-1.856e-01,1.76
-1.853e-01,1.76
-1.850e-01,1.76
-1.846e-01,1.76
-1.843e-01,1.76
-1.840e-01,1.768
-1.837e-01,1.768
-1.834e-01,1.768
-1.830e-01,1.76
-1.827e-01,1.768
-1.824e-01,1.76
-1.821e-01,1.768
-1.818e-01,1.76
-1.814e-01,1.76
-1.811e-01,1.768
-1.808e-01,1.776
-1.805e-01,1.784
-1.802e-01,1.784
-1.798e-01,1.792
-1.795e-01,1.8
-1.792e-01,1.8
-1.789e-01,1.792
-1.786e-01,1.784
-1.782e-01,1.784
-1.779e-01,1.784
-1.776e-01,1.784
-1.773e-01,1.776
-1.770e-01,1.768
-1.766e-01,1.768
-1.763e-01,1.776
-1.760e-01,1.776
-1.757e-01,1.768
-1.754e-01,1.76
-1.750e-01,1.76
-1.747e-01,1.76
-1.744e-01,1.76
-1.741e-01,1.752
-1.738e-01,1.76
-1.734e-01,1.76
-1.731e-01,1.76
-1.728e-01,1.768
-1.725e-01,1.752
-1.722e-01,1.752
-1.718e-01,1.76
-1.715e-01,1.76
-1.712e-01,1.76
-1.709e-01,1.744
-1.706e-01,1.728
-1.702e-01,1.728
-1.699e-01,1.728
-1.696e-01,1.728
-1.693e-01,1.728
-1.690e-01,1.728
-1.686e-01,1.736
-1.683e-01,1.736
-1.680e-01,1.744
-1.677e-01,1.736
-1.674e-01,1.744
-1.670e-01,1.752
-1.667e-01,1.752
-1.664e-01,1.752
-1.661e-01,1.76
-1.658e-01,1.744
-1.654e-01,1.752
-1.651e-01,1.76
-1.648e-01,1.752
-1.645e-01,1.76
-1.642e-01,1.76
-1.638e-01,1.76
-1.635e-01,1.76
-1.632e-01,1.768
-1.629e-01,1.768
-1.626e-01,1.768
-1.622e-01,1.76
-1.619e-01,1.768
-1.616e-01,1.76
-1.613e-01,1.76
-1.610e-01,1.768
-1.606e-01,1.784
-1.603e-01,1.792
-1.600e-01,1.792
-1.597e-01,1.8
-1.594e-01,1.8
-1.590e-01,1.792
-1.587e-01,1.792
-1.584e-01,1.792
-1.581e-01,1.776
-1.578e-01,1.776
-1.574e-01,1.776
-1.571e-01,1.776
-1.568e-01,1.768
-1.565e-01,1.768
-1.562e-01,1.768
-1.558e-01,1.768
-1.555e-01,1.768
-1.552e-01,1.76
-1.549e-01,1.76
-1.546e-01,1.76
-1.542e-01,1.768
-1.539e-01,1.76
-1.536e-01,1.752
-1.533e-01,1.752
-1.530e-01,1.76
-1.526e-01,1.76
-1.523e-01,1.76
-1.520e-01,1.76
-1.517e-01,1.752
-1.514e-01,1.752
-1.510e-01,1.752
-1.507e-01,1.736
-1.504e-01,1.728
-1.501e-01,1.728
-1.498e-01,1.728
-1.494e-01,1.728
-1.491e-01,1.728
-1.488e-01,1.728
-1.485e-01,1.736
-1.482e-01,1.736
-1.478e-01,1.744
-1.475e-01,1.752
-1.472e-01,1.76
-1.469e-01,1.752
-1.466e-01,1.76
-1.462e-01,1.76
-1.459e-01,1.76
-1.456e-01,1.76
-1.453e-01,1.76
-1.450e-01,1.76
-1.446e-01,1.768
-1.443e-01,1.768
-1.440e-01,1.768
-1.437e-01,1.768
-1.434e-01,1.776
-1.430e-01,1.768
-1.427e-01,1.776
-1.424e-01,1.768
-1.421e-01,1.784
-1.418e-01,1.776
-1.414e-01,1.776
-1.411e-01,1.776
-1.408e-01,1.792
-1.405e-01,1.8
-1.402e-01,1.808
-1.398e-01,1.816
-1.395e-01,1.808
-1.392e-01,1.808
-1.389e-01,1.808
-1.386e-01,1.8
-1.382e-01,1.808
-1.379e-01,1.8
-1.376e-01,1.8
-1.373e-01,1.792
-1.370e-01,1.8
-1.366e-01,1.8
-1.363e-01,1.792
-1.360e-01,1.8
-1.357e-01,1.8
-1.354e-01,1.792
-1.350e-01,1.792
-1.347e-01,1.792
-1.344e-01,1.792
-1.341e-01,1.792
-1.338e-01,1.8
-1.334e-01,1.792
-1.331e-01,1.8
-1.328e-01,1.8
-1.325e-01,1.8
-1.322e-01,1.8
-1.318e-01,1.8
-1.315e-01,1.8
-1.312e-01,1.792
-1.309e-01,1.792
-1.306e-01,1.784
-1.302e-01,1.776
-1.299e-01,1.768
-1.296e-01,1.776
-1.293e-01,1.776
-1.290e-01,1.776
-1.286e-01,1.784
-1.283e-01,1.776
-1.280e-01,1.784
-1.277e-01,1.792
-1.274e-01,1.8
-1.270e-01,1.792
-1.267e-01,1.8
-1.264e-01,1.792
-1.261e-01,1.8
-1.258e-01,1.8
-1.254e-01,1.792
-1.251e-01,1.8
-1.248e-01,1.8
-1.245e-01,1.792
-1.242e-01,1.8
-1.238e-01,1.8
-1.235e-01,1.8
-1.232e-01,1.792
-1.229e-01,1.792
-1.226e-01,1.792
-1.222e-01,1.8
-1.219e-01,1.792
-1.216e-01,1.784
-1.213e-01,1.784
-1.210e-01,1.792
-1.206e-01,1.8
-1.203e-01,1.8
-1.200e-01,1.808
-1.197e-01,1.808
-1.194e-01,1.8
-1.190e-01,1.792
-1.187e-01,1.792
-1.184e-01,1.784
-1.181e-01,1.784
-1.178e-01,1.768
-1.174e-01,1.768
-1.171e-01,1.76
-1.168e-01,1.752
-1.165e-01,1.752
-1.162e-01,1.752
-1.158e-01,1.744
-1.155e-01,1.736
-1.152e-01,1.736
-1.149e-01,1.728
-1.146e-01,1.72
-1.142e-01,1.72
-1.139e-01,1.712
-1.136e-01,1.704
-1.133e-01,1.704
-1.130e-01,1.696
-1.126e-01,1.688
-1.123e-01,1.688
-1.120e-01,1.688
-1.117e-01,1.68
-1.114e-01,1.672
-1.110e-01,1.672
-1.107e-01,1.648
-1.104e-01,1.632
-1.101e-01,1.624
-1.098e-01,1.624
-1.094e-01,1.616
-1.091e-01,1.608
-1.088e-01,1.616
-1.085e-01,1.608
-1.082e-01,1.608
-1.078e-01,1.608
-1.075e-01,1.608
-1.072e-01,1.608
-1.069e-01,1.608
-1.066e-01,1.608
-1.062e-01,1.592
-1.059e-01,1.592
-1.056e-01,1.592
-1.053e-01,1.592
-1.050e-01,1.584
-1.046e-01,1.584
-1.043e-01,1.584
-1.040e-01,1.576
-1.037e-01,1.576
-1.034e-01,1.576
-1.030e-01,1.568
-1.027e-01,1.568
-1.024e-01,1.56
-1.021e-01,1.56
-1.018e-01,1.552
-1.014e-01,1.552
-1.011e-01,1.552
-1.008e-01,1.552
-1.005e-01,1.56
-1.002e-01,1.568
-9.984e-02,1.56
-9.952e-02,1.56
-9.920e-02,1.56
-9.888e-02,1.552
-9.856e-02,1.544
-9.824e-02,1.544
-9.792e-02,1.528
-9.760e-02,1.528
-9.728e-02,1.52
-9.696e-02,1.52
-9.664e-02,1.512
-9.632e-02,1.512
-9.600e-02,1.512
-9.568e-02,1.504
-9.536e-02,1.496
-9.504e-02,1.488
-9.472e-02,1.496
-9.440e-02,1.488
-9.408e-02,1.488
-9.376e-02,1.48
-9.344e-02,1.48
-9.312e-02,1.48
-9.280e-02,1.488
-9.248e-02,1.488
-9.216e-02,1.48
-9.184e-02,1.472
-9.152e-02,1.48
-9.120e-02,1.472
-9.088e-02,1.472
-9.056e-02,1.456
-9.024e-02,1.448
-8.992e-02,1.456
-8.960e-02,1.448
-8.928e-02,1.456
-8.896e-02,1.448
-8.864e-02,1.456
-8.832e-02,1.464
-8.800e-02,1.472
-8.768e-02,1.48
-8.736e-02,1.48
-8.704e-02,1.48
-8.672e-02,1.488
-8.640e-02,1.496
-8.608e-02,1.496
-8.576e-02,1.496
-8.544e-02,1.496
-8.512e-02,1.496
-8.480e-02,1.504
-8.448e-02,1.504
-8.416e-02,1.512
-8.384e-02,1.52
-8.352e-02,1.52
-8.320e-02,1.52
-8.288e-02,1.528
-8.256e-02,1.528
-8.224e-02,1.536
-8.192e-02,1.544
-8.160e-02,1.544
-8.128e-02,1.544
-8.096e-02,1.552
-8.064e-02,1.568
-8.032e-02,1.584
-8.000e-02,1.584
-7.968e-02,1.592
-7.936e-02,1.592
-7.904e-02,1.6
-7.872e-02,1.6
-7.840e-02,1.6
-7.808e-02,1.6
-7.776e-02,1.6
-7.744e-02,1.6
-7.712e-02,1.6
-7.680e-02,1.6
-7.648e-02,1.608
-7.616e-02,1.616
-7.584e-02,1.616
-7.552e-02,1.616
-7.520e-02,1.616
-7.488e-02,1.624
-7.456e-02,1.616
-7.424e-02,1.624
-7.392e-02,1.64
-7.360e-02,1.64
-7.328e-02,1.648
-7.296e-02,1.656
-7.264e-02,1.656
-7.232e-02,1.664
-7.200e-02,1.664
-7.168e-02,1.672
-7.136e-02,1.672
-7.104e-02,1.672
-7.072e-02,1.664
-7.040e-02,1.664
-7.008e-02,1.664
-6.976e-02,1.672
-6.944e-02,1.672
-6.912e-02,1.68
-6.880e-02,1.688
-6.848e-02,1.688
-6.816e-02,1.704
-6.784e-02,1.712
-6.752e-02,1.728
-6.720e-02,1.728
-6.688e-02,1.736
-6.656e-02,1.744
-6.624e-02,1.752
-6.592e-02,1.752
-6.560e-02,1.76
-6.528e-02,1.76
-6.496e-02,1.768
-6.464e-02,1.784
-6.432e-02,1.792
-6.400e-02,1.792
-6.368e-02,1.792
-6.336e-02,1.792
-6.304e-02,1.808
-6.272e-02,1.8
-6.240e-02,1.808
-6.208e-02,1.816
-6.176e-02,1.816
-6.144e-02,1.824
-6.112e-02,1.84
-6.080e-02,1.856
-6.048e-02,1.864
-6.016e-02,1.872
-5.984e-02,1.88
-5.952e-02,1.88
-5.920e-02,1.88
-5.888e-02,1.888
-5.856e-02,1.88
-5.824e-02,1.888
-5.792e-02,1.888
-5.760e-02,1.88
-5.728e-02,1.88
-5.696e-02,1.888
-5.664e-02,1.88
-5.632e-02,1.896
-5.600e-02,1.896
-5.568e-02,1.888
-5.536e-02,1.904
-5.504e-02,1.904
-5.472e-02,1.904
-5.440e-02,1.896
-5.408e-02,1.912
-5.376e-02,1.904
-5.344e-02,1.912
-5.312e-02,1.92
-5.280e-02,1.912
-5.248e-02,1.92
-5.216e-02,1.92
-5.184e-02,1.92
-5.152e-02,1.92
-5.120e-02,1.92
-5.088e-02,1.912
-5.056e-02,1.912
-5.024e-02,1.904
-4.992e-02,1.896
-4.960e-02,1.904
-4.928e-02,1.904
-4.896e-02,1.904
-4.864e-02,1.92
-4.832e-02,1.904
-4.800e-02,1.912
-4.768e-02,1.92
-4.736e-02,1.92
-4.704e-02,1.928
-4.672e-02,1.92
-4.640e-02,1.928
-4.608e-02,1.928
-4.576e-02,1.928
-4.544e-02,1.928
-4.512e-02,1.92
-4.480e-02,1.928
-4.448e-02,1.92
-4.416e-02,1.928
-4.384e-02,1.92
-4.352e-02,1.92
-4.320e-02,1.912
-4.288e-02,1.912
-4.256e-02,1.912
-4.224e-02,1.912
-4.192e-02,1.912
-4.160e-02,1.904
-4.128e-02,1.904
-4.096e-02,1.904
-4.064e-02,1.92
-4.032e-02,1.912
-4.000e-02,1.92
-3.968e-02,1.912
-3.936e-02,1.912
-3.904e-02,1.904
-3.872e-02,1.896
-3.840e-02,1.888
-3.808e-02,1.88
-3.776e-02,1.872
-3.744e-02,1.864
-3.712e-02,1.856
-3.680e-02,1.84
-3.648e-02,1.84
-3.616e-02,1.832
-3.584e-02,1.832
-3.552e-02,1.824
-3.520e-02,1.824
-3.488e-02,1.808
-3.456e-02,1.8
-3.424e-02,1.784
-3.392e-02,1.784
-3.360e-02,1.784
-3.328e-02,1.776
-3.296e-02,1.776
-3.264e-02,1.76
-3.232e-02,1.752
-3.200e-02,1.744
-3.168e-02,1.752
-3.136e-02,1.744
-3.104e-02,1.736
-3.072e-02,1.72
-3.040e-02,1.712
-3.008e-02,1.696
-2.976e-02,1.704
-2.944e-02,1.696
-2.912e-02,1.688
-2.880e-02,1.688
-2.848e-02,1.688
-2.816e-02,1.696
-2.784e-02,1.688
-2.752e-02,1.696
-2.720e-02,1.696
-2.688e-02,1.712
-2.656e-02,1.704
-2.624e-02,1.704
-2.592e-02,1.696
-2.560e-02,1.704
-2.528e-02,1.712
-2.496e-02,1.712
-2.464e-02,1.72
-2.432e-02,1.72
-2.400e-02,1.72
-2.368e-02,1.728
-2.336e-02,1.728
-2.304e-02,1.728
-2.272e-02,1.728
-2.240e-02,1.728
-2.208e-02,1.744
-2.176e-02,1.744
-2.144e-02,1.752
-2.112e-02,1.752
-2.080e-02,1.76
-2.048e-02,1.784
-2.016e-02,1.8
-1.984e-02,1.8
-1.952e-02,1.808
-1.920e-02,1.816
-1.888e-02,1.824
-1.856e-02,1.824
-1.824e-02,1.824
-1.792e-02,1.824
-1.760e-02,1.832
-1.728e-02,1.832
-1.696e-02,1.84
-1.664e-02,1.848
-1.632e-02,1.864
-1.600e-02,1.864
-1.568e-02,1.872
-1.536e-02,1.888
-1.504e-02,1.888
-1.472e-02,1.896
-1.440e-02,1.896
-1.408e-02,1.912
-1.376e-02,1.92
-1.344e-02,1.928
-1.312e-02,1.936
-1.280e-02,1.952
-1.248e-02,1.968
-1.216e-02,1.968
-1.184e-02,1.976
-1.152e-02,1.992
-1.120e-02,2
-1.088e-02,2
-1.056e-02,2
-1.024e-02,2
-9.920e-03,2.008
-9.600e-03,2.016
-9.280e-03,2.032
-8.960e-03,2.032
-8.640e-03,2.056
-8.320e-03,2.064
-8.000e-03,2.08
-7.680e-03,2.096
-7.360e-03,2.104
-7.040e-03,2.12
-6.720e-03,2.128
-6.400e-03,2.136
-6.080e-03,2.16
-5.760e-03,2.16
-5.440e-03,2.176
-5.120e-03,2.184
-4.800e-03,2.2
-4.480e-03,2.216
-4.160e-03,2.224
-3.840e-03,2.232
-3.520e-03,2.232
-3.200e-03,2.24
-2.880e-03,2.248
-2.560e-03,2.264
-2.240e-03,2.272
-1.920e-03,2.28
-1.600e-03,2.288
-1.280e-03,2.296
-9.600e-04,2.304
-6.400e-04,2.328
-3.200e-04,2.344
-2.700e-15,2.36
3.200e-04,2.368
6.400e-04,2.376
9.600e-04,2.368
1.280e-03,2.384
1.600e-03,2.4
1.920e-03,2.392
2.240e-03,2.392
2.560e-03,2.392
2.880e-03,2.408
3.200e-03,2.408
3.520e-03,2.408
3.840e-03,2.408
4.160e-03,2.424
4.480e-03,2.432
4.800e-03,2.432
5.120e-03,2.432
5.440e-03,2.432
5.760e-03,2.432
6.080e-03,2.448
6.400e-03,2.448
6.720e-03,2.464
7.040e-03,2.456
7.360e-03,2.472
7.680e-03,2.464
8.000e-03,2.472
8.320e-03,2.472
8.640e-03,2.48
8.960e-03,2.48
9.280e-03,2.472
9.600e-03,2.48
9.920e-03,2.472
1.024e-02,2.472
1.056e-02,2.472
1.088e-02,2.488
1.120e-02,2.488
1.152e-02,2.496
1.184e-02,2.496
1.216e-02,2.504
1.248e-02,2.52
1.280e-02,2.52
1.312e-02,2.528
1.344e-02,2.52
1.376e-02,2.536
1.408e-02,2.536
1.440e-02,2.552
1.472e-02,2.552
1.504e-02,2.552
1.536e-02,2.552
1.568e-02,2.568
1.600e-02,2.568
1.632e-02,2.568
1.664e-02,2.576
1.696e-02,2.576
1.728e-02,2.576
1.760e-02,2.576
1.792e-02,2.576
1.824e-02,2.576
1.856e-02,2.592
1.888e-02,2.592
1.920e-02,2.608
1.952e-02,2.608
1.984e-02,2.616
2.016e-02,2.624
2.048e-02,2.632
2.080e-02,2.632
2.112e-02,2.632
2.144e-02,2.624
2.176e-02,2.624
2.208e-02,2.624
2.240e-02,2.616
2.272e-02,2.608
2.304e-02,2.616
2.336e-02,2.616
2.368e-02,2.616
2.400e-02,2.616
2.432e-02,2.616
2.464e-02,2.616
2.496e-02,2.616
2.528e-02,2.616
2.560e-02,2.608
2.592e-02,2.616
2.624e-02,2.608
2.656e-02,2.616
2.688e-02,2.616
2.720e-02,2.616
2.752e-02,2.616
2.784e-02,2.616
2.816e-02,2.616
2.848e-02,2.624
2.880e-02,2.616
2.912e-02,2.608
2.944e-02,2.6
2.976e-02,2.6
3.008e-02,2.592
3.040e-02,2.592
3.072e-02,2.6
3.104e-02,2.592
3.136e-02,2.608
3.168e-02,2.608
3.200e-02,2.608
3.232e-02,2.616
3.264e-02,2.616
3.296e-02,2.624
3.328e-02,2.624
3.360e-02,2.624
3.392e-02,2.624
3.424e-02,2.632
3.456e-02,2.632
3.488e-02,2.64
3.520e-02,2.64
3.552e-02,2.64
3.584e-02,2.64
3.616e-02,2.648
3.648e-02,2.648
3.680e-02,2.64
3.712e-02,2.648
3.744e-02,2.64
3.776e-02,2.64
3.808e-02,2.648
3.840e-02,2.648
3.872e-02,2.64
3.904e-02,2.656
3.936e-02,2.672
3.968e-02,2.672
4.000e-02,2.672
4.032e-02,2.68
4.064e-02,2.68
4.096e-02,2.68
4.128e-02,2.68
4.160e-02,2.672
4.192e-02,2.672
4.224e-02,2.664
4.256e-02,2.656
4.288e-02,2.656
4.320e-02,2.656
4.352e-02,2.664
4.384e-02,2.656
4.416e-02,2.656
4.448e-02,2.656
4.480e-02,2.656
4.512e-02,2.648
4.544e-02,2.656
4.576e-02,2.648
4.608e-02,2.64
4.640e-02,2.648
4.672e-02,2.648
4.704e-02,2.648
4.736e-02,2.648
4.768e-02,2.656
4.800e-02,2.648
4.832e-02,2.648
4.864e-02,2.656
4.896e-02,2.64
4.928e-02,2.632
4.960e-02,2.624
4.992e-02,2.624
5.024e-02,2.616
5.056e-02,2.624
5.088e-02,2.624
5.120e-02,2.624
5.152e-02,2.624
5.184e-02,2.64
5.216e-02,2.632
5.248e-02,2.64
5.280e-02,2.64
5.312e-02,2.64
5.344e-02,2.648
5.376e-02,2.648
5.408e-02,2.648
5.440e-02,2.664
5.472e-02,2.656
5.504e-02,2.656
5.536e-02,2.656
5.568e-02,2.656
5.600e-02,2.656
5.632e-02,2.664
5.664e-02,2.664
5.696e-02,2.664
5.728e-02,2.664
5.760e-02,2.656
5.792e-02,2.664
5.824e-02,2.664
5.856e-02,2.664
5.888e-02,2.664
5.920e-02,2.68
5.952e-02,2.696
5.984e-02,2.696
6.016e-02,2.688
6.048e-02,2.688
6.080e-02,2.696
6.112e-02,2.696
6.144e-02,2.688
6.176e-02,2.68
6.208e-02,2.68
6.240e-02,2.68
6.272e-02,2.672
6.304e-02,2.672
6.336e-02,2.672
6.368e-02,2.664
6.400e-02,2.656
6.432e-02,2.664
6.464e-02,2.664
6.496e-02,2.664
6.528e-02,2.664
6.560e-02,2.664
6.592e-02,2.664
6.624e-02,2.656
6.656e-02,2.656
6.688e-02,2.656
6.720e-02,2.664
6.752e-02,2.656
6.784e-02,2.664
6.816e-02,2.656
6.848e-02,2.664
6.880e-02,2.656
6.912e-02,2.648
6.944e-02,2.64
6.976e-02,2.632
7.008e-02,2.624
7.040e-02,2.632
7.072e-02,2.624
7.104e-02,2.632
7.136e-02,2.64
7.168e-02,2.64
7.200e-02,2.648
7.232e-02,2.648
7.264e-02,2.664
7.296e-02,2.656
7.328e-02,2.648
7.360e-02,2.656
7.392e-02,2.664
7.424e-02,2.656
7.456e-02,2.656
7.488e-02,2.656
7.520e-02,2.664
7.552e-02,2.664
7.584e-02,2.672
7.616e-02,2.672
7.648e-02,2.664
7.680e-02,2.664
7.712e-02,2.672
7.744e-02,2.664
7.776e-02,2.664
7.808e-02,2.672
7.840e-02,2.672
7.872e-02,2.672
7.904e-02,2.68
7.936e-02,2.688
7.968e-02,2.696
8.000e-02,2.704
8.032e-02,2.696
8.064e-02,2.704
8.096e-02,2.696
8.128e-02,2.696
8.160e-02,2.696
8.192e-02,2.696
8.224e-02,2.68
8.256e-02,2.68
8.288e-02,2.68
8.320e-02,2.68
8.352e-02,2.672
8.384e-02,2.68
8.416e-02,2.672
8.448e-02,2.672
8.480e-02,2.672
8.512e-02,2.68
8.544e-02,2.664
8.576e-02,2.672
8.608e-02,2.664
8.640e-02,2.664
8.672e-02,2.672
8.704e-02,2.664
8.736e-02,2.664
8.768e-02,2.664
8.800e-02,2.672
8.832e-02,2.672
8.864e-02,2.664
8.896e-02,2.656
8.928e-02,2.648
8.960e-02,2.648
8.992e-02,2.64
9.024e-02,2.632
9.056e-02,2.624
9.088e-02,2.64
9.120e-02,2.64
9.152e-02,2.648
9.184e-02,2.648
9.216e-02,2.648
9.248e-02,2.656
9.280e-02,2.664
9.312e-02,2.656
9.344e-02,2.664
9.376e-02,2.656
9.408e-02,2.664
9.440e-02,2.672
9.472e-02,2.672
9.504e-02,2.672
9.536e-02,2.664
9.568e-02,2.672
9.600e-02,2.672
9.632e-02,2.672
9.664e-02,2.672
9.696e-02,2.672
9.728e-02,2.672
9.760e-02,2.68
9.792e-02,2.672
9.824e-02,2.68
9.856e-02,2.672
9.888e-02,2.68
9.920e-02,2.688
9.952e-02,2.696
9.984e-02,2.696
1.002e-01,2.704
1.005e-01,2.704
1.008e-01,2.712
1.011e-01,2.696
1.014e-01,2.696
1.018e-01,2.696
1.021e-01,2.688
1.024e-01,2.688
1.027e-01,2.68
1.030e-01,2.688
1.034e-01,2.68
1.037e-01,2.672
1.040e-01,2.672
1.043e-01,2.68
1.046e-01,2.672
1.050e-01,2.672
1.053e-01,2.672
1.056e-01,2.672
1.059e-01,2.672
1.062e-01,2.664
1.066e-01,2.664
1.069e-01,2.672
1.072e-01,2.672
1.075e-01,2.672
1.078e-01,2.672
1.082e-01,2.664
1.085e-01,2.664
1.088e-01,2.664
1.091e-01,2.656
1.094e-01,2.64
1.098e-01,2.64
1.101e-01,2.64
1.104e-01,2.64
1.107e-01,2.64
1.110e-01,2.64
1.114e-01,2.64
1.117e-01,2.64
1.120e-01,2.648
1.123e-01,2.656
1.126e-01,2.656
1.130e-01,2.664
1.133e-01,2.664
1.136e-01,2.664
1.139e-01,2.664
1.142e-01,2.672
1.146e-01,2.672
1.149e-01,2.672
1.152e-01,2.672
1.155e-01,2.672
1.158e-01,2.672
1.162e-01,2.68
1.165e-01,2.672
1.168e-01,2.68
1.171e-01,2.672
1.174e-01,2.672
1.178e-01,2.672
1.181e-01,2.68
1.184e-01,2.68
1.187e-01,2.672
1.190e-01,2.68
1.194e-01,2.704
1.197e-01,2.704
1.200e-01,2.696
1.203e-01,2.704
1.206e-01,2.704
1.210e-01,2.712
1.213e-01,2.696
1.216e-01,2.696
1.219e-01,2.696
1.222e-01,2.688
1.226e-01,2.688
1.229e-01,2.688
1.232e-01,2.68
1.235e-01,2.68
1.238e-01,2.68
1.242e-01,2.68
1.245e-01,2.68
1.248e-01,2.672
1.251e-01,2.672
1.254e-01,2.672
1.258e-01,2.664
1.261e-01,2.664
1.264e-01,2.664
1.267e-01,2.664
1.270e-01,2.664
1.274e-01,2.672
1.277e-01,2.664
1.280e-01,2.664
1.283e-01,2.664
1.286e-01,2.664
1.290e-01,2.656
1.293e-01,2.648
1.296e-01,2.64
1.299e-01,2.64
1.302e-01,2.64
1.306e-01,2.64
1.309e-01,2.64
1.312e-01,2.648
1.315e-01,2.64
1.318e-01,2.648
1.322e-01,2.648
1.325e-01,2.656
1.328e-01,2.656
1.331e-01,2.656
1.334e-01,2.656
1.338e-01,2.664
1.341e-01,2.664
1.344e-01,2.672
1.347e-01,2.672
1.350e-01,2.672
1.354e-01,2.672
1.357e-01,2.68
1.360e-01,2.672
1.363e-01,2.68
1.366e-01,2.672
1.370e-01,2.68
1.373e-01,2.672
1.376e-01,2.672
1.379e-01,2.68
1.382e-01,2.68
1.386e-01,2.68
1.389e-01,2.68
1.392e-01,2.688
1.395e-01,2.704
1.398e-01,2.704
1.402e-01,2.704
1.405e-01,2.704
1.408e-01,2.704
1.411e-01,2.704
1.414e-01,2.704
1.418e-01,2.704
1.421e-01,2.696
1.424e-01,2.688
1.427e-01,2.688
1.430e-01,2.68
1.434e-01,2.688
1.437e-01,2.68
1.440e-01,2.68
1.443e-01,2.672
1.446e-01,2.68
1.450e-01,2.672
1.453e-01,2.672
1.456e-01,2.672
1.459e-01,2.672
1.462e-01,2.664
1.466e-01,2.672
1.469e-01,2.672
1.472e-01,2.672
1.475e-01,2.672
1.478e-01,2.68
1.482e-01,2.672
1.485e-01,2.664
1.488e-01,2.664
1.491e-01,2.656
1.494e-01,2.64
1.498e-01,2.64
1.501e-01,2.632
1.504e-01,2.64
1.507e-01,2.64
1.510e-01,2.648
1.514e-01,2.64
1.517e-01,2.648
1.520e-01,2.648
1.523e-01,2.656
1.526e-01,2.656
1.530e-01,2.656
1.533e-01,2.656
1.536e-01,2.664
1.539e-01,2.664
1.542e-01,2.664
1.546e-01,2.664
1.549e-01,2.656
1.552e-01,2.672
1.555e-01,2.672
1.558e-01,2.672
1.562e-01,2.672
1.565e-01,2.664
1.568e-01,2.672
1.571e-01,2.672
1.574e-01,2.672
1.578e-01,2.672
1.581e-01,2.672
1.584e-01,2.672
1.587e-01,2.664
1.590e-01,2.68
1.594e-01,2.696
1.597e-01,2.696
1.600e-01,2.704
1.603e-01,2.704
1.606e-01,2.704
1.610e-01,2.704
1.613e-01,2.696
1.616e-01,2.696
1.619e-01,2.696
1.622e-01,2.688
1.626e-01,2.68
1.629e-01,2.68
1.632e-01,2.68
1.635e-01,2.68
1.638e-01,2.68
1.642e-01,2.68
1.645e-01,2.672
1.648e-01,2.672
1.651e-01,2.672
1.654e-01,2.664
1.658e-01,2.664
1.661e-01,2.664
1.664e-01,2.672
1.667e-01,2.664
1.670e-01,2.664
1.674e-01,2.664
1.677e-01,2.664
1.680e-01,2.664
1.683e-01,2.672
1.686e-01,2.664
1.690e-01,2.656
1.693e-01,2.648
1.696e-01,2.648
1.699e-01,2.64
1.702e-01,2.632
1.706e-01,2.632
1.709e-01,2.632
1.712e-01,2.632
1.715e-01,2.648
1.718e-01,2.64
1.722e-01,2.648
1.725e-01,2.648
1.728e-01,2.656
1.731e-01,2.656
1.734e-01,2.656
1.738e-01,2.656
1.741e-01,2.656
1.744e-01,2.664
1.747e-01,2.664
1.750e-01,2.664
1.754e-01,2.656
1.757e-01,2.664
1.760e-01,2.672
1.763e-01,2.664
1.766e-01,2.672
1.770e-01,2.672
1.773e-01,2.672
1.776e-01,2.672
1.779e-01,2.672
1.782e-01,2.664
1.786e-01,2.672
1.789e-01,2.672
1.792e-01,2.68
1.795e-01,2.688
1.798e-01,2.696
1.802e-01,2.696
1.805e-01,2.696
1.808e-01,2.704
1.811e-01,2.696
1.814e-01,2.688
1.818e-01,2.688
1.821e-01,2.68
1.824e-01,2.68
1.827e-01,2.672
1.830e-01,2.672
1.834e-01,2.672
1.837e-01,2.672
1.840e-01,2.672
1.843e-01,2.672
1.846e-01,2.664
1.850e-01,2.664
1.853e-01,2.664
1.856e-01,2.664
1.859e-01,2.656
1.862e-01,2.664
1.866e-01,2.656
1.869e-01,2.656
1.872e-01,2.656
1.875e-01,2.664
