lab_data/40 - 40/TEK00007.CSV

Model,TBS1102C
Firmware Version,v2015-08-04-prequal4ch70_v1.3

Point Format,Y
Horizontal Units,S
Horizontal Scale,0.04
Sample Interval,0.00032
Filter Frequency,2e+08
Record Length,2000
Gating,0.0% to 100.0%
Probe Attenuation,1
Vertical Units,V
Vertical Offset,1
Vertical Scale,0.2
Label,
TIME,CH1
-2.003e-01,1.8
-2.000e-01,1.792
-1.997e-01,1.792
-1.994e-01,1.8
-1.990e-01,1.792
-1.987e-01,1.792
-1.984e-01,1.784
-1.981e-01,1.768
-1.978e-01,1.776
-1.974e-01,1.776
-1.971e-01,1.768
-1.968e-01,1.776
-1.965e-01,1.776
-1.962e-01,1.768
-1.958e-01,1.768
-1.955e-01,1.768
-1.952e-01,1.76
-1.949e-01,1.76
-1.946e-01,1.768
-1.942e-01,1.76
-1.939e-01,1.76
-1.936e-01,1.76
-1.933e-01,1.76
-1.930e-01,1.76
-1.926e-01,1.76
-1.923e-01,1.76
-1.920e-01,1.752
-1.917e-01,1.76
-1.914e-01,1.744
-1.910e-01,1.744
-1.907e-01,1.728
-1.904e-01,1.728
-1.901e-01,1.728
-1.898e-01,1.736
-1.894e-01,1.728
-1.891e-01,1.736
-1.888e-01,1.744
-1.885e-01,1.736
-1.882e-01,1.744
-1.878e-01,1.752
-1.875e-01,1.744
-1.872e-01,1.752
-1.869e-01,1.744
-1.866e-01,1.752
-1.862e-01,1.752
-1.859e-01,1.76
-1.856e-01,1.752
-1.853e-01,1.76
-1.850e-01,1.76
-1.846e-01,1.76
-1.843e-01,1.76
-1.840e-01,1.76
-1.837e-01,1.76
-1.834e-01,1.76
-1.830e-01,1.768
-1.827e-01,1.76
-1.824e-01,1.76
-1.821e-01,1.76
-1.818e-01,1.768
-1.814e-01,1.776
-1.811e-01,1.784
-1.808e-01,1.784
-1.805e-01,1.792
-1.802e-01,1.792
-1.798e-01,1.792
-1.795e-01,1.784
-1.792e-01,1.776
-1.789e-01,1.776
-1.786e-01,1.784
-1.782e-01,1.776
-1.779e-01,1.768
-1.776e-01,1.76
-1.773e-01,1.768
-1.770e-01,1.768
-1.766e-01,1.768
-1.763e-01,1.768
-1.760e-01,1.76
-1.757e-01,1.768
-1.754e-01,1.752
-1.750e-01,1.752
-1.747e-01,1.752
-1.744e-01,1.752
-1.741e-01,1.76
-1.738e-01,1.76
-1.734e-01,1.752
-1.731e-01,1.76
-1.728e-01,1.744
-1.725e-01,1.752
-1.722e-01,1.76
-1.718e-01,1.752
-1.715e-01,1.744
-1.712e-01,1.736
-1.709e-01,1.728
-1.706e-01,1.736
-1.702e-01,1.728
-1.699e-01,1.72
-1.696e-01,1.72
-1.693e-01,1.728
-1.690e-01,1.736
-1.686e-01,1.736
-1.683e-01,1.744
-1.680e-01,1.744
-1.677e-01,1.744
-1.674e-01,1.752
-1.670e-01,1.744
-1.667e-01,1.744
-1.664e-01,1.752
-1.661e-01,1.76
-1.658e-01,1.76
-1.654e-01,1.76
-1.651e-01,1.752
-1.648e-01,1.752
-1.645e-01,1.76
-1.642e-01,1.76
-1.638e-01,1.752
-1.635e-01,1.76
-1.632e-01,1.768
-1.629e-01,1.752
-1.626e-01,1.76
-1.622e-01,1.752
-1.619e-01,1.768
-1.616e-01,1.768
-1.613e-01,1.776
-1.610e-01,1.792
-1.606e-01,1.792
-1.603e-01,1.792
-1.600e-01,1.8
-1.597e-01,1.792
-1.594e-01,1.792
-1.590e-01,1.784
-1.587e-01,1.784
-1.584e-01,1.784
-1.581e-01,1.776
-1.578e-01,1.768
-1.574e-01,1.768
-1.571e-01,1.768
-1.568e-01,1.768
-1.565e-01,1.76
-1.562e-01,1.768
-1.558e-01,1.76
-1.555e-01,1.752
-1.552e-01,1.76
-1.549e-01,1.76
-1.546e-01,1.76
-1.542e-01,1.752
-1.539e-01,1.76
-1.536e-01,1.76
-1.533e-01,1.76
-1.530e-01,1.752
-1.526e-01,1.76
-1.523e-01,1.752
-1.520e-01,1.752
-1.517e-01,1.752
-1.514e-01,1.744
-1.510e-01,1.728
-1.507e-01,1.728
-1.504e-01,1.72
-1.501e-01,1.728
-1.498e-01,1.72
-1.494e-01,1.728
-1.491e-01,1.736
-1.488e-01,1.736
-1.485e-01,1.736
-1.482e-01,1.744
-1.478e-01,1.744
-1.475e-01,1.744
-1.472e-01,1.752
-1.469e-01,1.752
-1.466e-01,1.752
-1.462e-01,1.752
-1.459e-01,1.752
-1.456e-01,1.76
-1.453e-01,1.76
-1.450e-01,1.76
-1.446e-01,1.76
-1.443e-01,1.76
-1.440e-01,1.768
-1.437e-01,1.76
-1.434e-01,1.752
-1.430e-01,1.752
-1.427e-01,1.76
-1.424e-01,1.768
-1.421e-01,1.768
-1.418e-01,1.776
-1.414e-01,1.776
-1.411e-01,1.784
-1.408e-01,1.792
-1.405e-01,1.792
-1.402e-01,1.8
-1.398e-01,1.8
-1.395e-01,1.792
-1.392e-01,1.792
-1.389e-01,1.784
-1.386e-01,1.792
-1.382e-01,1.776
-1.379e-01,1.784
-1.376e-01,1.784
-1.373e-01,1.776
-1.370e-01,1.768
-1.366e-01,1.768
-1.363e-01,1.776
-1.360e-01,1.776
-1.357e-01,1.768
-1.354e-01,1.768
-1.350e-01,1.768
-1.347e-01,1.768
-1.344e-01,1.776
-1.341e-01,1.776
-1.338e-01,1.776
-1.334e-01,1.768
-1.331e-01,1.776
-1.328e-01,1.776
-1.325e-01,1.776
-1.322e-01,1.768
-1.318e-01,1.768
-1.315e-01,1.768
-1.312e-01,1.76
-1.309e-01,1.752
-1.306e-01,1.752
-1.302e-01,1.752
-1.299e-01,1.752
-1.296e-01,1.76
-1.293e-01,1.76
-1.290e-01,1.76
-1.286e-01,1.76
-1.283e-01,1.776
-1.280e-01,1.784
-1.277e-01,1.784
-1.274e-01,1.784
-1.270e-01,1.784
-1.267e-01,1.792
-1.264e-01,1.792
-1.261e-01,1.792
-1.258e-01,1.792
-1.254e-01,1.8
-1.251e-01,1.808
-1.248e-01,1.8
-1.245e-01,1.8
-1.242e-01,1.808
-1.238e-01,1.808
-1.235e-01,1.808
-1.232e-01,1.808
-1.229e-01,1.8
-1.226e-01,1.8
-1.222e-01,1.808
-1.219e-01,1.808
-1.216e-01,1.808
-1.213e-01,1.816
-1.210e-01,1.832
-1.206e-01,1.824
-1.203e-01,1.832
-1.200e-01,1.832
-1.197e-01,1.832
-1.194e-01,1.824
-1.190e-01,1.824
-1.187e-01,1.816
-1.184e-01,1.808
-1.181e-01,1.808
-1.178e-01,1.8
-1.174e-01,1.8
-1.171e-01,1.792
-1.168e-01,1.792
-1.165e-01,1.784
-1.162e-01,1.776
-1.158e-01,1.776
-1.155e-01,1.776
-1.152e-01,1.768
-1.149e-01,1.76
-1.146e-01,1.76
-1.142e-01,1.76
-1.139e-01,1.76
-1.136e-01,1.752
-1.133e-01,1.744
-1.130e-01,1.744
-1.126e-01,1.744
-1.123e-01,1.744
-1.120e-01,1.744
-1.117e-01,1.728
-1.114e-01,1.712
-1.110e-01,1.704
-1.107e-01,1.696
-1.104e-01,1.68
-1.101e-01,1.68
-1.098e-01,1.68
-1.094e-01,1.672
-1.091e-01,1.68
-1.088e-01,1.672
-1.085e-01,1.672
-1.082e-01,1.68
-1.078e-01,1.672
-1.075e-01,1.672
-1.072e-01,1.656
-1.069e-01,1.664
-1.066e-01,1.664
-1.062e-01,1.664
-1.059e-01,1.656
-1.056e-01,1.648
-1.053e-01,1.648
-1.050e-01,1.648
-1.046e-01,1.648
-1.043e-01,1.64
-1.040e-01,1.64
-1.037e-01,1.624
-1.034e-01,1.632
-1.030e-01,1.624
-1.027e-01,1.616
-1.024e-01,1.616
-1.021e-01,1.6
-1.018e-01,1.608
-1.014e-01,1.608
-1.011e-01,1.616
-1.008e-01,1.608
-1.005e-01,1.616
-1.002e-01,1.608
-9.984e-02,1.608
-9.952e-02,1.608
-9.920e-02,1.592
-9.888e-02,1.584
-9.856e-02,1.576
-9.824e-02,1.568
-9.792e-02,1.56
-9.760e-02,1.56
-9.728e-02,1.552
-9.696e-02,1.544
-9.664e-02,1.544
-9.632e-02,1.536
-9.600e-02,1.536
-9.568e-02,1.528
-9.536e-02,1.52
-9.504e-02,1.512
-9.472e-02,1.512
-9.440e-02,1.512
-9.408e-02,1.504
-9.376e-02,1.504
-9.344e-02,1.504
-9.312e-02,1.496
-9.280e-02,1.496
-9.248e-02,1.496
-9.216e-02,1.488
-9.184e-02,1.488
-9.152e-02,1.472
-9.120e-02,1.464
-9.088e-02,1.456
-9.056e-02,1.456
-9.024e-02,1.456
-8.992e-02,1.456
-8.960e-02,1.448
-8.928e-02,1.456
-8.896e-02,1.456
-8.864e-02,1.456
-8.832e-02,1.456
-8.800e-02,1.464
-8.768e-02,1.464
-8.736e-02,1.472
-8.704e-02,1.472
-8.672e-02,1.464
-8.640e-02,1.472
-8.608e-02,1.472
-8.576e-02,1.48
-8.544e-02,1.48
-8.512e-02,1.48
-8.480e-02,1.488
-8.448e-02,1.488
-8.416e-02,1.488
-8.384e-02,1.496
-8.352e-02,1.488
-8.320e-02,1.496
-8.288e-02,1.496
-8.256e-02,1.504
-8.224e-02,1.512
-8.192e-02,1.504
-8.160e-02,1.512
-8.128e-02,1.528
-8.096e-02,1.544
-8.064e-02,1.544
-8.032e-02,1.552
-8.000e-02,1.544
-7.968e-02,1.552
-7.936e-02,1.552
-7.904e-02,1.552
-7.872e-02,1.56
-7.840e-02,1.552
-7.808e-02,1.552
-7.776e-02,1.552
-7.744e-02,1.552
-7.712e-02,1.552
-7.680e-02,1.56
-7.648e-02,1.568
-7.616e-02,1.568
-7.584e-02,1.568
-7.552e-02,1.568
-7.520e-02,1.576
-7.488e-02,1.584
-7.456e-02,1.592
-7.424e-02,1.584
-7.392e-02,1.576
-7.360e-02,1.6
-7.328e-02,1.6
-7.296e-02,1.608
-7.264e-02,1.608
-7.232e-02,1.616
-7.200e-02,1.616
-7.168e-02,1.624
-7.136e-02,1.624
-7.104e-02,1.608
-7.072e-02,1.608
-7.040e-02,1.616
-7.008e-02,1.616
-6.976e-02,1.624
-6.944e-02,1.632
-6.912e-02,1.64
-6.880e-02,1.656
-6.848e-02,1.656
-6.816e-02,1.664
-6.784e-02,1.672
-6.752e-02,1.672
-6.720e-02,1.688
-6.688e-02,1.696
-6.656e-02,1.704
-6.624e-02,1.712
-6.592e-02,1.712
-6.560e-02,1.712
-6.528e-02,1.728
-6.496e-02,1.736
-6.464e-02,1.744
-6.432e-02,1.744
-6.400e-02,1.752
-6.368e-02,1.76
-6.336e-02,1.76
-6.304e-02,1.76
-6.272e-02,1.768
-6.240e-02,1.776
-6.208e-02,1.784
-6.176e-02,1.792
-6.144e-02,1.792
-6.112e-02,1.816
-6.080e-02,1.824
-6.048e-02,1.832
-6.016e-02,1.832
-5.984e-02,1.84
-5.952e-02,1.84
-5.920e-02,1.848
-5.888e-02,1.848
-5.856e-02,1.848
-5.824e-02,1.848
-5.792e-02,1.848
-5.760e-02,1.848
-5.728e-02,1.848
-5.696e-02,1.856
-5.664e-02,1.856
-5.632e-02,1.856
-5.600e-02,1.864
-5.568e-02,1.872
-5.536e-02,1.872
-5.504e-02,1.872
-5.472e-02,1.872
-5.440e-02,1.872
-5.408e-02,1.88
-5.376e-02,1.88
-5.344e-02,1.88
-5.312e-02,1.896
-5.280e-02,1.896
-5.248e-02,1.896
-5.216e-02,1.896
-5.184e-02,1.896
-5.152e-02,1.896
-5.120e-02,1.888
-5.088e-02,1.88
-5.056e-02,1.88
-5.024e-02,1.88
-4.992e-02,1.88
-4.960e-02,1.896
-4.928e-02,1.904
-4.896e-02,1.904
-4.864e-02,1.904
-4.832e-02,1.912
-4.800e-02,1.912
-4.768e-02,1.928
-4.736e-02,1.92
-4.704e-02,1.92
-4.672e-02,1.928
-4.640e-02,1.928
-4.608e-02,1.928
-4.576e-02,1.928
-4.544e-02,1.928
-4.512e-02,1.928
-4.480e-02,1.936
-4.448e-02,1.928
-4.416e-02,1.928
-4.384e-02,1.92
-4.352e-02,1.92
-4.320e-02,1.92
-4.288e-02,1.928
-4.256e-02,1.92
-4.224e-02,1.92
-4.192e-02,1.92
-4.160e-02,1.912
-4.128e-02,1.928
-4.096e-02,1.92
-4.064e-02,1.928
-4.032e-02,1.928
-4.000e-02,1.928
-3.968e-02,1.92
-3.936e-02,1.912
-3.904e-02,1.904
-3.872e-02,1.904
-3.840e-02,1.888
-3.808e-02,1.872
-3.776e-02,1.872
-3.744e-02,1.872
-3.712e-02,1.872
-3.680e-02,1.864
-3.648e-02,1.848
-3.616e-02,1.848
-3.584e-02,1.832
-3.552e-02,1.832
-3.520e-02,1.824
-3.488e-02,1.816
-3.456e-02,1.808
-3.424e-02,1.8
-3.392e-02,1.8
-3.360e-02,1.784
-3.328e-02,1.792
-3.296e-02,1.784
-3.264e-02,1.776
-3.232e-02,1.768
-3.200e-02,1.76
-3.168e-02,1.76
-3.136e-02,1.736
-3.104e-02,1.728
-3.072e-02,1.72
-3.040e-02,1.712
-3.008e-02,1.704
-2.976e-02,1.704
-2.944e-02,1.704
-2.912e-02,1.704
-2.880e-02,1.696
-2.848e-02,1.704
-2.816e-02,1.704
-2.784e-02,1.696
-2.752e-02,1.712
-2.720e-02,1.704
-2.688e-02,1.704
-2.656e-02,1.704
-2.624e-02,1.696
-2.592e-02,1.704
-2.560e-02,1.704
-2.528e-02,1.712
-2.496e-02,1.704
-2.464e-02,1.712
-2.432e-02,1.704
-2.400e-02,1.712
-2.368e-02,1.72
-2.336e-02,1.72
-2.304e-02,1.72
-2.272e-02,1.728
-2.240e-02,1.728
-2.208e-02,1.728
-2.176e-02,1.728
-2.144e-02,1.76
-2.112e-02,1.768
-2.080e-02,1.776
-2.048e-02,1.784
-2.016e-02,1.792
-1.984e-02,1.8
-1.952e-02,1.8
-1.920e-02,1.8
-1.888e-02,1.8
-1.856e-02,1.808
-1.824e-02,1.8
-1.792e-02,1.816
-1.760e-02,1.816
-1.728e-02,1.824
-1.696e-02,1.84
-1.664e-02,1.84
-1.632e-02,1.848
-1.600e-02,1.856
-1.568e-02,1.864
-1.536e-02,1.872
-1.504e-02,1.872
-1.472e-02,1.888
-1.440e-02,1.896
-1.408e-02,1.896
-1.376e-02,1.92
-1.344e-02,1.928
-1.312e-02,1.936
-1.280e-02,1.944
-1.248e-02,1.96
-1.216e-02,1.968
-1.184e-02,1.976
-1.152e-02,1.976
-1.120e-02,1.976
-1.088e-02,1.984
-1.056e-02,1.984
-1.024e-02,1.992
-9.920e-03,2.008
-9.600e-03,2.016
-9.280e-03,2.032
-8.960e-03,2.048
-8.640e-03,2.064
-8.320e-03,2.08
-8.000e-03,2.096
-7.680e-03,2.104
-7.360e-03,2.12
-7.040e-03,2.128
-6.720e-03,2.136
-6.400e-03,2.144
-6.080e-03,2.16
-5.760e-03,2.176
-5.440e-03,2.184
-5.120e-03,2.2
-4.800e-03,2.2
-4.480e-03,2.208
-4.160e-03,2.224
-3.840e-03,2.232
-3.520e-03,2.24
-3.200e-03,2.248
-2.880e-03,2.256
-2.560e-03,2.272
-2.240e-03,2.28
-1.920e-03,2.288
-1.600e-03,2.296
-1.280e-03,2.32
-9.600e-04,2.336
-6.400e-04,2.352
-3.200e-04,2.36
-2.700e-15,2.368
3.200e-04,2.376
6.400e-04,2.376
9.600e-04,2.392
1.280e-03,2.384
1.600e-03,2.392
1.920e-03,2.392
2.240e-03,2.4
2.560e-03,2.4
2.880e-03,2.408
3.200e-03,2.408
3.520e-03,2.424
3.840e-03,2.424
4.160e-03,2.424
4.480e-03,2.432
4.800e-03,2.432
5.120e-03,2.432
5.440e-03,2.44
5.760e-03,2.448
6.080e-03,2.448
6.400e-03,2.456
6.720e-03,2.472
7.040e-03,2.472
7.360e-03,2.472
7.680e-03,2.48
8.000e-03,2.472
8.320e-03,2.48
8.640e-03,2.48
8.960e-03,2.464
9.280e-03,2.464
9.600e-03,2.472
9.920e-03,2.472
1.024e-02,2.488
1.056e-02,2.488
1.088e-02,2.488
1.120e-02,2.496
1.152e-02,2.504
1.184e-02,2.52
1.216e-02,2.52
1.248e-02,2.52
1.280e-02,2.528
1.312e-02,2.536
1.344e-02,2.544
1.376e-02,2.544
1.408e-02,2.552
1.440e-02,2.552
1.472e-02,2.56
1.504e-02,2.568
1.536e-02,2.568
1.568e-02,2.56
1.600e-02,2.576
1.632e-02,2.576
1.664e-02,2.576
1.696e-02,2.576
1.728e-02,2.584
1.760e-02,2.584
1.792e-02,2.584
1.824e-02,2.6
1.856e-02,2.6
1.888e-02,2.608
1.920e-02,2.624
1.952e-02,2.632
1.984e-02,2.624
2.016e-02,2.624
2.048e-02,2.624
2.080e-02,2.624
2.112e-02,2.624
2.144e-02,2.624
2.176e-02,2.624
2.208e-02,2.616
2.240e-02,2.616
2.272e-02,2.616
2.304e-02,2.616
2.336e-02,2.608
2.368e-02,2.616
2.400e-02,2.616
2.432e-02,2.616
2.464e-02,2.616
2.496e-02,2.608
2.528e-02,2.616
2.560e-02,2.616
2.592e-02,2.616
2.624e-02,2.616
2.656e-02,2.616
2.688e-02,2.616
2.720e-02,2.616
2.752e-02,2.616
2.784e-02,2.624
2.816e-02,2.616
2.848e-02,2.608
2.880e-02,2.608
2.912e-02,2.592
2.944e-02,2.592
2.976e-02,2.6
3.008e-02,2.592
3.040e-02,2.6
3.072e-02,2.6
3.104e-02,2.608
3.136e-02,2.6
3.168e-02,2.608
3.200e-02,2.624
3.232e-02,2.616
3.264e-02,2.632
3.296e-02,2.624
3.328e-02,2.624
3.360e-02,2.624
3.392e-02,2.632
3.424e-02,2.624
3.456e-02,2.64
3.488e-02,2.64
3.520e-02,2.64
3.552e-02,2.64
3.584e-02,2.632
3.616e-02,2.64
3.648e-02,2.64
3.680e-02,2.64
3.712e-02,2.64
3.744e-02,2.64
3.776e-02,2.648
3.808e-02,2.648
3.840e-02,2.648
3.872e-02,2.656
3.904e-02,2.672
3.936e-02,2.672
3.968e-02,2.672
4.000e-02,2.672
4.032e-02,2.672
4.064e-02,2.664
4.096e-02,2.672
4.128e-02,2.664
4.160e-02,2.672
4.192e-02,2.664
4.224e-02,2.656
4.256e-02,2.656
4.288e-02,2.656
4.320e-02,2.656
4.352e-02,2.656
4.384e-02,2.64
4.416e-02,2.64
4.448e-02,2.648
4.480e-02,2.648
4.512e-02,2.648
4.544e-02,2.64
4.576e-02,2.64
4.608e-02,2.648
4.640e-02,2.648
4.672e-02,2.64
4.704e-02,2.64
4.736e-02,2.648
4.768e-02,2.648
4.800e-02,2.648
4.832e-02,2.64
4.864e-02,2.632
4.896e-02,2.624
4.928e-02,2.616
4.960e-02,2.632
4.992e-02,2.616
5.024e-02,2.608
5.056e-02,2.616
5.088e-02,2.624
5.120e-02,2.624
5.152e-02,2.632
5.184e-02,2.632
5.216e-02,2.64
5.248e-02,2.648
5.280e-02,2.648
5.312e-02,2.64
5.344e-02,2.64
5.376e-02,2.648
5.408e-02,2.648
5.440e-02,2.648
5.472e-02,2.648
5.504e-02,2.656
5.536e-02,2.656
5.568e-02,2.648
5.600e-02,2.656
5.632e-02,2.656
5.664e-02,2.648
5.696e-02,2.656
5.728e-02,2.656
5.760e-02,2.656
5.792e-02,2.656
5.824e-02,2.656
5.856e-02,2.672
5.888e-02,2.688
5.920e-02,2.688
5.952e-02,2.688
5.984e-02,2.688
6.016e-02,2.688
6.048e-02,2.688
6.080e-02,2.68
6.112e-02,2.68
6.144e-02,2.68
6.176e-02,2.672
6.208e-02,2.68
6.240e-02,2.664
6.272e-02,2.672
6.304e-02,2.672
6.336e-02,2.664
6.368e-02,2.664
6.400e-02,2.664
6.432e-02,2.664
6.464e-02,2.656
6.496e-02,2.656
6.528e-02,2.656
6.560e-02,2.656
6.592e-02,2.648
6.624e-02,2.648
6.656e-02,2.664
6.688e-02,2.656
6.720e-02,2.656
6.752e-02,2.656
6.784e-02,2.648
6.816e-02,2.656
6.848e-02,2.648
6.880e-02,2.64
6.912e-02,2.624
6.944e-02,2.624
6.976e-02,2.632
7.008e-02,2.624
7.040e-02,2.624
7.072e-02,2.632
7.104e-02,2.632
7.136e-02,2.632
7.168e-02,2.64
7.200e-02,2.648
7.232e-02,2.648
7.264e-02,2.656
7.296e-02,2.648
7.328e-02,2.656
7.360e-02,2.648
7.392e-02,2.656
7.424e-02,2.656
7.456e-02,2.656
7.488e-02,2.664
7.520e-02,2.664
7.552e-02,2.664
7.584e-02,2.664
7.616e-02,2.672
7.648e-02,2.664
7.680e-02,2.656
7.712e-02,2.656
7.744e-02,2.656
7.776e-02,2.664
7.808e-02,2.664
7.840e-02,2.672
7.872e-02,2.672
7.904e-02,2.688
7.936e-02,2.688
7.968e-02,2.696
8.000e-02,2.696
8.032e-02,2.696
8.064e-02,2.696
8.096e-02,2.688
8.128e-02,2.68
8.160e-02,2.68
8.192e-02,2.672
8.224e-02,2.68
8.256e-02,2.672
8.288e-02,2.672
8.320e-02,2.664
8.352e-02,2.672
8.384e-02,2.672
8.416e-02,2.664
8.448e-02,2.664
8.480e-02,2.664
8.512e-02,2.664
8.544e-02,2.656
8.576e-02,2.664
8.608e-02,2.656
8.640e-02,2.664
8.672e-02,2.656
8.704e-02,2.656
8.736e-02,2.664
8.768e-02,2.656
8.800e-02,2.648
8.832e-02,2.656
8.864e-02,2.648
8.896e-02,2.64
8.928e-02,2.632
8.960e-02,2.632
8.992e-02,2.624
9.024e-02,2.632
9.056e-02,2.632
9.088e-02,2.632
9.120e-02,2.632
9.152e-02,2.648
9.184e-02,2.656
9.216e-02,2.648
9.248e-02,2.648
9.280e-02,2.656
9.312e-02,2.656
9.344e-02,2.656
9.376e-02,2.656
9.408e-02,2.664
9.440e-02,2.664
9.472e-02,2.664
9.504e-02,2.664
9.536e-02,2.672
9.568e-02,2.664
9.600e-02,2.664
9.632e-02,2.664
9.664e-02,2.664
9.696e-02,2.672
9.728e-02,2.664
9.760e-02,2.664
9.792e-02,2.672
9.824e-02,2.664
9.856e-02,2.672
9.888e-02,2.688
9.920e-02,2.696
9.952e-02,2.704
9.984e-02,2.696
1.002e-01,2.696
1.005e-01,2.696
1.008e-01,2.696
1.011e-01,2.696
1.014e-01,2.688
1.018e-01,2.68
1.021e-01,2.672
1.024e-01,2.672
1.027e-01,2.672
1.030e-01,2.68
1.034e-01,2.672
1.037e-01,2.664
1.040e-01,2.672
1.043e-01,2.672
1.046e-01,2.664
1.050e-01,2.664
1.053e-01,2.656
1.056e-01,2.664
1.059e-01,2.672
1.062e-01,2.664
1.066e-01,2.664
1.069e-01,2.664
1.072e-01,2.656
1.075e-01,2.664
1.078e-01,2.664
1.082e-01,2.664
1.085e-01,2.656
1.088e-01,2.64
1.091e-01,2.64
1.094e-01,2.632
1.098e-01,2.624
1.101e-01,2.624
1.104e-01,2.632
1.107e-01,2.64
1.110e-01,2.632
1.114e-01,2.64
1.117e-01,2.648
1.120e-01,2.656
1.123e-01,2.656
1.126e-01,2.656
1.130e-01,2.656
1.133e-01,2.664
1.136e-01,2.656
1.139e-01,2.664
1.142e-01,2.664
1.146e-01,2.664
1.149e-01,2.664
1.152e-01,2.664
1.155e-01,2.664
1.158e-01,2.672
1.162e-01,2.672
1.165e-01,2.664
1.168e-01,2.672
1.171e-01,2.664
1.174e-01,2.672
1.178e-01,2.664
1.181e-01,2.672
1.184e-01,2.672
1.187e-01,2.688
1.190e-01,2.688
1.194e-01,2.696
1.197e-01,2.696
1.200e-01,2.704
1.203e-01,2.696
1.206e-01,2.696
1.210e-01,2.688
1.213e-01,2.68
1.216e-01,2.68
1.219e-01,2.688
1.222e-01,2.672
1.226e-01,2.672
1.229e-01,2.672
1.232e-01,2.672
1.235e-01,2.672
1.238e-01,2.672
1.242e-01,2.672
1.245e-01,2.656
1.248e-01,2.664
1.251e-01,2.664
1.254e-01,2.656
1.258e-01,2.656
1.261e-01,2.656
1.264e-01,2.664
1.267e-01,2.664
1.270e-01,2.664
1.274e-01,2.656
1.277e-01,2.656
1.280e-01,2.664
1.283e-01,2.664
1.286e-01,2.648
1.290e-01,2.632
1.293e-01,2.632
1.296e-01,2.632
1.299e-01,2.632
1.302e-01,2.624
1.306e-01,2.632
1.309e-01,2.64
1.312e-01,2.64
1.315e-01,2.648
1.318e-01,2.648
1.322e-01,2.648
1.325e-01,2.656
1.328e-01,2.656
1.331e-01,2.656
1.334e-01,2.648
1.338e-01,2.664
1.341e-01,2.664
1.344e-01,2.664
1.347e-01,2.664
1.350e-01,2.664
1.354e-01,2.664
1.357e-01,2.672
1.360e-01,2.664
1.363e-01,2.664
1.366e-01,2.656
1.370e-01,2.664
1.373e-01,2.664
1.376e-01,2.664
1.379e-01,2.664
1.382e-01,2.664
1.386e-01,2.672
1.389e-01,2.68
1.392e-01,2.696
1.395e-01,2.696
1.398e-01,2.696
1.402e-01,2.696
1.405e-01,2.696
1.408e-01,2.688
1.411e-01,2.688
1.414e-01,2.68
1.418e-01,2.68
1.421e-01,2.68
1.424e-01,2.68
1.427e-01,2.672
1.430e-01,2.672
1.434e-01,2.672
1.437e-01,2.664
1.440e-01,2.656
1.443e-01,2.664
1.446e-01,2.664
1.450e-01,2.664
1.453e-01,2.656
1.456e-01,2.664
1.459e-01,2.656
1.462e-01,2.656
1.466e-01,2.656
1.469e-01,2.664
1.472e-01,2.656
1.475e-01,2.664
1.478e-01,2.648
1.482e-01,2.656
1.485e-01,2.656
1.488e-01,2.64
1.491e-01,2.624
1.494e-01,2.624
1.498e-01,2.624
1.501e-01,2.632
1.504e-01,2.624
1.507e-01,2.624
1.510e-01,2.632
1.514e-01,2.64
1.517e-01,2.648
1.520e-01,2.648
1.523e-01,2.648
1.526e-01,2.656
1.530e-01,2.648
1.533e-01,2.648
1.536e-01,2.648
1.539e-01,2.648
1.542e-01,2.656
1.546e-01,2.656
1.549e-01,2.656
1.552e-01,2.664
1.555e-01,2.664
1.558e-01,2.656
1.562e-01,2.664
1.565e-01,2.664
1.568e-01,2.664
1.571e-01,2.656
1.574e-01,2.664
1.578e-01,2.656
1.581e-01,2.664
1.584e-01,2.664
1.587e-01,2.68
1.590e-01,2.68
1.594e-01,2.688
1.597e-01,2.688
1.600e-01,2.696
1.603e-01,2.688
1.606e-01,2.688
1.610e-01,2.688
1.613e-01,2.68
1.616e-01,2.68
1.619e-01,2.664
1.622e-01,2.68
1.626e-01,2.672
1.629e-01,2.672
1.632e-01,2.664
1.635e-01,2.664
1.638e-01,2.664
1.642e-01,2.664
1.645e-01,2.656
1.648e-01,2.656
1.651e-01,2.648
1.654e-01,2.656
1.658e-01,2.648
1.661e-01,2.656
1.664e-01,2.648
1.667e-01,2.648
1.670e-01,2.648
1.674e-01,2.656
1.677e-01,2.648
1.680e-01,2.648
1.683e-01,2.648
1.686e-01,2.64
1.690e-01,2.632
1.693e-01,2.624
1.696e-01,2.616
1.699e-01,2.616
1.702e-01,2.624
1.706e-01,2.632
1.709e-01,2.632
1.712e-01,2.624
1.715e-01,2.632
1.718e-01,2.64
1.722e-01,2.64
1.725e-01,2.64
1.728e-01,2.64
1.731e-01,2.64
1.734e-01,2.64
1.738e-01,2.656
1.741e-01,2.648
1.744e-01,2.648
1.747e-01,2.648
1.750e-01,2.656
1.754e-01,2.656
1.757e-01,2.656
1.760e-01,2.648
1.763e-01,2.648
1.766e-01,2.656
1.770e-01,2.656
1.773e-01,2.656
1.776e-01,2.656
1.779e-01,2.648
1.782e-01,2.656
1.786e-01,2.664
1.789e-01,2.672
1.792e-01,2.68
1.795e-01,2.688
1.798e-01,2.68
1.802e-01,2.688
1.805e-01,2.68
1.808e-01,2.672
1.811e-01,2.68
1.814e-01,2.672
1.818e-01,2.664
1.821e-01,2.656
1.824e-01,2.656
1.827e-01,2.664
1.830e-01,2.664
1.834e-01,2.656
1.837e-01,2.656
1.840e-01,2.648
1.843e-01,2.648
1.846e-01,2.648
1.850e-01,2.648
1.853e-01,2.648
1.856e-01,2.648
1.859e-01,2.648
