lab_data/40 - 40/TEK00000.CSV

Model,TBS1102C
Firmware Version,v2015-08-04-prequal4ch70_v1.3

Point Format,Y
Horizontal Units,S
Horizontal Scale,0.04
Sample Interval,0.00032
Filter Frequency,2e+08
Record Length,2000
Gating,0.0% to 100.0%
Probe Attenuation,1
Vertical Units,V
Vertical Offset,1
Vertical Scale,0.2
Label,
TIME,CH1
-2.003e-01,1.744
-2.000e-01,1.752
-1.997e-01,1.752
-1.994e-01,1.752
-1.990e-01,1.744
-1.987e-01,1.744
-1.984e-01,1.744
-1.981e-01,1.736
-1.978e-01,1.728
-1.974e-01,1.72
-1.971e-01,1.72
-1.968e-01,1.712
-1.965e-01,1.712
-1.962e-01,1.712
-1.958e-01,1.72
-1.955e-01,1.72
-1.952e-01,1.72
-1.949e-01,1.736
-1.946e-01,1.744
-1.942e-01,1.736
-1.939e-01,1.744
-1.936e-01,1.744
-1.933e-01,1.744
-1.930e-01,1.744
-1.926e-01,1.744
-1.923e-01,1.752
-1.920e-01,1.752
-1.917e-01,1.752
-1.914e-01,1.76
-1.910e-01,1.752
-1.907e-01,1.752
-1.904e-01,1.752
-1.901e-01,1.752
-1.898e-01,1.76
-1.894e-01,1.76
-1.891e-01,1.752
-1.888e-01,1.76
-1.885e-01,1.752
-1.882e-01,1.768
-1.878e-01,1.776
-1.875e-01,1.784
-1.872e-01,1.784
-1.869e-01,1.792
-1.866e-01,1.792
-1.862e-01,1.784
-1.859e-01,1.784
-1.856e-01,1.768
-1.853e-01,1.784
-1.850e-01,1.776
-1.846e-01,1.768
-1.843e-01,1.768
-1.840e-01,1.76
-1.837e-01,1.768
-1.834e-01,1.76
-1.830e-01,1.768
-1.827e-01,1.76
-1.824e-01,1.752
-1.821e-01,1.768
-1.818e-01,1.76
-1.814e-01,1.752
-1.811e-01,1.76
-1.808e-01,1.752
-1.805e-01,1.752
-1.802e-01,1.76
-1.798e-01,1.76
-1.795e-01,1.752
-1.792e-01,1.752
-1.789e-01,1.752
-1.786e-01,1.752
-1.782e-01,1.752
-1.779e-01,1.736
-1.776e-01,1.728
-1.773e-01,1.728
-1.770e-01,1.72
-1.766e-01,1.728
-1.763e-01,1.728
-1.760e-01,1.736
-1.757e-01,1.736
-1.754e-01,1.728
-1.750e-01,1.744
-1.747e-01,1.736
-1.744e-01,1.752
-1.741e-01,1.76
-1.738e-01,1.744
-1.734e-01,1.752
-1.731e-01,1.744
-1.728e-01,1.752
-1.725e-01,1.76
-1.722e-01,1.752
-1.718e-01,1.76
-1.715e-01,1.76
-1.712e-01,1.768
-1.709e-01,1.768
-1.706e-01,1.76
-1.702e-01,1.76
-1.699e-01,1.752
-1.696e-01,1.76
-1.693e-01,1.76
-1.690e-01,1.752
-1.686e-01,1.76
-1.683e-01,1.76
-1.680e-01,1.776
-1.677e-01,1.784
-1.674e-01,1.784
-1.670e-01,1.792
-1.667e-01,1.792
-1.664e-01,1.792
-1.661e-01,1.784
-1.658e-01,1.792
-1.654e-01,1.784
-1.651e-01,1.776
-1.648e-01,1.776
-1.645e-01,1.776
-1.642e-01,1.768
-1.638e-01,1.768
-1.635e-01,1.76
-1.632e-01,1.768
-1.629e-01,1.768
-1.626e-01,1.768
-1.622e-01,1.76
-1.619e-01,1.752
-1.616e-01,1.76
-1.613e-01,1.752
-1.610e-01,1.76
-1.606e-01,1.752
-1.603e-01,1.76
-1.600e-01,1.76
-1.597e-01,1.752
-1.594e-01,1.76
-1.590e-01,1.752
-1.587e-01,1.752
-1.584e-01,1.752
-1.581e-01,1.744
-1.578e-01,1.728
-1.574e-01,1.72
-1.571e-01,1.728
-1.568e-01,1.72
-1.565e-01,1.72
-1.562e-01,1.72
-1.558e-01,1.728
-1.555e-01,1.72
-1.552e-01,1.728
-1.549e-01,1.736
-1.546e-01,1.736
-1.542e-01,1.744
-1.539e-01,1.744
-1.536e-01,1.744
-1.533e-01,1.744
-1.530e-01,1.744
-1.526e-01,1.744
-1.523e-01,1.744
-1.520e-01,1.752
-1.517e-01,1.752
-1.514e-01,1.752
-1.510e-01,1.752
-1.507e-01,1.752
-1.504e-01,1.76
-1.501e-01,1.752
-1.498e-01,1.752
-1.494e-01,1.752
-1.491e-01,1.76
-1.488e-01,1.752
-1.485e-01,1.752
-1.482e-01,1.76
-1.478e-01,1.768
-1.475e-01,1.784
-1.472e-01,1.784
-1.469e-01,1.784
-1.466e-01,1.784
-1.462e-01,1.776
-1.459e-01,1.784
-1.456e-01,1.784
-1.453e-01,1.776
-1.450e-01,1.768
-1.446e-01,1.768
-1.443e-01,1.768
-1.440e-01,1.768
-1.437e-01,1.768
-1.434e-01,1.76
-1.430e-01,1.768
-1.427e-01,1.768
-1.424e-01,1.768
-1.421e-01,1.76
-1.418e-01,1.76
-1.414e-01,1.76
-1.411e-01,1.76
-1.408e-01,1.768
-1.405e-01,1.768
-1.402e-01,1.768
-1.398e-01,1.768
-1.395e-01,1.768
-1.392e-01,1.768
-1.389e-01,1.768
-1.386e-01,1.768
-1.382e-01,1.768
-1.379e-01,1.76
-1.376e-01,1.752
-1.373e-01,1.752
-1.370e-01,1.752
-1.366e-01,1.752
-1.363e-01,1.76
-1.360e-01,1.76
-1.357e-01,1.768
-1.354e-01,1.776
-1.350e-01,1.776
-1.347e-01,1.784
-1.344e-01,1.792
-1.341e-01,1.784
-1.338e-01,1.792
-1.334e-01,1.8
-1.331e-01,1.8
-1.328e-01,1.8
-1.325e-01,1.808
-1.322e-01,1.816
-1.318e-01,1.808
-1.315e-01,1.808
-1.312e-01,1.808
-1.309e-01,1.816
-1.306e-01,1.816
-1.302e-01,1.816
-1.299e-01,1.816
-1.296e-01,1.816
-1.293e-01,1.816
-1.290e-01,1.808
-1.286e-01,1.808
-1.283e-01,1.816
-1.280e-01,1.824
-1.277e-01,1.832
-1.274e-01,1.84
-1.270e-01,1.832
-1.267e-01,1.832
-1.264e-01,1.832
-1.261e-01,1.824
-1.258e-01,1.824
-1.254e-01,1.816
-1.251e-01,1.808
-1.248e-01,1.808
-1.245e-01,1.8
-1.242e-01,1.8
-1.238e-01,1.792
-1.235e-01,1.792
-1.232e-01,1.784
-1.229e-01,1.784
-1.226e-01,1.776
-1.222e-01,1.768
-1.219e-01,1.776
-1.216e-01,1.768
-1.213e-01,1.76
-1.210e-01,1.76
-1.206e-01,1.76
-1.203e-01,1.752
-1.200e-01,1.752
-1.197e-01,1.752
-1.194e-01,1.752
-1.190e-01,1.736
-1.187e-01,1.736
-1.184e-01,1.728
-1.181e-01,1.712
-1.178e-01,1.696
-1.174e-01,1.688
-1.171e-01,1.688
-1.168e-01,1.672
-1.165e-01,1.68
-1.162e-01,1.672
-1.158e-01,1.672
-1.155e-01,1.664
-1.152e-01,1.672
-1.149e-01,1.672
-1.146e-01,1.672
-1.142e-01,1.672
-1.139e-01,1.664
-1.136e-01,1.664
-1.133e-01,1.664
-1.130e-01,1.664
-1.126e-01,1.664
-1.123e-01,1.656
-1.120e-01,1.656
-1.117e-01,1.648
-1.114e-01,1.648
-1.110e-01,1.64
-1.107e-01,1.632
-1.104e-01,1.632
-1.101e-01,1.624
-1.098e-01,1.624
-1.094e-01,1.616
-1.091e-01,1.616
-1.088e-01,1.608
-1.085e-01,1.608
-1.082e-01,1.608
-1.078e-01,1.616
-1.075e-01,1.624
-1.072e-01,1.616
-1.069e-01,1.616
-1.066e-01,1.616
-1.062e-01,1.608
-1.059e-01,1.608
-1.056e-01,1.592
-1.053e-01,1.592
-1.050e-01,1.576
-1.046e-01,1.568
-1.043e-01,1.56
-1.040e-01,1.552
-1.037e-01,1.552
-1.034e-01,1.552
-1.030e-01,1.552
-1.027e-01,1.536
-1.024e-01,1.528
-1.021e-01,1.528
-1.018e-01,1.528
-1.014e-01,1.52
-1.011e-01,1.512
-1.008e-01,1.512
-1.005e-01,1.512
-1.002e-01,1.512
-9.984e-02,1.504
-9.952e-02,1.504
-9.920e-02,1.496
-9.888e-02,1.496
-9.856e-02,1.496
-9.824e-02,1.496
-9.792e-02,1.472
-9.760e-02,1.456
-9.728e-02,1.456
-9.696e-02,1.464
-9.664e-02,1.456
-9.632e-02,1.456
-9.600e-02,1.456
-9.568e-02,1.456
-9.536e-02,1.464
-9.504e-02,1.464
-9.472e-02,1.464
-9.440e-02,1.464
-9.408e-02,1.472
-9.376e-02,1.472
-9.344e-02,1.472
-9.312e-02,1.472
-9.280e-02,1.488
-9.248e-02,1.48
-9.216e-02,1.488
-9.184e-02,1.48
-9.152e-02,1.488
-9.120e-02,1.488
-9.088e-02,1.488
-9.056e-02,1.488
-9.024e-02,1.488
-8.992e-02,1.496
-8.960e-02,1.496
-8.928e-02,1.496
-8.896e-02,1.496
-8.864e-02,1.496
-8.832e-02,1.496
-8.800e-02,1.512
-8.768e-02,1.528
-8.736e-02,1.544
-8.704e-02,1.536
-8.672e-02,1.544
-8.640e-02,1.544
-8.608e-02,1.544
-8.576e-02,1.544
-8.544e-02,1.544
-8.512e-02,1.544
-8.480e-02,1.544
-8.448e-02,1.544
-8.416e-02,1.544
-8.384e-02,1.544
-8.352e-02,1.544
-8.320e-02,1.56
-8.288e-02,1.552
-8.256e-02,1.56
-8.224e-02,1.56
-8.192e-02,1.56
-8.160e-02,1.56
-8.128e-02,1.56
-8.096e-02,1.568
-8.064e-02,1.568
-8.032e-02,1.576
-8.000e-02,1.576
-7.968e-02,1.584
-7.936e-02,1.584
-7.904e-02,1.584
-7.872e-02,1.6
-7.840e-02,1.592
-7.808e-02,1.592
-7.776e-02,1.584
-7.744e-02,1.584
-7.712e-02,1.592
-7.680e-02,1.584
-7.648e-02,1.6
-7.616e-02,1.6
-7.584e-02,1.608
-7.552e-02,1.616
-7.520e-02,1.624
-7.488e-02,1.64
-7.456e-02,1.648
-7.424e-02,1.648
-7.392e-02,1.656
-7.360e-02,1.672
-7.328e-02,1.664
-7.296e-02,1.68
-7.264e-02,1.68
-7.232e-02,1.688
-7.200e-02,1.696
-7.168e-02,1.704
-7.136e-02,1.704
-7.104e-02,1.712
-7.072e-02,1.72
-7.040e-02,1.728
-7.008e-02,1.728
-6.976e-02,1.736
-6.944e-02,1.744
-6.912e-02,1.736
-6.880e-02,1.752
-6.848e-02,1.76
-6.816e-02,1.76
-6.784e-02,1.784
-6.752e-02,1.8
-6.720e-02,1.808
-6.688e-02,1.808
-6.656e-02,1.808
-6.624e-02,1.816
-6.592e-02,1.816
-6.560e-02,1.824
-6.528e-02,1.824
-6.496e-02,1.816
-6.464e-02,1.816
-6.432e-02,1.824
-6.400e-02,1.824
-6.368e-02,1.832
-6.336e-02,1.832
-6.304e-02,1.824
-6.272e-02,1.832
-6.240e-02,1.84
-6.208e-02,1.84
-6.176e-02,1.84
-6.144e-02,1.848
-6.112e-02,1.848
-6.080e-02,1.856
-6.048e-02,1.848
-6.016e-02,1.864
-5.984e-02,1.864
-5.952e-02,1.872
-5.920e-02,1.872
-5.888e-02,1.872
-5.856e-02,1.872
-5.824e-02,1.872
-5.792e-02,1.864
-5.760e-02,1.872
-5.728e-02,1.856
-5.696e-02,1.856
-5.664e-02,1.864
-5.632e-02,1.864
-5.600e-02,1.872
-5.568e-02,1.88
-5.536e-02,1.888
-5.504e-02,1.896
-5.472e-02,1.904
-5.440e-02,1.912
-5.408e-02,1.912
-5.376e-02,1.92
-5.344e-02,1.92
-5.312e-02,1.928
-5.280e-02,1.936
-5.248e-02,1.928
-5.216e-02,1.928
-5.184e-02,1.936
-5.152e-02,1.936
-5.120e-02,1.936
-5.088e-02,1.944
-5.056e-02,1.936
-5.024e-02,1.936
-4.992e-02,1.944
-4.960e-02,1.936
-4.928e-02,1.944
-4.896e-02,1.936
-4.864e-02,1.944
-4.832e-02,1.936
-4.800e-02,1.952
-4.768e-02,1.952
-4.736e-02,1.952
-4.704e-02,1.96
-4.672e-02,1.96
-4.640e-02,1.952
-4.608e-02,1.944
-4.576e-02,1.936
-4.544e-02,1.944
-4.512e-02,1.936
-4.480e-02,1.92
-4.448e-02,1.92
-4.416e-02,1.92
-4.384e-02,1.912
-4.352e-02,1.904
-4.320e-02,1.912
-4.288e-02,1.896
-4.256e-02,1.896
-4.224e-02,1.888
-4.192e-02,1.88
-4.160e-02,1.88
-4.128e-02,1.872
-4.096e-02,1.864
-4.064e-02,1.872
-4.032e-02,1.864
-4.000e-02,1.856
-3.968e-02,1.848
-3.936e-02,1.848
-3.904e-02,1.84
-3.872e-02,1.832
-3.840e-02,1.824
-3.808e-02,1.808
-3.776e-02,1.8
-3.744e-02,1.784
-3.712e-02,1.776
-3.680e-02,1.768
-3.648e-02,1.768
-3.616e-02,1.768
-3.584e-02,1.76
-3.552e-02,1.752
-3.520e-02,1.752
-3.488e-02,1.76
-3.456e-02,1.76
-3.424e-02,1.752
-3.392e-02,1.744
-3.360e-02,1.744
-3.328e-02,1.736
-3.296e-02,1.736
-3.264e-02,1.736
-3.232e-02,1.736
-3.200e-02,1.728
-3.168e-02,1.728
-3.136e-02,1.72
-3.104e-02,1.72
-3.072e-02,1.728
-3.040e-02,1.72
-3.008e-02,1.712
-2.976e-02,1.72
-2.944e-02,1.712
-2.912e-02,1.712
-2.880e-02,1.712
-2.848e-02,1.72
-2.816e-02,1.72
-2.784e-02,1.736
-2.752e-02,1.736
-2.720e-02,1.736
-2.688e-02,1.744
-2.656e-02,1.752
-2.624e-02,1.744
-2.592e-02,1.744
-2.560e-02,1.744
-2.528e-02,1.744
-2.496e-02,1.744
-2.464e-02,1.736
-2.432e-02,1.744
-2.400e-02,1.736
-2.368e-02,1.752
-2.336e-02,1.752
-2.304e-02,1.76
-2.272e-02,1.752
-2.240e-02,1.752
-2.208e-02,1.76
-2.176e-02,1.76
-2.144e-02,1.768
-2.112e-02,1.776
-2.080e-02,1.784
-2.048e-02,1.784
-2.016e-02,1.792
-1.984e-02,1.808
-1.952e-02,1.808
-1.920e-02,1.816
-1.888e-02,1.824
-1.856e-02,1.832
-1.824e-02,1.832
-1.792e-02,1.832
-1.760e-02,1.832
-1.728e-02,1.84
-1.696e-02,1.848
-1.664e-02,1.856
-1.632e-02,1.864
-1.600e-02,1.88
-1.568e-02,1.888
-1.536e-02,1.904
-1.504e-02,1.92
-1.472e-02,1.936
-1.440e-02,1.944
-1.408e-02,1.96
-1.376e-02,1.976
-1.344e-02,1.976
-1.312e-02,1.984
-1.280e-02,2
-1.248e-02,2.016
-1.216e-02,2.032
-1.184e-02,2.04
-1.152e-02,2.048
-1.120e-02,2.064
-1.088e-02,2.072
-1.056e-02,2.08
-1.024e-02,2.096
-9.920e-03,2.096
-9.600e-03,2.104
-9.280e-03,2.12
-8.960e-03,2.136
-8.640e-03,2.136
-8.320e-03,2.144
-8.000e-03,2.168
-7.680e-03,2.192
-7.360e-03,2.2
-7.040e-03,2.216
-6.720e-03,2.224
-6.400e-03,2.232
-6.080e-03,2.248
-5.760e-03,2.24
-5.440e-03,2.248
-5.120e-03,2.256
-4.800e-03,2.256
-4.480e-03,2.264
-4.160e-03,2.272
-3.840e-03,2.272
-3.520e-03,2.28
-3.200e-03,2.296
-2.880e-03,2.296
-2.560e-03,2.312
-2.240e-03,2.312
-1.920e-03,2.32
-1.600e-03,2.32
-1.280e-03,2.328
-9.600e-04,2.336
-6.400e-04,2.336
-3.200e-04,2.352
-2.700e-15,2.352
3.200e-04,2.368
6.400e-04,2.368
9.600e-04,2.384
1.280e-03,2.384
1.600e-03,2.384
1.920e-03,2.384
2.240e-03,2.384
2.560e-03,2.384
2.880e-03,2.392
3.200e-03,2.392
3.520e-03,2.4
3.840e-03,2.408
4.160e-03,2.408
4.480e-03,2.416
4.800e-03,2.432
5.120e-03,2.44
5.440e-03,2.448
5.760e-03,2.456
6.080e-03,2.456
6.400e-03,2.456
6.720e-03,2.472
7.040e-03,2.472
7.360e-03,2.48
7.680e-03,2.48
8.000e-03,2.488
8.320e-03,2.504
8.640e-03,2.504
8.960e-03,2.512
9.280e-03,2.512
9.600e-03,2.52
9.920e-03,2.52
1.024e-02,2.52
1.056e-02,2.52
1.088e-02,2.52
1.120e-02,2.536
1.152e-02,2.552
1.184e-02,2.552
1.216e-02,2.56
1.248e-02,2.568
1.280e-02,2.584
1.312e-02,2.584
1.344e-02,2.584
1.376e-02,2.592
1.408e-02,2.584
1.440e-02,2.592
1.472e-02,2.584
1.504e-02,2.584
1.536e-02,2.576
1.568e-02,2.576
1.600e-02,2.584
1.632e-02,2.584
1.664e-02,2.576
1.696e-02,2.584
1.728e-02,2.584
1.760e-02,2.592
1.792e-02,2.592
1.824e-02,2.584
1.856e-02,2.584
1.888e-02,2.592
1.920e-02,2.584
1.952e-02,2.6
1.984e-02,2.592
2.016e-02,2.592
2.048e-02,2.592
2.080e-02,2.6
2.112e-02,2.6
2.144e-02,2.592
2.176e-02,2.592
2.208e-02,2.584
2.240e-02,2.584
2.272e-02,2.576
2.304e-02,2.576
2.336e-02,2.568
2.368e-02,2.584
2.400e-02,2.584
2.432e-02,2.584
2.464e-02,2.584
2.496e-02,2.6
2.528e-02,2.592
2.560e-02,2.6
2.592e-02,2.608
2.624e-02,2.608
2.656e-02,2.616
2.688e-02,2.616
2.720e-02,2.616
2.752e-02,2.616
2.784e-02,2.616
2.816e-02,2.624
2.848e-02,2.624
2.880e-02,2.632
2.912e-02,2.632
2.944e-02,2.632
2.976e-02,2.632
3.008e-02,2.632
3.040e-02,2.632
3.072e-02,2.632
3.104e-02,2.632
3.136e-02,2.64
3.168e-02,2.632
3.200e-02,2.648
3.232e-02,2.664
3.264e-02,2.656
3.296e-02,2.664
3.328e-02,2.664
3.360e-02,2.664
3.392e-02,2.664
3.424e-02,2.664
3.456e-02,2.656
3.488e-02,2.656
3.520e-02,2.648
3.552e-02,2.648
3.584e-02,2.648
3.616e-02,2.648
3.648e-02,2.648
3.680e-02,2.648
3.712e-02,2.64
3.744e-02,2.64
3.776e-02,2.648
3.808e-02,2.64
3.840e-02,2.64
3.872e-02,2.64
3.904e-02,2.632
3.936e-02,2.632
3.968e-02,2.64
4.000e-02,2.64
4.032e-02,2.64
4.064e-02,2.64
4.096e-02,2.64
4.128e-02,2.64
4.160e-02,2.64
4.192e-02,2.632
4.224e-02,2.616
4.256e-02,2.608
4.288e-02,2.616
4.320e-02,2.608
4.352e-02,2.608
4.384e-02,2.608
4.416e-02,2.616
4.448e-02,2.624
4.480e-02,2.624
4.512e-02,2.624
4.544e-02,2.624
4.576e-02,2.64
4.608e-02,2.64
4.640e-02,2.632
4.672e-02,2.632
4.704e-02,2.64
4.736e-02,2.64
4.768e-02,2.64
4.800e-02,2.648
4.832e-02,2.648
4.864e-02,2.648
4.896e-02,2.656
4.928e-02,2.656
4.960e-02,2.656
4.992e-02,2.648
5.024e-02,2.648
5.056e-02,2.656
5.088e-02,2.648
5.120e-02,2.656
5.152e-02,2.648
5.184e-02,2.656
5.216e-02,2.672
5.248e-02,2.68
5.280e-02,2.68
5.312e-02,2.68
5.344e-02,2.68
5.376e-02,2.688
5.408e-02,2.68
5.440e-02,2.68
5.472e-02,2.672
5.504e-02,2.664
5.536e-02,2.672
5.568e-02,2.664
5.600e-02,2.664
5.632e-02,2.664
5.664e-02,2.656
5.696e-02,2.656
5.728e-02,2.656
5.760e-02,2.656
5.792e-02,2.648
5.824e-02,2.656
5.856e-02,2.648
5.888e-02,2.656
5.920e-02,2.656
5.952e-02,2.64
5.984e-02,2.648
6.016e-02,2.656
6.048e-02,2.656
6.080e-02,2.648
6.112e-02,2.648
6.144e-02,2.648
6.176e-02,2.648
6.208e-02,2.64
6.240e-02,2.624
6.272e-02,2.624
6.304e-02,2.624
6.336e-02,2.624
6.368e-02,2.624
6.400e-02,2.624
6.432e-02,2.632
6.464e-02,2.624
6.496e-02,2.64
6.528e-02,2.648
6.560e-02,2.648
6.592e-02,2.64
6.624e-02,2.648
6.656e-02,2.648
6.688e-02,2.656
6.720e-02,2.648
6.752e-02,2.648
6.784e-02,2.656
6.816e-02,2.656
6.848e-02,2.664
6.880e-02,2.656
6.912e-02,2.664
6.944e-02,2.664
6.976e-02,2.664
7.008e-02,2.656
7.040e-02,2.656
7.072e-02,2.664
7.104e-02,2.664
7.136e-02,2.664
7.168e-02,2.664
7.200e-02,2.672
7.232e-02,2.688
7.264e-02,2.688
7.296e-02,2.696
7.328e-02,2.688
7.360e-02,2.688
7.392e-02,2.696
7.424e-02,2.688
7.456e-02,2.68
7.488e-02,2.68
7.520e-02,2.672
7.552e-02,2.672
7.584e-02,2.672
7.616e-02,2.672
7.648e-02,2.664
7.680e-02,2.664
7.712e-02,2.664
7.744e-02,2.672
7.776e-02,2.664
7.808e-02,2.656
7.840e-02,2.656
7.872e-02,2.664
7.904e-02,2.664
7.936e-02,2.656
7.968e-02,2.656
8.000e-02,2.664
8.032e-02,2.664
8.064e-02,2.656
8.096e-02,2.656
8.128e-02,2.656
8.160e-02,2.656
8.192e-02,2.64
8.224e-02,2.64
8.256e-02,2.64
8.288e-02,2.632
8.320e-02,2.624
8.352e-02,2.624
8.384e-02,2.632
8.416e-02,2.632
8.448e-02,2.632
8.480e-02,2.632
8.512e-02,2.64
8.544e-02,2.656
8.576e-02,2.648
8.608e-02,2.648
8.640e-02,2.648
8.672e-02,2.664
8.704e-02,2.656
8.736e-02,2.656
8.768e-02,2.664
8.800e-02,2.656
8.832e-02,2.672
8.864e-02,2.664
8.896e-02,2.664
8.928e-02,2.664
8.960e-02,2.664
8.992e-02,2.656
9.024e-02,2.672
9.056e-02,2.672
9.088e-02,2.664
9.120e-02,2.672
9.152e-02,2.672
9.184e-02,2.672
9.216e-02,2.68
9.248e-02,2.688
9.280e-02,2.688
9.312e-02,2.696
9.344e-02,2.704
9.376e-02,2.696
9.408e-02,2.688
9.440e-02,2.696
9.472e-02,2.688
9.504e-02,2.688
9.536e-02,2.68
9.568e-02,2.672
9.600e-02,2.672
9.632e-02,2.672
9.664e-02,2.672
9.696e-02,2.664
9.728e-02,2.664
9.760e-02,2.664
9.792e-02,2.664
9.824e-02,2.664
9.856e-02,2.656
9.888e-02,2.664
9.920e-02,2.664
9.952e-02,2.656
9.984e-02,2.664
1.002e-01,2.656
1.005e-01,2.664
1.008e-01,2.664
1.011e-01,2.664
1.014e-01,2.664
1.018e-01,2.656
1.021e-01,2.632
1.024e-01,2.64
1.027e-01,2.632
1.030e-01,2.632
1.034e-01,2.624
1.037e-01,2.632
1.040e-01,2.632
1.043e-01,2.64
1.046e-01,2.64
1.050e-01,2.64
1.053e-01,2.648
1.056e-01,2.648
1.059e-01,2.656
1.062e-01,2.656
1.066e-01,2.656
1.069e-01,2.656
1.072e-01,2.656
1.075e-01,2.656
1.078e-01,2.656
1.082e-01,2.664
1.085e-01,2.664
1.088e-01,2.664
1.091e-01,2.672
1.094e-01,2.664
1.098e-01,2.656
1.101e-01,2.664
1.104e-01,2.664
1.107e-01,2.672
1.110e-01,2.664
1.114e-01,2.656
1.117e-01,2.672
1.120e-01,2.688
1.123e-01,2.696
1.126e-01,2.696
1.130e-01,2.696
1.133e-01,2.696
1.136e-01,2.704
1.139e-01,2.696
1.142e-01,2.688
1.146e-01,2.688
1.149e-01,2.688
1.152e-01,2.68
1.155e-01,2.672
1.158e-01,2.672
1.162e-01,2.664
1.165e-01,2.672
1.168e-01,2.672
1.171e-01,2.672
1.174e-01,2.664
1.178e-01,2.672
1.181e-01,2.664
1.184e-01,2.664
1.187e-01,2.656
1.190e-01,2.656
1.194e-01,2.656
1.197e-01,2.672
1.200e-01,2.664
1.203e-01,2.664
1.206e-01,2.656
1.210e-01,2.664
1.213e-01,2.664
1.216e-01,2.656
1.219e-01,2.648
1.222e-01,2.632
1.226e-01,2.624
1.229e-01,2.632
1.232e-01,2.624
1.235e-01,2.632
1.238e-01,2.632
1.242e-01,2.64
1.245e-01,2.632
1.248e-01,2.648
1.251e-01,2.648
1.254e-01,2.648
1.258e-01,2.648
1.261e-01,2.648
1.264e-01,2.656
1.267e-01,2.656
1.270e-01,2.656
1.274e-01,2.656
1.277e-01,2.664
1.280e-01,2.664
1.283e-01,2.664
1.286e-01,2.664
1.290e-01,2.672
1.293e-01,2.664
1.296e-01,2.664
1.299e-01,2.664
1.302e-01,2.656
1.306e-01,2.664
1.309e-01,2.672
1.312e-01,2.664
1.315e-01,2.672
1.318e-01,2.672
1.322e-01,2.688
1.325e-01,2.688
1.328e-01,2.704
1.331e-01,2.696
1.334e-01,2.696
1.338e-01,2.696
1.341e-01,2.688
1.344e-01,2.688
1.347e-01,2.68
1.350e-01,2.68
1.354e-01,2.672
1.357e-01,2.672
1.360e-01,2.672
1.363e-01,2.664
1.366e-01,2.664
1.370e-01,2.664
1.373e-01,2.664
1.376e-01,2.664
1.379e-01,2.664
1.382e-01,2.656
1.386e-01,2.664
1.389e-01,2.656
1.392e-01,2.656
1.395e-01,2.664
1.398e-01,2.656
1.402e-01,2.664
1.405e-01,2.664
1.408e-01,2.656
1.411e-01,2.656
1.414e-01,2.648
1.418e-01,2.656
1.421e-01,2.64
1.424e-01,2.632
1.427e-01,2.632
1.430e-01,2.624
1.434e-01,2.632
1.437e-01,2.624
1.440e-01,2.632
1.443e-01,2.632
1.446e-01,2.64
1.450e-01,2.64
1.453e-01,2.648
1.456e-01,2.648
1.459e-01,2.648
1.462e-01,2.656
1.466e-01,2.648
1.469e-01,2.656
1.472e-01,2.656
1.475e-01,2.648
1.478e-01,2.656
1.482e-01,2.656
1.485e-01,2.656
1.488e-01,2.656
1.491e-01,2.656
1.494e-01,2.656
1.498e-01,2.664
1.501e-01,2.664
1.504e-01,2.664
1.507e-01,2.656
1.510e-01,2.664
1.514e-01,2.664
1.517e-01,2.664
1.520e-01,2.672
1.523e-01,2.688
1.526e-01,2.688
1.530e-01,2.696
1.533e-01,2.696
1.536e-01,2.696
1.539e-01,2.688
1.542e-01,2.688
1.546e-01,2.688
1.549e-01,2.672
1.552e-01,2.672
1.555e-01,2.664
1.558e-01,2.672
1.562e-01,2.664
1.565e-01,2.672
1.568e-01,2.672
1.571e-01,2.656
1.574e-01,2.664
1.578e-01,2.664
1.581e-01,2.656
1.584e-01,2.656
1.587e-01,2.656
1.590e-01,2.656
1.594e-01,2.656
1.597e-01,2.656
1.600e-01,2.656
1.603e-01,2.648
1.606e-01,2.656
1.610e-01,2.648
1.613e-01,2.648
1.616e-01,2.648
1.619e-01,2.632
1.622e-01,2.632
1.626e-01,2.624
1.629e-01,2.624
1.632e-01,2.624
1.635e-01,2.616
1.638e-01,2.624
1.642e-01,2.632
1.645e-01,2.624
1.648e-01,2.632
1.651e-01,2.64
1.654e-01,2.64
1.658e-01,2.648
1.661e-01,2.648
1.664e-01,2.64
1.667e-01,2.648
1.670e-01,2.648
1.674e-01,2.648
1.677e-01,2.656
1.680e-01,2.648
1.683e-01,2.656
1.686e-01,2.656
1.690e-01,2.656
1.693e-01,2.656
1.696e-01,2.648
1.699e-01,2.656
1.702e-01,2.656
1.706e-01,2.656
1.709e-01,2.656
1.712e-01,2.656
1.715e-01,2.656
1.718e-01,2.672
1.722e-01,2.68
1.725e-01,2.68
1.728e-01,2.68
1.731e-01,2.688
1.734e-01,2.688
1.738e-01,2.688
1.741e-01,2.68
1.744e-01,2.688
1.747e-01,2.672
1.750e-01,2.664
1.754e-01,2.664
1.757e-01,2.664
1.760e-01,2.656
1.763e-01,2.664
1.766e-01,2.664
1.770e-01,2.664
1.773e-01,2.656
1.776e-01,2.648
1.779e-01,2.656
1.782e-01,2.648
1.786e-01,2.648
1.789e-01,2.64
1.792e-01,2.64
1.795e-01,2.648
1.798e-01,2.648
1.802e-01,2.648
1.805e-01,2.648
1.808e-01,2.648
1.811e-01,2.648
1.814e-01,2.64
1.818e-01,2.64
1.821e-01,2.632
1.824e-01,2.624
1.827e-01,2.624
1.830e-01,2.616
1.834e-01,2.608
1.837e-01,2.616
1.840e-01,2.616
1.843e-01,2.632
1.846e-01,2.632
1.850e-01,2.632
