lab_data/10 - 20/TEK00005.CSV

Model,TBS1102C
Firmware Version,v2015-08-04-prequal4ch70_v1.3

Point Format,Y
Horizontal Units,S
Horizontal Scale,0.1
Sample Interval,0.0008
Filter Frequency,2e+08
Record Length,2000
Gating,0.0% to 100.0%
Probe Attenuation,1
Vertical Units,V
Vertical Offset,1
Vertical Scale,0.2
Label,
TIME,CH1
-6.080e-01,1.768
-6.072e-01,1.768
-6.064e-01,1.752
-6.056e-01,1.736
-6.048e-01,1.736
-6.040e-01,1.752
-6.032e-01,1.76
-6.024e-01,1.76
-6.016e-01,1.76
-6.008e-01,1.76
-6.000e-01,1.76
-5.992e-01,1.776
-5.984e-01,1.776
-5.976e-01,1.768
-5.968e-01,1.776
-5.960e-01,1.792
-5.952e-01,1.808
-5.944e-01,1.792
-5.936e-01,1.792
-5.928e-01,1.784
-5.920e-01,1.776
-5.912e-01,1.776
-5.904e-01,1.768
-5.896e-01,1.768
-5.888e-01,1.76
-5.880e-01,1.76
-5.872e-01,1.752
-5.864e-01,1.744
-5.856e-01,1.736
-5.848e-01,1.736
-5.840e-01,1.736
-5.832e-01,1.752
-5.824e-01,1.76
-5.816e-01,1.76
-5.808e-01,1.768
-5.800e-01,1.768
-5.792e-01,1.768
-5.784e-01,1.768
-5.776e-01,1.768
-5.768e-01,1.776
-5.760e-01,1.792
-5.752e-01,1.808
-5.744e-01,1.8
-5.736e-01,1.784
-5.728e-01,1.784
-5.720e-01,1.776
-5.712e-01,1.776
-5.704e-01,1.768
-5.696e-01,1.768
-5.688e-01,1.768
-5.680e-01,1.768
-5.672e-01,1.76
-5.664e-01,1.752
-5.656e-01,1.736
-5.648e-01,1.736
-5.640e-01,1.744
-5.632e-01,1.752
-5.624e-01,1.76
-5.616e-01,1.76
-5.608e-01,1.768
-5.600e-01,1.776
-5.592e-01,1.768
-5.584e-01,1.776
-5.576e-01,1.768
-5.568e-01,1.776
-5.560e-01,1.792
-5.552e-01,1.808
-5.544e-01,1.8
-5.536e-01,1.792
-5.528e-01,1.784
-5.520e-01,1.776
-5.512e-01,1.776
-5.504e-01,1.768
-5.496e-01,1.776
-5.488e-01,1.768
-5.480e-01,1.768
-5.472e-01,1.76
-5.464e-01,1.752
-5.456e-01,1.736
-5.448e-01,1.736
-5.440e-01,1.744
-5.432e-01,1.744
-5.424e-01,1.76
-5.416e-01,1.76
-5.408e-01,1.768
-5.400e-01,1.768
-5.392e-01,1.776
-5.384e-01,1.776
-5.376e-01,1.776
-5.368e-01,1.776
-5.360e-01,1.8
-5.352e-01,1.8
-5.344e-01,1.792
-5.336e-01,1.784
-5.328e-01,1.784
-5.320e-01,1.784
-5.312e-01,1.776
-5.304e-01,1.776
-5.296e-01,1.768
-5.288e-01,1.768
-5.280e-01,1.76
-5.272e-01,1.768
-5.264e-01,1.752
-5.256e-01,1.736
-5.248e-01,1.728
-5.240e-01,1.744
-5.232e-01,1.752
-5.224e-01,1.76
-5.216e-01,1.76
-5.208e-01,1.768
-5.200e-01,1.776
-5.192e-01,1.768
-5.184e-01,1.768
-5.176e-01,1.768
-5.168e-01,1.776
-5.160e-01,1.792
-5.152e-01,1.8
-5.144e-01,1.808
-5.136e-01,1.792
-5.128e-01,1.784
-5.120e-01,1.776
-5.112e-01,1.768
-5.104e-01,1.776
-5.096e-01,1.768
-5.088e-01,1.768
-5.080e-01,1.768
-5.072e-01,1.76
-5.064e-01,1.744
-5.056e-01,1.736
-5.048e-01,1.728
-5.040e-01,1.744
-5.032e-01,1.76
-5.024e-01,1.76
-5.016e-01,1.768
-5.008e-01,1.76
-5.000e-01,1.76
-4.992e-01,1.768
-4.984e-01,1.776
-4.976e-01,1.768
-4.968e-01,1.776
-4.960e-01,1.792
-4.952e-01,1.808
-4.944e-01,1.808
-4.936e-01,1.792
-4.928e-01,1.784
-4.920e-01,1.776
-4.912e-01,1.776
-4.904e-01,1.768
-4.896e-01,1.768
-4.888e-01,1.768
-4.880e-01,1.76
-4.872e-01,1.76
-4.864e-01,1.752
-4.856e-01,1.736
-4.848e-01,1.736
-4.840e-01,1.744
-4.832e-01,1.752
-4.824e-01,1.76
-4.816e-01,1.76
-4.808e-01,1.768
-4.800e-01,1.768
-4.792e-01,1.776
-4.784e-01,1.776
-4.776e-01,1.776
-4.768e-01,1.768
-4.760e-01,1.8
-4.752e-01,1.808
-4.744e-01,1.8
-4.736e-01,1.8
-4.728e-01,1.784
-4.720e-01,1.776
-4.712e-01,1.776
-4.704e-01,1.768
-4.696e-01,1.768
-4.688e-01,1.776
-4.680e-01,1.768
-4.672e-01,1.768
-4.664e-01,1.744
-4.656e-01,1.744
-4.648e-01,1.736
-4.640e-01,1.744
-4.632e-01,1.752
-4.624e-01,1.76
-4.616e-01,1.76
-4.608e-01,1.776
-4.600e-01,1.768
-4.592e-01,1.776
-4.584e-01,1.768
-4.576e-01,1.776
-4.568e-01,1.776
-4.560e-01,1.8
-4.552e-01,1.8
-4.544e-01,1.8
-4.536e-01,1.792
-4.528e-01,1.784
-4.520e-01,1.776
-4.512e-01,1.776
-4.504e-01,1.776
-4.496e-01,1.768
-4.488e-01,1.768
-4.480e-01,1.768
-4.472e-01,1.768
-4.464e-01,1.752
-4.456e-01,1.736
-4.448e-01,1.736
-4.440e-01,1.744
-4.432e-01,1.752
-4.424e-01,1.76
-4.416e-01,1.768
-4.408e-01,1.768
-4.400e-01,1.768
-4.392e-01,1.768
-4.384e-01,1.768
-4.376e-01,1.776
-4.368e-01,1.776
-4.360e-01,1.792
-4.352e-01,1.8
-4.344e-01,1.792
-4.336e-01,1.792
-4.328e-01,1.784
-4.320e-01,1.776
-4.312e-01,1.776
-4.304e-01,1.768
-4.296e-01,1.768
-4.288e-01,1.768
-4.280e-01,1.76
-4.272e-01,1.76
-4.264e-01,1.752
-4.256e-01,1.736
-4.248e-01,1.736
-4.240e-01,1.744
-4.232e-01,1.752
-4.224e-01,1.752
-4.216e-01,1.76
-4.208e-01,1.768
-4.200e-01,1.76
-4.192e-01,1.768
-4.184e-01,1.768
-4.176e-01,1.768
-4.168e-01,1.776
-4.160e-01,1.8
-4.152e-01,1.808
-4.144e-01,1.8
-4.136e-01,1.792
-4.128e-01,1.784
-4.120e-01,1.784
-4.112e-01,1.776
-4.104e-01,1.768
-4.096e-01,1.76
-4.088e-01,1.76
-4.080e-01,1.76
-4.072e-01,1.768
-4.064e-01,1.752
-4.056e-01,1.736
-4.048e-01,1.736
-4.040e-01,1.744
-4.032e-01,1.752
-4.024e-01,1.76
-4.016e-01,1.768
-4.008e-01,1.768
-4.000e-01,1.776
-3.992e-01,1.776
-3.984e-01,1.776
-3.976e-01,1.768
-3.968e-01,1.776
-3.960e-01,1.8
-3.952e-01,1.808
-3.944e-01,1.8
-3.936e-01,1.792
-3.928e-01,1.784
-3.920e-01,1.776
-3.912e-01,1.784
-3.904e-01,1.784
-3.896e-01,1.776
-3.888e-01,1.768
-3.880e-01,1.768
-3.872e-01,1.768
-3.864e-01,1.76
-3.856e-01,1.744
-3.848e-01,1.736
-3.840e-01,1.752
-3.832e-01,1.76
-3.824e-01,1.768
-3.816e-01,1.768
-3.808e-01,1.768
-3.800e-01,1.776
-3.792e-01,1.776
-3.784e-01,1.776
-3.776e-01,1.776
-3.768e-01,1.784
-3.760e-01,1.8
-3.752e-01,1.816
-3.744e-01,1.808
-3.736e-01,1.8
-3.728e-01,1.792
-3.720e-01,1.792
-3.712e-01,1.784
-3.704e-01,1.784
-3.696e-01,1.784
-3.688e-01,1.776
-3.680e-01,1.776
-3.672e-01,1.768
-3.664e-01,1.76
-3.656e-01,1.744
-3.648e-01,1.752
-3.640e-01,1.76
-3.632e-01,1.768
-3.624e-01,1.776
-3.616e-01,1.784
-3.608e-01,1.776
-3.600e-01,1.784
-3.592e-01,1.792
-3.584e-01,1.792
-3.576e-01,1.792
-3.568e-01,1.792
-3.560e-01,1.816
-3.552e-01,1.832
-3.544e-01,1.816
-3.536e-01,1.816
-3.528e-01,1.808
-3.520e-01,1.8
-3.512e-01,1.8
-3.504e-01,1.792
-3.496e-01,1.8
-3.488e-01,1.792
-3.480e-01,1.8
-3.472e-01,1.8
-3.464e-01,1.784
-3.456e-01,1.776
-3.448e-01,1.768
-3.440e-01,1.784
-3.432e-01,1.792
-3.424e-01,1.8
-3.416e-01,1.808
-3.408e-01,1.816
-3.400e-01,1.816
-3.392e-01,1.824
-3.384e-01,1.816
-3.376e-01,1.816
-3.368e-01,1.824
-3.360e-01,1.848
-3.352e-01,1.856
-3.344e-01,1.864
-3.336e-01,1.848
-3.328e-01,1.832
-3.320e-01,1.832
-3.312e-01,1.832
-3.304e-01,1.816
-3.296e-01,1.816
-3.288e-01,1.816
-3.280e-01,1.808
-3.272e-01,1.816
-3.264e-01,1.8
-3.256e-01,1.776
-3.248e-01,1.776
-3.240e-01,1.784
-3.232e-01,1.8
-3.224e-01,1.808
-3.216e-01,1.8
-3.208e-01,1.8
-3.200e-01,1.8
-3.192e-01,1.808
-3.184e-01,1.808
-3.176e-01,1.8
-3.168e-01,1.8
-3.160e-01,1.816
-3.152e-01,1.824
-3.144e-01,1.816
-3.136e-01,1.808
-3.128e-01,1.792
-3.120e-01,1.792
-3.112e-01,1.784
-3.104e-01,1.776
-3.096e-01,1.768
-3.088e-01,1.76
-3.080e-01,1.768
-3.072e-01,1.76
-3.064e-01,1.744
-3.056e-01,1.72
-3.048e-01,1.72
-3.040e-01,1.72
-3.032e-01,1.728
-3.024e-01,1.728
-3.016e-01,1.728
-3.008e-01,1.736
-3.000e-01,1.736
-2.992e-01,1.736
-2.984e-01,1.72
-2.976e-01,1.72
-2.968e-01,1.72
-2.960e-01,1.736
-2.952e-01,1.736
-2.944e-01,1.736
-2.936e-01,1.72
-2.928e-01,1.704
-2.920e-01,1.696
-2.912e-01,1.688
-2.904e-01,1.68
-2.896e-01,1.672
-2.888e-01,1.664
-2.880e-01,1.664
-2.872e-01,1.656
-2.864e-01,1.64
-2.856e-01,1.616
-2.848e-01,1.608
-2.840e-01,1.616
-2.832e-01,1.616
-2.824e-01,1.624
-2.816e-01,1.616
-2.808e-01,1.616
-2.800e-01,1.616
-2.792e-01,1.616
-2.784e-01,1.608
-2.776e-01,1.608
-2.768e-01,1.608
-2.760e-01,1.616
-2.752e-01,1.624
-2.744e-01,1.608
-2.736e-01,1.608
-2.728e-01,1.6
-2.720e-01,1.576
-2.712e-01,1.568
-2.704e-01,1.568
-2.696e-01,1.56
-2.688e-01,1.552
-2.680e-01,1.552
-2.672e-01,1.544
-2.664e-01,1.536
-2.656e-01,1.512
-2.648e-01,1.504
-2.640e-01,1.512
-2.632e-01,1.52
-2.624e-01,1.512
-2.616e-01,1.52
-2.608e-01,1.52
-2.600e-01,1.512
-2.592e-01,1.52
-2.584e-01,1.512
-2.576e-01,1.52
-2.568e-01,1.512
-2.560e-01,1.536
-2.552e-01,1.544
-2.544e-01,1.536
-2.536e-01,1.52
-2.528e-01,1.512
-2.520e-01,1.504
-2.512e-01,1.496
-2.504e-01,1.496
-2.496e-01,1.488
-2.488e-01,1.488
-2.480e-01,1.48
-2.472e-01,1.496
-2.464e-01,1.472
-2.456e-01,1.448
-2.448e-01,1.448
-2.440e-01,1.456
-2.432e-01,1.464
-2.424e-01,1.48
-2.416e-01,1.48
-2.408e-01,1.48
-2.400e-01,1.488
-2.392e-01,1.48
-2.384e-01,1.488
-2.376e-01,1.488
-2.368e-01,1.496
-2.360e-01,1.512
-2.352e-01,1.52
-2.344e-01,1.52
-2.336e-01,1.52
-2.328e-01,1.496
-2.320e-01,1.504
-2.312e-01,1.504
-2.304e-01,1.496
-2.296e-01,1.496
-2.288e-01,1.504
-2.280e-01,1.504
-2.272e-01,1.496
-2.264e-01,1.496
-2.256e-01,1.472
-2.248e-01,1.48
-2.240e-01,1.488
-2.232e-01,1.496
-2.224e-01,1.504
-2.216e-01,1.52
-2.208e-01,1.52
-2.200e-01,1.528
-2.192e-01,1.536
-2.184e-01,1.536
-2.176e-01,1.536
-2.168e-01,1.544
-2.160e-01,1.568
-2.152e-01,1.584
-2.144e-01,1.584
-2.136e-01,1.584
-2.128e-01,1.568
-2.120e-01,1.576
-2.112e-01,1.576
-2.104e-01,1.576
-2.096e-01,1.576
-2.088e-01,1.584
-2.080e-01,1.584
-2.072e-01,1.592
-2.064e-01,1.584
-2.056e-01,1.568
-2.048e-01,1.568
-2.040e-01,1.584
-2.032e-01,1.592
-2.024e-01,1.616
-2.016e-01,1.608
-2.008e-01,1.632
-2.000e-01,1.64
-1.992e-01,1.64
-1.984e-01,1.656
-1.976e-01,1.656
-1.968e-01,1.656
-1.960e-01,1.688
-1.952e-01,1.704
-1.944e-01,1.712
-1.936e-01,1.704
-1.928e-01,1.696
-1.920e-01,1.704
-1.912e-01,1.696
-1.904e-01,1.696
-1.896e-01,1.704
-1.888e-01,1.704
-1.880e-01,1.712
-1.872e-01,1.712
-1.864e-01,1.72
-1.856e-01,1.704
-1.848e-01,1.704
-1.840e-01,1.72
-1.832e-01,1.736
-1.824e-01,1.744
-1.816e-01,1.752
-1.808e-01,1.76
-1.800e-01,1.768
-1.792e-01,1.776
-1.784e-01,1.776
-1.776e-01,1.784
-1.768e-01,1.784
-1.760e-01,1.824
-1.752e-01,1.832
-1.744e-01,1.832
-1.736e-01,1.832
-1.728e-01,1.832
-1.720e-01,1.824
-1.712e-01,1.824
-1.704e-01,1.832
-1.696e-01,1.832
-1.688e-01,1.832
-1.680e-01,1.84
-1.672e-01,1.84
-1.664e-01,1.832
-1.656e-01,1.816
-1.648e-01,1.816
-1.640e-01,1.832
-1.632e-01,1.848
-1.624e-01,1.856
-1.616e-01,1.864
-1.608e-01,1.864
-1.600e-01,1.872
-1.592e-01,1.88
-1.584e-01,1.888
-1.576e-01,1.896
-1.568e-01,1.896
-1.560e-01,1.92
-1.552e-01,1.936
-1.544e-01,1.936
-1.536e-01,1.928
-1.528e-01,1.92
-1.520e-01,1.928
-1.512e-01,1.92
-1.504e-01,1.92
-1.496e-01,1.912
-1.488e-01,1.92
-1.480e-01,1.92
-1.472e-01,1.928
-1.464e-01,1.92
-1.456e-01,1.904
-1.448e-01,1.904
-1.440e-01,1.904
-1.432e-01,1.92
-1.424e-01,1.928
-1.416e-01,1.944
-1.408e-01,1.944
-1.400e-01,1.944
-1.392e-01,1.952
-1.384e-01,1.952
-1.376e-01,1.952
-1.368e-01,1.952
-1.360e-01,1.976
-1.352e-01,1.976
-1.344e-01,1.976
-1.336e-01,1.968
-1.328e-01,1.96
-1.320e-01,1.96
-1.312e-01,1.952
-1.304e-01,1.944
-1.296e-01,1.936
-1.288e-01,1.936
-1.280e-01,1.936
-1.272e-01,1.928
-1.264e-01,1.92
-1.256e-01,1.904
-1.248e-01,1.896
-1.240e-01,1.904
-1.232e-01,1.912
-1.224e-01,1.92
-1.216e-01,1.912
-1.208e-01,1.912
-1.200e-01,1.92
-1.192e-01,1.912
-1.184e-01,1.912
-1.176e-01,1.912
-1.168e-01,1.904
-1.160e-01,1.928
-1.152e-01,1.928
-1.144e-01,1.92
-1.136e-01,1.912
-1.128e-01,1.896
-1.120e-01,1.88
-1.112e-01,1.88
-1.104e-01,1.872
-1.096e-01,1.864
-1.088e-01,1.856
-1.080e-01,1.848
-1.072e-01,1.848
-1.064e-01,1.832
-1.056e-01,1.792
-1.048e-01,1.792
-1.040e-01,1.8
-1.032e-01,1.808
-1.024e-01,1.8
-1.016e-01,1.8
-1.008e-01,1.8
-1.000e-01,1.792
-9.920e-02,1.792
-9.840e-02,1.784
-9.760e-02,1.784
-9.680e-02,1.784
-9.600e-02,1.8
-9.520e-02,1.8
-9.440e-02,1.792
-9.360e-02,1.784
-9.280e-02,1.768
-9.200e-02,1.752
-9.120e-02,1.752
-9.040e-02,1.736
-8.960e-02,1.728
-8.880e-02,1.736
-8.800e-02,1.728
-8.720e-02,1.72
-8.640e-02,1.72
-8.560e-02,1.696
-8.480e-02,1.688
-8.400e-02,1.688
-8.320e-02,1.696
-8.240e-02,1.704
-8.160e-02,1.712
-8.080e-02,1.704
-8.000e-02,1.72
-7.920e-02,1.728
-7.840e-02,1.72
-7.760e-02,1.72
-7.680e-02,1.72
-7.600e-02,1.744
-7.520e-02,1.76
-7.440e-02,1.752
-7.360e-02,1.76
-7.280e-02,1.744
-7.200e-02,1.744
-7.120e-02,1.744
-7.040e-02,1.744
-6.960e-02,1.752
-6.880e-02,1.752
-6.800e-02,1.76
-6.720e-02,1.76
-6.640e-02,1.768
-6.560e-02,1.744
-6.480e-02,1.744
-6.400e-02,1.752
-6.320e-02,1.784
-6.240e-02,1.792
-6.160e-02,1.808
-6.080e-02,1.8
-6.000e-02,1.824
-5.920e-02,1.84
-5.840e-02,1.84
-5.760e-02,1.864
-5.680e-02,1.872
-5.600e-02,1.888
-5.520e-02,1.92
-5.440e-02,1.92
-5.360e-02,1.928
-5.280e-02,1.92
-5.200e-02,1.928
-5.120e-02,1.936
-5.040e-02,1.944
-4.960e-02,1.952
-4.880e-02,1.96
-4.800e-02,1.976
-4.720e-02,1.984
-4.640e-02,1.984
-4.560e-02,1.976
-4.480e-02,1.976
-4.400e-02,2.008
-4.320e-02,2.016
-4.240e-02,2.04
-4.160e-02,2.048
-4.080e-02,2.064
-4.000e-02,2.08
-3.920e-02,2.088
-3.840e-02,2.104
-3.760e-02,2.12
-3.680e-02,2.128
-3.600e-02,2.152
-3.520e-02,2.176
-3.440e-02,2.192
-3.360e-02,2.2
-3.280e-02,2.2
-3.200e-02,2.2
-3.120e-02,2.208
-3.040e-02,2.208
-2.960e-02,2.216
-2.880e-02,2.224
-2.800e-02,2.24
-2.720e-02,2.248
-2.640e-02,2.248
-2.560e-02,2.24
-2.480e-02,2.24
-2.400e-02,2.264
-2.320e-02,2.28
-2.240e-02,2.296
-2.160e-02,2.304
-2.080e-02,2.32
-2.000e-02,2.336
-1.920e-02,2.344
-1.840e-02,2.352
-1.760e-02,2.368
-1.680e-02,2.36
-1.600e-02,2.4
-1.520e-02,2.416
-1.440e-02,2.424
-1.360e-02,2.424
-1.280e-02,2.424
-1.200e-02,2.424
-1.120e-02,2.44
-1.040e-02,2.424
-9.600e-03,2.44
-8.800e-03,2.44
-8.000e-03,2.456
-7.200e-03,2.456
-6.400e-03,2.456
-5.600e-03,2.44
-4.800e-03,2.44
-4.000e-03,2.456
-3.200e-03,2.472
-2.400e-03,2.48
-1.600e-03,2.488
-8.000e-04,2.496
9.074e-15,2.512
8.000e-04,2.512
1.600e-03,2.512
2.400e-03,2.528
3.200e-03,2.536
4.000e-03,2.552
4.800e-03,2.568
5.600e-03,2.576
6.400e-03,2.576
7.200e-03,2.56
8.000e-03,2.568
8.800e-03,2.568
9.600e-03,2.568
1.040e-02,2.568
1.120e-02,2.568
1.200e-02,2.568
1.280e-02,2.576
1.360e-02,2.576
1.440e-02,2.56
1.520e-02,2.552
1.600e-02,2.568
1.680e-02,2.584
1.760e-02,2.592
1.840e-02,2.592
1.920e-02,2.592
2.000e-02,2.608
2.080e-02,2.616
2.160e-02,2.608
2.240e-02,2.616
2.320e-02,2.616
2.400e-02,2.64
2.480e-02,2.656
2.560e-02,2.664
2.640e-02,2.656
2.720e-02,2.64
2.800e-02,2.64
2.880e-02,2.64
2.960e-02,2.64
3.040e-02,2.64
3.120e-02,2.632
3.200e-02,2.64
3.280e-02,2.632
3.360e-02,2.632
3.440e-02,2.608
3.520e-02,2.608
3.600e-02,2.616
3.680e-02,2.632
3.760e-02,2.64
3.840e-02,2.64
3.920e-02,2.648
4.000e-02,2.656
4.080e-02,2.664
4.160e-02,2.656
4.240e-02,2.656
4.320e-02,2.664
4.400e-02,2.68
4.480e-02,2.696
4.560e-02,2.696
4.640e-02,2.688
4.720e-02,2.68
4.800e-02,2.672
4.880e-02,2.68
4.960e-02,2.672
5.040e-02,2.664
5.120e-02,2.664
5.200e-02,2.664
5.280e-02,2.664
5.360e-02,2.664
5.440e-02,2.64
5.520e-02,2.632
5.600e-02,2.648
5.680e-02,2.648
5.760e-02,2.664
5.840e-02,2.672
5.920e-02,2.672
6.000e-02,2.672
6.080e-02,2.688
6.160e-02,2.688
6.240e-02,2.68
6.320e-02,2.688
6.400e-02,2.696
6.480e-02,2.712
6.560e-02,2.712
6.640e-02,2.712
6.720e-02,2.696
6.800e-02,2.688
6.880e-02,2.688
6.960e-02,2.68
7.040e-02,2.68
7.120e-02,2.672
7.200e-02,2.68
7.280e-02,2.672
7.360e-02,2.672
7.440e-02,2.648
7.520e-02,2.64
7.600e-02,2.656
7.680e-02,2.664
7.760e-02,2.672
7.840e-02,2.672
7.920e-02,2.68
8.000e-02,2.688
8.080e-02,2.688
8.160e-02,2.696
8.240e-02,2.68
8.320e-02,2.688
8.400e-02,2.704
8.480e-02,2.712
8.560e-02,2.712
8.640e-02,2.712
8.720e-02,2.704
8.800e-02,2.688
8.880e-02,2.696
8.960e-02,2.688
9.040e-02,2.68
9.120e-02,2.688
9.200e-02,2.68
9.280e-02,2.688
9.360e-02,2.68
9.440e-02,2.656
9.520e-02,2.648
9.600e-02,2.656
9.680e-02,2.672
9.760e-02,2.672
9.840e-02,2.68
9.920e-02,2.68
1.000e-01,2.68
1.008e-01,2.688
1.016e-01,2.696
1.024e-01,2.688
1.032e-01,2.696
1.040e-01,2.712
1.048e-01,2.72
1.056e-01,2.72
1.064e-01,2.712
1.072e-01,2.704
1.080e-01,2.696
1.088e-01,2.704
1.096e-01,2.688
1.104e-01,2.688
1.112e-01,2.688
1.120e-01,2.688
1.128e-01,2.68
1.136e-01,2.68
1.144e-01,2.656
1.152e-01,2.664
1.160e-01,2.672
1.168e-01,2.672
1.176e-01,2.68
1.184e-01,2.688
1.192e-01,2.68
1.200e-01,2.696
1.208e-01,2.696
1.216e-01,2.696
1.224e-01,2.696
1.232e-01,2.704
1.240e-01,2.704
1.248e-01,2.728
1.256e-01,2.72
1.264e-01,2.72
1.272e-01,2.712
1.280e-01,2.712
1.288e-01,2.704
1.296e-01,2.696
1.304e-01,2.688
1.312e-01,2.688
1.320e-01,2.696
1.328e-01,2.696
1.336e-01,2.688
1.344e-01,2.664
1.352e-01,2.664
1.360e-01,2.664
1.368e-01,2.672
1.376e-01,2.68
1.384e-01,2.688
1.392e-01,2.688
1.400e-01,2.688
1.408e-01,2.696
1.416e-01,2.696
1.424e-01,2.696
1.432e-01,2.696
1.440e-01,2.712
1.448e-01,2.728
1.456e-01,2.736
1.464e-01,2.72
1.472e-01,2.712
1.480e-01,2.704
1.488e-01,2.704
1.496e-01,2.696
1.504e-01,2.688
1.512e-01,2.688
1.520e-01,2.688
1.528e-01,2.688
1.536e-01,2.68
1.544e-01,2.664
1.552e-01,2.648
1.560e-01,2.648
1.568e-01,2.672
1.576e-01,2.688
1.584e-01,2.688
1.592e-01,2.688
1.600e-01,2.696
1.608e-01,2.704
1.616e-01,2.688
1.624e-01,2.688
1.632e-01,2.704
1.640e-01,2.712
1.648e-01,2.728
1.656e-01,2.72
1.664e-01,2.72
1.672e-01,2.704
1.680e-01,2.704
1.688e-01,2.696
1.696e-01,2.696
1.704e-01,2.696
1.712e-01,2.696
1.720e-01,2.696
1.728e-01,2.696
1.736e-01,2.688
1.744e-01,2.664
1.752e-01,2.656
1.760e-01,2.664
1.768e-01,2.672
1.776e-01,2.672
1.784e-01,2.68
1.792e-01,2.688
1.800e-01,2.688
1.808e-01,2.688
1.816e-01,2.696
1.824e-01,2.704
1.832e-01,2.696
1.840e-01,2.712
1.848e-01,2.736
1.856e-01,2.728
1.864e-01,2.728
1.872e-01,2.712
1.880e-01,2.704
1.888e-01,2.696
1.896e-01,2.696
1.904e-01,2.696
1.912e-01,2.696
1.920e-01,2.688
1.928e-01,2.688
1.936e-01,2.688
1.944e-01,2.664
1.952e-01,2.664
1.960e-01,2.672
1.968e-01,2.672
1.976e-01,2.688
1.984e-01,2.688
1.992e-01,2.688
2.000e-01,2.688
2.008e-01,2.696
2.016e-01,2.704
2.024e-01,2.704
2.032e-01,2.696
2.040e-01,2.712
2.048e-01,2.728
2.056e-01,2.728
2.064e-01,2.72
2.072e-01,2.712
2.080e-01,2.712
2.088e-01,2.696
2.096e-01,2.704
2.104e-01,2.696
2.112e-01,2.696
2.120e-01,2.696
2.128e-01,2.696
2.136e-01,2.688
2.144e-01,2.664
2.152e-01,2.656
2.160e-01,2.664
2.168e-01,2.672
2.176e-01,2.68
2.184e-01,2.68
2.192e-01,2.688
2.200e-01,2.688
2.208e-01,2.696
2.216e-01,2.696
2.224e-01,2.696
2.232e-01,2.712
2.240e-01,2.72
2.248e-01,2.72
2.256e-01,2.736
2.264e-01,2.728
2.272e-01,2.72
2.280e-01,2.704
2.288e-01,2.712
2.296e-01,2.704
2.304e-01,2.696
2.312e-01,2.704
2.320e-01,2.696
2.328e-01,2.696
2.336e-01,2.696
2.344e-01,2.672
2.352e-01,2.672
2.360e-01,2.68
2.368e-01,2.68
2.376e-01,2.704
2.384e-01,2.696
2.392e-01,2.696
2.400e-01,2.704
2.408e-01,2.712
2.416e-01,2.704
2.424e-01,2.704
2.432e-01,2.712
2.440e-01,2.72
2.448e-01,2.744
2.456e-01,2.752
2.464e-01,2.736
2.472e-01,2.72
2.480e-01,2.72
2.488e-01,2.712
2.496e-01,2.704
2.504e-01,2.712
2.512e-01,2.704
2.520e-01,2.704
2.528e-01,2.712
2.536e-01,2.704
2.544e-01,2.68
2.552e-01,2.672
2.560e-01,2.672
2.568e-01,2.68
2.576e-01,2.688
2.584e-01,2.696
2.592e-01,2.696
2.600e-01,2.704
2.608e-01,2.704
2.616e-01,2.704
2.624e-01,2.696
2.632e-01,2.696
2.640e-01,2.72
2.648e-01,2.728
2.656e-01,2.728
2.664e-01,2.712
2.672e-01,2.712
2.680e-01,2.696
2.688e-01,2.688
2.696e-01,2.68
2.704e-01,2.672
2.712e-01,2.672
2.720e-01,2.664
2.728e-01,2.664
2.736e-01,2.664
2.744e-01,2.632
2.752e-01,2.624
2.760e-01,2.624
2.768e-01,2.632
2.776e-01,2.64
2.784e-01,2.648
2.792e-01,2.632
2.800e-01,2.64
2.808e-01,2.632
2.816e-01,2.624
2.824e-01,2.624
2.832e-01,2.624
2.840e-01,2.64
2.848e-01,2.64
2.856e-01,2.632
2.864e-01,2.624
2.872e-01,2.608
2.880e-01,2.6
2.888e-01,2.584
2.896e-01,2.584
2.904e-01,2.576
2.912e-01,2.56
2.920e-01,2.56
2.928e-01,2.544
2.936e-01,2.536
2.944e-01,2.504
2.952e-01,2.496
2.960e-01,2.496
2.968e-01,2.496
2.976e-01,2.504
2.984e-01,2.496
2.992e-01,2.496
3.000e-01,2.496
3.008e-01,2.488
3.016e-01,2.48
3.024e-01,2.472
3.032e-01,2.472
3.040e-01,2.48
3.048e-01,2.488
3.056e-01,2.488
3.064e-01,2.472
3.072e-01,2.456
3.080e-01,2.448
3.088e-01,2.44
3.096e-01,2.432
3.104e-01,2.408
3.112e-01,2.408
3.120e-01,2.408
3.128e-01,2.408
3.136e-01,2.392
3.144e-01,2.36
3.152e-01,2.352
3.160e-01,2.352
3.168e-01,2.36
3.176e-01,2.368
3.184e-01,2.368
3.192e-01,2.36
3.200e-01,2.368
3.208e-01,2.36
3.216e-01,2.352
3.224e-01,2.36
3.232e-01,2.352
3.240e-01,2.352
3.248e-01,2.376
3.256e-01,2.368
3.264e-01,2.368
3.272e-01,2.352
3.280e-01,2.328
3.288e-01,2.328
3.296e-01,2.328
3.304e-01,2.312
3.312e-01,2.312
3.320e-01,2.304
3.328e-01,2.304
3.336e-01,2.296
3.344e-01,2.28
3.352e-01,2.272
3.360e-01,2.264
3.368e-01,2.272
3.376e-01,2.28
3.384e-01,2.272
3.392e-01,2.28
3.400e-01,2.28
3.408e-01,2.28
3.416e-01,2.28
3.424e-01,2.28
3.432e-01,2.28
3.440e-01,2.288
3.448e-01,2.296
3.456e-01,2.312
3.464e-01,2.304
3.472e-01,2.28
3.480e-01,2.272
3.488e-01,2.264
3.496e-01,2.264
3.504e-01,2.256
3.512e-01,2.256
3.520e-01,2.256
3.528e-01,2.248
