lab_data/10 - 20/TEK00010.CSV

Model,TBS1102C
Firmware Version,v2015-08-04-prequal4ch70_v1.3

Point Format,Y
Horizontal Units,S
Horizontal Scale,0.1
Sample Interval,0.0008
Filter Frequency,2e+08
Record Length,2000
Gating,0.0% to 100.0%
Probe Attenuation,1
Vertical Units,V
Vertical Offset,1
Vertical Scale,0.2
Label,
TIME,CH1
-6.080e-01,1.744
-6.072e-01,1.752
-6.064e-01,1.76
-6.056e-01,1.76
-6.048e-01,1.768
-6.040e-01,1.76
-6.032e-01,1.768
-6.024e-01,1.768
-6.016e-01,1.768
-6.008e-01,1.776
-6.000e-01,1.792
-5.992e-01,1.8
-5.984e-01,1.8
-5.976e-01,1.792
-5.968e-01,1.784
-5.960e-01,1.776
-5.952e-01,1.776
-5.944e-01,1.768
-5.936e-01,1.76
-5.928e-01,1.768
-5.920e-01,1.776
-5.912e-01,1.768
-5.904e-01,1.744
-5.896e-01,1.736
-5.888e-01,1.736
-5.880e-01,1.744
-5.872e-01,1.744
-5.864e-01,1.76
-5.856e-01,1.76
-5.848e-01,1.768
-5.840e-01,1.768
-5.832e-01,1.776
-5.824e-01,1.768
-5.816e-01,1.768
-5.808e-01,1.776
-5.800e-01,1.8
-5.792e-01,1.8
-5.784e-01,1.792
-5.776e-01,1.792
-5.768e-01,1.776
-5.760e-01,1.784
-5.752e-01,1.776
-5.744e-01,1.768
-5.736e-01,1.76
-5.728e-01,1.768
-5.720e-01,1.768
-5.712e-01,1.768
-5.704e-01,1.76
-5.696e-01,1.736
-5.688e-01,1.736
-5.680e-01,1.744
-5.672e-01,1.752
-5.664e-01,1.752
-5.656e-01,1.76
-5.648e-01,1.768
-5.640e-01,1.768
-5.632e-01,1.776
-5.624e-01,1.768
-5.616e-01,1.768
-5.608e-01,1.768
-5.600e-01,1.792
-5.592e-01,1.808
-5.584e-01,1.8
-5.576e-01,1.792
-5.568e-01,1.776
-5.560e-01,1.776
-5.552e-01,1.768
-5.544e-01,1.768
-5.536e-01,1.768
-5.528e-01,1.768
-5.520e-01,1.768
-5.512e-01,1.76
-5.504e-01,1.744
-5.496e-01,1.736
-5.488e-01,1.736
-5.480e-01,1.736
-5.472e-01,1.752
-5.464e-01,1.76
-5.456e-01,1.768
-5.448e-01,1.768
-5.440e-01,1.768
-5.432e-01,1.768
-5.424e-01,1.768
-5.416e-01,1.768
-5.408e-01,1.768
-5.400e-01,1.792
-5.392e-01,1.8
-5.384e-01,1.8
-5.376e-01,1.792
-5.368e-01,1.776
-5.360e-01,1.784
-5.352e-01,1.776
-5.344e-01,1.768
-5.336e-01,1.768
-5.328e-01,1.768
-5.320e-01,1.76
-5.312e-01,1.768
-5.304e-01,1.752
-5.296e-01,1.736
-5.288e-01,1.728
-5.280e-01,1.736
-5.272e-01,1.752
-5.264e-01,1.76
-5.256e-01,1.76
-5.248e-01,1.768
-5.240e-01,1.768
-5.232e-01,1.776
-5.224e-01,1.776
-5.216e-01,1.776
-5.208e-01,1.776
-5.200e-01,1.808
-5.192e-01,1.8
-5.184e-01,1.792
-5.176e-01,1.792
-5.168e-01,1.776
-5.160e-01,1.776
-5.152e-01,1.784
-5.144e-01,1.768
-5.136e-01,1.768
-5.128e-01,1.768
-5.120e-01,1.76
-5.112e-01,1.768
-5.104e-01,1.752
-5.096e-01,1.736
-5.088e-01,1.736
-5.080e-01,1.736
-5.072e-01,1.752
-5.064e-01,1.76
-5.056e-01,1.76
-5.048e-01,1.768
-5.040e-01,1.768
-5.032e-01,1.776
-5.024e-01,1.768
-5.016e-01,1.768
-5.008e-01,1.768
-5.000e-01,1.792
-4.992e-01,1.8
-4.984e-01,1.808
-4.976e-01,1.792
-4.968e-01,1.776
-4.960e-01,1.776
-4.952e-01,1.776
-4.944e-01,1.768
-4.936e-01,1.768
-4.928e-01,1.768
-4.920e-01,1.768
-4.912e-01,1.768
-4.904e-01,1.76
-4.896e-01,1.736
-4.888e-01,1.736
-4.880e-01,1.744
-4.872e-01,1.752
-4.864e-01,1.752
-4.856e-01,1.76
-4.848e-01,1.768
-4.840e-01,1.776
-4.832e-01,1.768
-4.824e-01,1.76
-4.816e-01,1.768
-4.808e-01,1.776
-4.800e-01,1.8
-4.792e-01,1.8
-4.784e-01,1.792
-4.776e-01,1.792
-4.768e-01,1.784
-4.760e-01,1.776
-4.752e-01,1.768
-4.744e-01,1.768
-4.736e-01,1.768
-4.728e-01,1.768
-4.720e-01,1.76
-4.712e-01,1.76
-4.704e-01,1.744
-4.696e-01,1.728
-4.688e-01,1.736
-4.680e-01,1.744
-4.672e-01,1.752
-4.664e-01,1.76
-4.656e-01,1.76
-4.648e-01,1.768
-4.640e-01,1.76
-4.632e-01,1.768
-4.624e-01,1.768
-4.616e-01,1.768
-4.608e-01,1.76
-4.600e-01,1.792
-4.592e-01,1.8
-4.584e-01,1.792
-4.576e-01,1.784
-4.568e-01,1.776
-4.560e-01,1.768
-4.552e-01,1.776
-4.544e-01,1.768
-4.536e-01,1.768
-4.528e-01,1.76
-4.520e-01,1.76
-4.512e-01,1.768
-4.504e-01,1.752
-4.496e-01,1.736
-4.488e-01,1.744
-4.480e-01,1.744
-4.472e-01,1.744
-4.464e-01,1.76
-4.456e-01,1.752
-4.448e-01,1.768
-4.440e-01,1.76
-4.432e-01,1.768
-4.424e-01,1.776
-4.416e-01,1.768
-4.408e-01,1.768
-4.400e-01,1.8
-4.392e-01,1.808
-4.384e-01,1.792
-4.376e-01,1.792
-4.368e-01,1.776
-4.360e-01,1.776
-4.352e-01,1.776
-4.344e-01,1.76
-4.336e-01,1.768
-4.328e-01,1.768
-4.320e-01,1.776
-4.312e-01,1.768
-4.304e-01,1.752
-4.296e-01,1.744
-4.288e-01,1.736
-4.280e-01,1.736
-4.272e-01,1.76
-4.264e-01,1.768
-4.256e-01,1.768
-4.248e-01,1.76
-4.240e-01,1.776
-4.232e-01,1.776
-4.224e-01,1.776
-4.216e-01,1.768
-4.208e-01,1.776
-4.200e-01,1.792
-4.192e-01,1.808
-4.184e-01,1.8
-4.176e-01,1.792
-4.168e-01,1.784
-4.160e-01,1.768
-4.152e-01,1.776
-4.144e-01,1.768
-4.136e-01,1.768
-4.128e-01,1.76
-4.120e-01,1.768
-4.112e-01,1.76
-4.104e-01,1.76
-4.096e-01,1.728
-4.088e-01,1.736
-4.080e-01,1.744
-4.072e-01,1.752
-4.064e-01,1.76
-4.056e-01,1.76
-4.048e-01,1.76
-4.040e-01,1.768
-4.032e-01,1.76
-4.024e-01,1.768
-4.016e-01,1.776
-4.008e-01,1.768
-4.000e-01,1.792
-3.992e-01,1.8
-3.984e-01,1.8
-3.976e-01,1.792
-3.968e-01,1.776
-3.960e-01,1.768
-3.952e-01,1.768
-3.944e-01,1.76
-3.936e-01,1.768
-3.928e-01,1.768
-3.920e-01,1.76
-3.912e-01,1.768
-3.904e-01,1.752
-3.896e-01,1.736
-3.888e-01,1.736
-3.880e-01,1.736
-3.872e-01,1.744
-3.864e-01,1.752
-3.856e-01,1.76
-3.848e-01,1.76
-3.840e-01,1.768
-3.832e-01,1.776
-3.824e-01,1.768
-3.816e-01,1.768
-3.808e-01,1.768
-3.800e-01,1.792
-3.792e-01,1.8
-3.784e-01,1.8
-3.776e-01,1.792
-3.768e-01,1.784
-3.760e-01,1.776
-3.752e-01,1.776
-3.744e-01,1.776
-3.736e-01,1.768
-3.728e-01,1.768
-3.720e-01,1.776
-3.712e-01,1.768
-3.704e-01,1.752
-3.696e-01,1.744
-3.688e-01,1.744
-3.680e-01,1.744
-3.672e-01,1.752
-3.664e-01,1.768
-3.656e-01,1.768
-3.648e-01,1.768
-3.640e-01,1.776
-3.632e-01,1.776
-3.624e-01,1.776
-3.616e-01,1.784
-3.608e-01,1.776
-3.600e-01,1.808
-3.592e-01,1.816
-3.584e-01,1.808
-3.576e-01,1.808
-3.568e-01,1.8
-3.560e-01,1.792
-3.552e-01,1.784
-3.544e-01,1.776
-3.536e-01,1.776
-3.528e-01,1.784
-3.520e-01,1.784
-3.512e-01,1.784
-3.504e-01,1.768
-3.496e-01,1.76
-3.488e-01,1.752
-3.480e-01,1.768
-3.472e-01,1.776
-3.464e-01,1.776
-3.456e-01,1.784
-3.448e-01,1.8
-3.440e-01,1.8
-3.432e-01,1.8
-3.424e-01,1.8
-3.416e-01,1.8
-3.408e-01,1.808
-3.400e-01,1.832
-3.392e-01,1.84
-3.384e-01,1.832
-3.376e-01,1.824
-3.368e-01,1.816
-3.360e-01,1.816
-3.352e-01,1.808
-3.344e-01,1.808
-3.336e-01,1.808
-3.328e-01,1.808
-3.320e-01,1.808
-3.312e-01,1.808
-3.304e-01,1.8
-3.296e-01,1.776
-3.288e-01,1.776
-3.280e-01,1.784
-3.272e-01,1.8
-3.264e-01,1.816
-3.256e-01,1.808
-3.248e-01,1.808
-3.240e-01,1.816
-3.232e-01,1.816
-3.224e-01,1.816
-3.216e-01,1.824
-3.208e-01,1.824
-3.200e-01,1.832
-3.192e-01,1.848
-3.184e-01,1.848
-3.176e-01,1.832
-3.168e-01,1.824
-3.160e-01,1.816
-3.152e-01,1.8
-3.144e-01,1.808
-3.136e-01,1.8
-3.128e-01,1.8
-3.120e-01,1.8
-3.112e-01,1.784
-3.104e-01,1.776
-3.096e-01,1.752
-3.088e-01,1.76
-3.080e-01,1.76
-3.072e-01,1.768
-3.064e-01,1.768
-3.056e-01,1.776
-3.048e-01,1.776
-3.040e-01,1.776
-3.032e-01,1.768
-3.024e-01,1.768
-3.016e-01,1.768
-3.008e-01,1.768
-3.000e-01,1.784
-2.992e-01,1.792
-2.984e-01,1.784
-2.976e-01,1.776
-2.968e-01,1.76
-2.960e-01,1.752
-2.952e-01,1.744
-2.944e-01,1.736
-2.936e-01,1.736
-2.928e-01,1.736
-2.920e-01,1.728
-2.912e-01,1.72
-2.904e-01,1.704
-2.896e-01,1.68
-2.888e-01,1.664
-2.880e-01,1.672
-2.872e-01,1.68
-2.864e-01,1.68
-2.856e-01,1.68
-2.848e-01,1.688
-2.840e-01,1.68
-2.832e-01,1.672
-2.824e-01,1.672
-2.816e-01,1.672
-2.808e-01,1.664
-2.800e-01,1.688
-2.792e-01,1.68
-2.784e-01,1.688
-2.776e-01,1.672
-2.768e-01,1.648
-2.760e-01,1.648
-2.752e-01,1.64
-2.744e-01,1.632
-2.736e-01,1.616
-2.728e-01,1.608
-2.720e-01,1.608
-2.712e-01,1.6
-2.704e-01,1.584
-2.696e-01,1.568
-2.688e-01,1.552
-2.680e-01,1.552
-2.672e-01,1.568
-2.664e-01,1.56
-2.656e-01,1.568
-2.648e-01,1.568
-2.640e-01,1.568
-2.632e-01,1.552
-2.624e-01,1.552
-2.616e-01,1.544
-2.608e-01,1.544
-2.600e-01,1.568
-2.592e-01,1.568
-2.584e-01,1.56
-2.576e-01,1.552
-2.568e-01,1.544
-2.560e-01,1.528
-2.552e-01,1.52
-2.544e-01,1.528
-2.536e-01,1.512
-2.528e-01,1.512
-2.520e-01,1.504
-2.512e-01,1.504
-2.504e-01,1.496
-2.496e-01,1.464
-2.488e-01,1.464
-2.480e-01,1.464
-2.472e-01,1.472
-2.464e-01,1.488
-2.456e-01,1.48
-2.448e-01,1.488
-2.440e-01,1.496
-2.432e-01,1.488
-2.424e-01,1.488
-2.416e-01,1.48
-2.408e-01,1.488
-2.400e-01,1.504
-2.392e-01,1.512
-2.384e-01,1.512
-2.376e-01,1.496
-2.368e-01,1.496
-2.360e-01,1.488
-2.352e-01,1.488
-2.344e-01,1.472
-2.336e-01,1.472
-2.328e-01,1.48
-2.320e-01,1.48
-2.312e-01,1.48
-2.304e-01,1.472
-2.296e-01,1.448
-2.288e-01,1.448
-2.280e-01,1.456
-2.272e-01,1.472
-2.264e-01,1.488
-2.256e-01,1.48
-2.248e-01,1.496
-2.240e-01,1.496
-2.232e-01,1.504
-2.224e-01,1.504
-2.216e-01,1.504
-2.208e-01,1.512
-2.200e-01,1.536
-2.192e-01,1.552
-2.184e-01,1.544
-2.176e-01,1.544
-2.168e-01,1.536
-2.160e-01,1.536
-2.152e-01,1.536
-2.144e-01,1.528
-2.136e-01,1.536
-2.128e-01,1.528
-2.120e-01,1.536
-2.112e-01,1.544
-2.104e-01,1.544
-2.096e-01,1.528
-2.088e-01,1.52
-2.080e-01,1.528
-2.072e-01,1.544
-2.064e-01,1.56
-2.056e-01,1.56
-2.048e-01,1.576
-2.040e-01,1.576
-2.032e-01,1.592
-2.024e-01,1.592
-2.016e-01,1.592
-2.008e-01,1.6
-2.000e-01,1.624
-1.992e-01,1.648
-1.984e-01,1.648
-1.976e-01,1.656
-1.968e-01,1.64
-1.960e-01,1.64
-1.952e-01,1.64
-1.944e-01,1.648
-1.936e-01,1.648
-1.928e-01,1.648
-1.920e-01,1.656
-1.912e-01,1.656
-1.904e-01,1.656
-1.896e-01,1.648
-1.888e-01,1.64
-1.880e-01,1.664
-1.872e-01,1.672
-1.864e-01,1.68
-1.856e-01,1.688
-1.848e-01,1.696
-1.840e-01,1.712
-1.832e-01,1.72
-1.824e-01,1.72
-1.816e-01,1.728
-1.808e-01,1.736
-1.800e-01,1.752
-1.792e-01,1.776
-1.784e-01,1.776
-1.776e-01,1.776
-1.768e-01,1.76
-1.760e-01,1.768
-1.752e-01,1.776
-1.744e-01,1.776
-1.736e-01,1.768
-1.728e-01,1.776
-1.720e-01,1.792
-1.712e-01,1.784
-1.704e-01,1.792
-1.696e-01,1.776
-1.688e-01,1.768
-1.680e-01,1.776
-1.672e-01,1.792
-1.664e-01,1.808
-1.656e-01,1.808
-1.648e-01,1.816
-1.640e-01,1.832
-1.632e-01,1.84
-1.624e-01,1.84
-1.616e-01,1.848
-1.608e-01,1.856
-1.600e-01,1.872
-1.592e-01,1.888
-1.584e-01,1.888
-1.576e-01,1.888
-1.568e-01,1.88
-1.560e-01,1.88
-1.552e-01,1.88
-1.544e-01,1.88
-1.536e-01,1.872
-1.528e-01,1.88
-1.520e-01,1.888
-1.512e-01,1.896
-1.504e-01,1.896
-1.496e-01,1.872
-1.488e-01,1.864
-1.480e-01,1.88
-1.472e-01,1.904
-1.464e-01,1.912
-1.456e-01,1.92
-1.448e-01,1.92
-1.440e-01,1.928
-1.432e-01,1.936
-1.424e-01,1.936
-1.416e-01,1.944
-1.408e-01,1.944
-1.400e-01,1.96
-1.392e-01,1.976
-1.384e-01,1.968
-1.376e-01,1.976
-1.368e-01,1.952
-1.360e-01,1.952
-1.352e-01,1.952
-1.344e-01,1.952
-1.336e-01,1.944
-1.328e-01,1.944
-1.320e-01,1.952
-1.312e-01,1.944
-1.304e-01,1.944
-1.296e-01,1.912
-1.288e-01,1.912
-1.280e-01,1.912
-1.272e-01,1.92
-1.264e-01,1.936
-1.256e-01,1.928
-1.248e-01,1.936
-1.240e-01,1.928
-1.232e-01,1.936
-1.224e-01,1.936
-1.216e-01,1.928
-1.208e-01,1.92
-1.200e-01,1.936
-1.192e-01,1.952
-1.184e-01,1.944
-1.176e-01,1.936
-1.168e-01,1.92
-1.160e-01,1.912
-1.152e-01,1.912
-1.144e-01,1.896
-1.136e-01,1.896
-1.128e-01,1.888
-1.120e-01,1.888
-1.112e-01,1.88
-1.104e-01,1.864
-1.096e-01,1.84
-1.088e-01,1.832
-1.080e-01,1.832
-1.072e-01,1.84
-1.064e-01,1.84
-1.056e-01,1.84
-1.048e-01,1.832
-1.040e-01,1.832
-1.032e-01,1.832
-1.024e-01,1.824
-1.016e-01,1.824
-1.008e-01,1.816
-1.000e-01,1.824
-9.920e-02,1.832
-9.840e-02,1.824
-9.760e-02,1.816
-9.680e-02,1.8
-9.600e-02,1.792
-9.520e-02,1.784
-9.440e-02,1.768
-9.360e-02,1.76
-9.280e-02,1.752
-9.200e-02,1.752
-9.120e-02,1.744
-9.040e-02,1.744
-8.960e-02,1.704
-8.880e-02,1.696
-8.800e-02,1.704
-8.720e-02,1.704
-8.640e-02,1.712
-8.560e-02,1.72
-8.480e-02,1.712
-8.400e-02,1.712
-8.320e-02,1.72
-8.240e-02,1.72
-8.160e-02,1.712
-8.080e-02,1.72
-8.000e-02,1.736
-7.920e-02,1.744
-7.840e-02,1.76
-7.760e-02,1.736
-7.680e-02,1.736
-7.600e-02,1.736
-7.520e-02,1.728
-7.440e-02,1.72
-7.360e-02,1.72
-7.280e-02,1.728
-7.200e-02,1.728
-7.120e-02,1.736
-7.040e-02,1.728
-6.960e-02,1.72
-6.880e-02,1.712
-6.800e-02,1.72
-6.720e-02,1.744
-6.640e-02,1.752
-6.560e-02,1.76
-6.480e-02,1.76
-6.400e-02,1.784
-6.320e-02,1.8
-6.240e-02,1.8
-6.160e-02,1.808
-6.080e-02,1.816
-6.000e-02,1.832
-5.920e-02,1.872
-5.840e-02,1.872
-5.760e-02,1.872
-5.680e-02,1.88
-5.600e-02,1.88
-5.520e-02,1.872
-5.440e-02,1.888
-5.360e-02,1.896
-5.280e-02,1.904
-5.200e-02,1.912
-5.120e-02,1.912
-5.040e-02,1.928
-4.960e-02,1.912
-4.880e-02,1.912
-4.800e-02,1.936
-4.720e-02,1.96
-4.640e-02,1.968
-4.560e-02,1.992
-4.480e-02,2.008
-4.400e-02,2.024
-4.320e-02,2.032
-4.240e-02,2.04
-4.160e-02,2.056
-4.080e-02,2.072
-4.000e-02,2.096
-3.920e-02,2.12
-3.840e-02,2.128
-3.760e-02,2.136
-3.680e-02,2.136
-3.600e-02,2.144
-3.520e-02,2.144
-3.440e-02,2.16
-3.360e-02,2.16
-3.280e-02,2.176
-3.200e-02,2.184
-3.120e-02,2.2
-3.040e-02,2.2
-2.960e-02,2.184
-2.880e-02,2.192
-2.800e-02,2.2
-2.720e-02,2.232
-2.640e-02,2.24
-2.560e-02,2.256
-2.480e-02,2.272
-2.400e-02,2.288
-2.320e-02,2.296
-2.240e-02,2.312
-2.160e-02,2.328
-2.080e-02,2.328
-2.000e-02,2.352
-1.920e-02,2.376
-1.840e-02,2.384
-1.760e-02,2.392
-1.680e-02,2.384
-1.600e-02,2.384
-1.520e-02,2.392
-1.440e-02,2.4
-1.360e-02,2.392
-1.280e-02,2.408
-1.200e-02,2.416
-1.120e-02,2.424
-1.040e-02,2.424
-9.600e-03,2.4
-8.800e-03,2.408
-8.000e-03,2.424
-7.200e-03,2.44
-6.400e-03,2.456
-5.600e-03,2.464
-4.800e-03,2.472
-4.000e-03,2.48
-3.200e-03,2.496
-2.400e-03,2.504
-1.600e-03,2.504
-8.000e-04,2.504
9.074e-15,2.528
8.000e-04,2.56
1.600e-03,2.552
2.400e-03,2.552
3.200e-03,2.544
4.000e-03,2.536
4.800e-03,2.536
5.600e-03,2.552
6.400e-03,2.544
7.200e-03,2.552
8.000e-03,2.56
8.800e-03,2.56
9.600e-03,2.568
1.040e-02,2.536
1.120e-02,2.552
1.200e-02,2.544
1.280e-02,2.56
1.360e-02,2.568
1.440e-02,2.584
1.520e-02,2.584
1.600e-02,2.592
1.680e-02,2.6
1.760e-02,2.608
1.840e-02,2.6
1.920e-02,2.608
2.000e-02,2.632
2.080e-02,2.648
2.160e-02,2.648
2.240e-02,2.64
2.320e-02,2.632
2.400e-02,2.632
2.480e-02,2.632
2.560e-02,2.624
2.640e-02,2.632
2.720e-02,2.632
2.800e-02,2.624
2.880e-02,2.632
2.960e-02,2.624
3.040e-02,2.608
3.120e-02,2.6
3.200e-02,2.616
3.280e-02,2.616
3.360e-02,2.64
3.440e-02,2.64
3.520e-02,2.64
3.600e-02,2.648
3.680e-02,2.648
3.760e-02,2.656
3.840e-02,2.656
3.920e-02,2.656
4.000e-02,2.672
4.080e-02,2.688
4.160e-02,2.696
4.240e-02,2.68
4.320e-02,2.672
4.400e-02,2.664
4.480e-02,2.664
4.560e-02,2.656
4.640e-02,2.664
4.720e-02,2.664
4.800e-02,2.656
4.880e-02,2.656
4.960e-02,2.664
5.040e-02,2.632
5.120e-02,2.624
5.200e-02,2.632
5.280e-02,2.648
5.360e-02,2.648
5.440e-02,2.664
5.520e-02,2.656
5.600e-02,2.664
5.680e-02,2.672
5.760e-02,2.672
5.840e-02,2.672
5.920e-02,2.672
6.000e-02,2.688
6.080e-02,2.704
6.160e-02,2.712
6.240e-02,2.704
6.320e-02,2.68
6.400e-02,2.688
6.480e-02,2.688
6.560e-02,2.68
6.640e-02,2.672
6.720e-02,2.672
6.800e-02,2.68
6.880e-02,2.672
6.960e-02,2.672
7.040e-02,2.648
7.120e-02,2.64
7.200e-02,2.648
7.280e-02,2.656
7.360e-02,2.664
7.440e-02,2.664
7.520e-02,2.672
7.600e-02,2.68
7.680e-02,2.688
7.760e-02,2.688
7.840e-02,2.68
7.920e-02,2.688
8.000e-02,2.696
8.080e-02,2.72
8.160e-02,2.712
8.240e-02,2.704
8.320e-02,2.696
8.400e-02,2.696
8.480e-02,2.688
8.560e-02,2.688
8.640e-02,2.68
8.720e-02,2.68
8.800e-02,2.68
8.880e-02,2.68
8.960e-02,2.68
9.040e-02,2.648
9.120e-02,2.656
9.200e-02,2.656
9.280e-02,2.656
9.360e-02,2.664
9.440e-02,2.68
9.520e-02,2.68
9.600e-02,2.68
9.680e-02,2.688
9.760e-02,2.688
9.840e-02,2.68
9.920e-02,2.688
1.000e-01,2.696
1.008e-01,2.712
1.016e-01,2.72
1.024e-01,2.712
1.032e-01,2.696
1.040e-01,2.696
1.048e-01,2.696
1.056e-01,2.68
1.064e-01,2.688
1.072e-01,2.688
1.080e-01,2.68
1.088e-01,2.68
1.096e-01,2.688
1.104e-01,2.664
1.112e-01,2.656
1.120e-01,2.648
1.128e-01,2.664
1.136e-01,2.672
1.144e-01,2.68
1.152e-01,2.68
1.160e-01,2.68
1.168e-01,2.688
1.176e-01,2.688
1.184e-01,2.688
1.192e-01,2.688
1.200e-01,2.696
1.208e-01,2.712
1.216e-01,2.72
1.224e-01,2.704
1.232e-01,2.696
1.240e-01,2.696
1.248e-01,2.688
1.256e-01,2.68
1.264e-01,2.68
1.272e-01,2.68
1.280e-01,2.68
1.288e-01,2.68
1.296e-01,2.672
1.304e-01,2.648
1.312e-01,2.648
1.320e-01,2.648
1.328e-01,2.664
1.336e-01,2.68
1.344e-01,2.68
1.352e-01,2.672
1.360e-01,2.68
1.368e-01,2.688
1.376e-01,2.688
1.384e-01,2.688
1.392e-01,2.688
1.400e-01,2.704
1.408e-01,2.712
1.416e-01,2.712
1.424e-01,2.712
1.432e-01,2.696
1.440e-01,2.696
1.448e-01,2.696
1.456e-01,2.688
1.464e-01,2.688
1.472e-01,2.68
1.480e-01,2.688
1.488e-01,2.688
1.496e-01,2.68
1.504e-01,2.656
1.512e-01,2.656
1.520e-01,2.656
1.528e-01,2.664
1.536e-01,2.664
1.544e-01,2.672
1.552e-01,2.672
1.560e-01,2.688
1.568e-01,2.688
1.576e-01,2.688
1.584e-01,2.688
1.592e-01,2.688
1.600e-01,2.704
1.608e-01,2.728
1.616e-01,2.72
1.624e-01,2.712
1.632e-01,2.704
1.640e-01,2.696
1.648e-01,2.704
1.656e-01,2.688
1.664e-01,2.688
1.672e-01,2.688
1.680e-01,2.688
1.688e-01,2.688
1.696e-01,2.688
1.704e-01,2.664
1.712e-01,2.656
1.720e-01,2.656
1.728e-01,2.664
1.736e-01,2.672
1.744e-01,2.688
1.752e-01,2.688
1.760e-01,2.688
1.768e-01,2.688
1.776e-01,2.696
1.784e-01,2.696
1.792e-01,2.696
1.800e-01,2.712
1.808e-01,2.728
1.816e-01,2.72
1.824e-01,2.72
1.832e-01,2.704
1.840e-01,2.704
1.848e-01,2.704
1.856e-01,2.696
1.864e-01,2.704
1.872e-01,2.696
1.880e-01,2.704
1.888e-01,2.704
1.896e-01,2.704
1.904e-01,2.672
1.912e-01,2.664
1.920e-01,2.672
1.928e-01,2.68
1.936e-01,2.688
1.944e-01,2.688
1.952e-01,2.696
1.960e-01,2.704
1.968e-01,2.704
1.976e-01,2.704
1.984e-01,2.704
1.992e-01,2.704
2.000e-01,2.72
2.008e-01,2.736
2.016e-01,2.736
2.024e-01,2.728
2.032e-01,2.72
2.040e-01,2.712
2.048e-01,2.712
2.056e-01,2.704
2.064e-01,2.696
2.072e-01,2.696
2.080e-01,2.696
2.088e-01,2.696
2.096e-01,2.688
2.104e-01,2.664
2.112e-01,2.664
2.120e-01,2.656
2.128e-01,2.664
2.136e-01,2.68
2.144e-01,2.68
2.152e-01,2.68
2.160e-01,2.688
2.168e-01,2.672
2.176e-01,2.68
2.184e-01,2.68
2.192e-01,2.672
2.200e-01,2.688
2.208e-01,2.704
2.216e-01,2.704
2.224e-01,2.696
2.232e-01,2.672
2.240e-01,2.672
2.248e-01,2.664
2.256e-01,2.656
2.264e-01,2.648
2.272e-01,2.648
2.280e-01,2.64
2.288e-01,2.632
2.296e-01,2.624
2.304e-01,2.6
2.312e-01,2.592
2.320e-01,2.6
2.328e-01,2.6
2.336e-01,2.6
2.344e-01,2.6
2.352e-01,2.6
2.360e-01,2.6
2.368e-01,2.592
2.376e-01,2.584
2.384e-01,2.584
2.392e-01,2.584
2.400e-01,2.592
2.408e-01,2.6
2.416e-01,2.6
2.424e-01,2.584
2.432e-01,2.56
2.440e-01,2.56
2.448e-01,2.544
2.456e-01,2.536
2.464e-01,2.528
2.472e-01,2.512
2.480e-01,2.504
2.488e-01,2.496
2.496e-01,2.488
2.504e-01,2.464
2.512e-01,2.456
2.520e-01,2.448
2.528e-01,2.448
2.536e-01,2.456
2.544e-01,2.448
2.552e-01,2.448
2.560e-01,2.448
2.568e-01,2.44
2.576e-01,2.44
2.584e-01,2.432
2.592e-01,2.424
2.600e-01,2.432
2.608e-01,2.448
2.616e-01,2.44
2.624e-01,2.424
2.632e-01,2.416
2.640e-01,2.408
2.648e-01,2.392
2.656e-01,2.384
2.664e-01,2.376
2.672e-01,2.368
2.680e-01,2.36
2.688e-01,2.36
2.696e-01,2.352
2.704e-01,2.328
2.712e-01,2.312
2.720e-01,2.312
2.728e-01,2.32
2.736e-01,2.32
2.744e-01,2.328
2.752e-01,2.328
2.760e-01,2.328
2.768e-01,2.32
2.776e-01,2.336
2.784e-01,2.32
2.792e-01,2.312
2.800e-01,2.328
2.808e-01,2.336
2.816e-01,2.328
2.824e-01,2.328
2.832e-01,2.312
2.840e-01,2.304
2.848e-01,2.288
2.856e-01,2.296
2.864e-01,2.288
2.872e-01,2.28
2.880e-01,2.28
2.888e-01,2.28
2.896e-01,2.28
2.904e-01,2.248
2.912e-01,2.24
2.920e-01,2.24
2.928e-01,2.248
2.936e-01,2.256
2.944e-01,2.248
2.952e-01,2.256
2.960e-01,2.256
2.968e-01,2.256
2.976e-01,2.264
2.984e-01,2.256
2.992e-01,2.256
3.000e-01,2.264
3.008e-01,2.28
3.016e-01,2.272
3.024e-01,2.272
3.032e-01,2.264
3.040e-01,2.264
3.048e-01,2.248
3.056e-01,2.248
3.064e-01,2.248
3.072e-01,2.24
3.080e-01,2.24
3.088e-01,2.24
3.096e-01,2.232
3.104e-01,2.208
3.112e-01,2.2
3.120e-01,2.208
3.128e-01,2.208
3.136e-01,2.224
3.144e-01,2.224
3.152e-01,2.224
3.160e-01,2.232
3.168e-01,2.232
3.176e-01,2.224
3.184e-01,2.224
3.192e-01,2.224
3.200e-01,2.232
3.208e-01,2.256
3.216e-01,2.256
3.224e-01,2.24
3.232e-01,2.232
3.240e-01,2.224
3.248e-01,2.224
3.256e-01,2.216
3.264e-01,2.216
3.272e-01,2.208
3.280e-01,2.208
3.288e-01,2.2
3.296e-01,2.2
3.304e-01,2.184
3.312e-01,2.168
3.320e-01,2.168
3.328e-01,2.176
3.336e-01,2.192
3.344e-01,2.192
3.352e-01,2.192
3.360e-01,2.192
3.368e-01,2.192
3.376e-01,2.2
3.384e-01,2.192
3.392e-01,2.192
3.400e-01,2.2
3.408e-01,2.216
3.416e-01,2.208
3.424e-01,2.216
3.432e-01,2.2
3.440e-01,2.192
3.448e-01,2.184
3.456e-01,2.184
3.464e-01,2.176
3.472e-01,2.168
3.480e-01,2.168
3.488e-01,2.168
3.496e-01,2.16
3.504e-01,2.136
3.512e-01,2.12
3.520e-01,2.128
3.528e-01,2.128
3.536e-01,2.144
