lab_data/10 - 20/TEK00009.CSV

Model,TBS1102C
Firmware Version,v2015-08-04-prequal4ch70_v1.3

Point Format,Y
Horizontal Units,S
Horizontal Scale,0.1
Sample Interval,0.0008
Filter Frequency,2e+08
Record Length,2000
Gating,0.0% to 100.0%
Probe Attenuation,1
Vertical Units,V
Vertical Offset,1
Vertical Scale,0.2
Label,
TIME,CH1
-6.080e-01,1.776
-6.072e-01,1.768
-6.064e-01,1.768
-6.056e-01,1.768
-6.048e-01,1.76
-6.040e-01,1.752
-6.032e-01,1.736
-6.024e-01,1.736
-6.016e-01,1.744
-6.008e-01,1.752
-6.000e-01,1.76
-5.992e-01,1.76
-5.984e-01,1.76
-5.976e-01,1.768
-5.968e-01,1.768
-5.960e-01,1.768
-5.952e-01,1.776
-5.944e-01,1.768
-5.936e-01,1.792
-5.928e-01,1.8
-5.920e-01,1.8
-5.912e-01,1.792
-5.904e-01,1.784
-5.896e-01,1.768
-5.888e-01,1.768
-5.880e-01,1.776
-5.872e-01,1.768
-5.864e-01,1.76
-5.856e-01,1.76
-5.848e-01,1.76
-5.840e-01,1.752
-5.832e-01,1.728
-5.824e-01,1.736
-5.816e-01,1.744
-5.808e-01,1.752
-5.800e-01,1.76
-5.792e-01,1.76
-5.784e-01,1.76
-5.776e-01,1.768
-5.768e-01,1.768
-5.760e-01,1.76
-5.752e-01,1.768
-5.744e-01,1.768
-5.736e-01,1.8
-5.728e-01,1.8
-5.720e-01,1.8
-5.712e-01,1.784
-5.704e-01,1.784
-5.696e-01,1.776
-5.688e-01,1.776
-5.680e-01,1.768
-5.672e-01,1.768
-5.664e-01,1.768
-5.656e-01,1.768
-5.648e-01,1.76
-5.640e-01,1.76
-5.632e-01,1.736
-5.624e-01,1.728
-5.616e-01,1.744
-5.608e-01,1.752
-5.600e-01,1.76
-5.592e-01,1.768
-5.584e-01,1.76
-5.576e-01,1.776
-5.568e-01,1.768
-5.560e-01,1.768
-5.552e-01,1.768
-5.544e-01,1.776
-5.536e-01,1.792
-5.528e-01,1.8
-5.520e-01,1.8
-5.512e-01,1.792
-5.504e-01,1.784
-5.496e-01,1.776
-5.488e-01,1.768
-5.480e-01,1.768
-5.472e-01,1.768
-5.464e-01,1.768
-5.456e-01,1.776
-5.448e-01,1.768
-5.440e-01,1.752
-5.432e-01,1.736
-5.424e-01,1.736
-5.416e-01,1.744
-5.408e-01,1.752
-5.400e-01,1.76
-5.392e-01,1.76
-5.384e-01,1.768
-5.376e-01,1.768
-5.368e-01,1.776
-5.360e-01,1.776
-5.352e-01,1.768
-5.344e-01,1.768
-5.336e-01,1.792
-5.328e-01,1.8
-5.320e-01,1.8
-5.312e-01,1.792
-5.304e-01,1.784
-5.296e-01,1.776
-5.288e-01,1.776
-5.280e-01,1.768
-5.272e-01,1.768
-5.264e-01,1.76
-5.256e-01,1.768
-5.248e-01,1.76
-5.240e-01,1.752
-5.232e-01,1.728
-5.224e-01,1.736
-5.216e-01,1.736
-5.208e-01,1.752
-5.200e-01,1.76
-5.192e-01,1.76
-5.184e-01,1.76
-5.176e-01,1.76
-5.168e-01,1.768
-5.160e-01,1.776
-5.152e-01,1.776
-5.144e-01,1.776
-5.136e-01,1.792
-5.128e-01,1.8
-5.120e-01,1.8
-5.112e-01,1.8
-5.104e-01,1.784
-5.096e-01,1.784
-5.088e-01,1.768
-5.080e-01,1.768
-5.072e-01,1.768
-5.064e-01,1.768
-5.056e-01,1.76
-5.048e-01,1.768
-5.040e-01,1.744
-5.032e-01,1.728
-5.024e-01,1.728
-5.016e-01,1.744
-5.008e-01,1.752
-5.000e-01,1.76
-4.992e-01,1.752
-4.984e-01,1.768
-4.976e-01,1.768
-4.968e-01,1.768
-4.960e-01,1.768
-4.952e-01,1.776
-4.944e-01,1.768
-4.936e-01,1.8
-4.928e-01,1.8
-4.920e-01,1.8
-4.912e-01,1.792
-4.904e-01,1.776
-4.896e-01,1.776
-4.888e-01,1.776
-4.880e-01,1.776
-4.872e-01,1.76
-4.864e-01,1.768
-4.856e-01,1.768
-4.848e-01,1.768
-4.840e-01,1.752
-4.832e-01,1.736
-4.824e-01,1.736
-4.816e-01,1.744
-4.808e-01,1.744
-4.800e-01,1.76
-4.792e-01,1.768
-4.784e-01,1.768
-4.776e-01,1.768
-4.768e-01,1.776
-4.760e-01,1.768
-4.752e-01,1.776
-4.744e-01,1.776
-4.736e-01,1.792
-4.728e-01,1.8
-4.720e-01,1.8
-4.712e-01,1.792
-4.704e-01,1.792
-4.696e-01,1.776
-4.688e-01,1.776
-4.680e-01,1.776
-4.672e-01,1.768
-4.664e-01,1.776
-4.656e-01,1.768
-4.648e-01,1.768
-4.640e-01,1.752
-4.632e-01,1.736
-4.624e-01,1.728
-4.616e-01,1.736
-4.608e-01,1.752
-4.600e-01,1.76
-4.592e-01,1.76
-4.584e-01,1.76
-4.576e-01,1.76
-4.568e-01,1.768
-4.560e-01,1.768
-4.552e-01,1.768
-4.544e-01,1.776
-4.536e-01,1.792
-4.528e-01,1.8
-4.520e-01,1.792
-4.512e-01,1.792
-4.504e-01,1.784
-4.496e-01,1.776
-4.488e-01,1.768
-4.480e-01,1.768
-4.472e-01,1.768
-4.464e-01,1.768
-4.456e-01,1.76
-4.448e-01,1.76
-4.440e-01,1.752
-4.432e-01,1.736
-4.424e-01,1.728
-4.416e-01,1.744
-4.408e-01,1.752
-4.400e-01,1.752
-4.392e-01,1.76
-4.384e-01,1.752
-4.376e-01,1.768
-4.368e-01,1.768
-4.360e-01,1.768
-4.352e-01,1.776
-4.344e-01,1.768
-4.336e-01,1.792
-4.328e-01,1.808
-4.320e-01,1.8
-4.312e-01,1.784
-4.304e-01,1.784
-4.296e-01,1.776
-4.288e-01,1.768
-4.280e-01,1.768
-4.272e-01,1.768
-4.264e-01,1.76
-4.256e-01,1.76
-4.248e-01,1.76
-4.240e-01,1.752
-4.232e-01,1.736
-4.224e-01,1.736
-4.216e-01,1.744
-4.208e-01,1.752
-4.200e-01,1.76
-4.192e-01,1.768
-4.184e-01,1.768
-4.176e-01,1.768
-4.168e-01,1.768
-4.160e-01,1.776
-4.152e-01,1.776
-4.144e-01,1.768
-4.136e-01,1.8
-4.128e-01,1.808
-4.120e-01,1.8
-4.112e-01,1.8
-4.104e-01,1.784
-4.096e-01,1.784
-4.088e-01,1.776
-4.080e-01,1.768
-4.072e-01,1.768
-4.064e-01,1.776
-4.056e-01,1.776
-4.048e-01,1.768
-4.040e-01,1.76
-4.032e-01,1.736
-4.024e-01,1.744
-4.016e-01,1.744
-4.008e-01,1.752
-4.000e-01,1.76
-3.992e-01,1.768
-3.984e-01,1.76
-3.976e-01,1.776
-3.968e-01,1.776
-3.960e-01,1.776
-3.952e-01,1.776
-3.944e-01,1.768
-3.936e-01,1.8
-3.928e-01,1.8
-3.920e-01,1.8
-3.912e-01,1.8
-3.904e-01,1.784
-3.896e-01,1.776
-3.888e-01,1.776
-3.880e-01,1.784
-3.872e-01,1.768
-3.864e-01,1.768
-3.856e-01,1.768
-3.848e-01,1.776
-3.840e-01,1.76
-3.832e-01,1.744
-3.824e-01,1.736
-3.816e-01,1.752
-3.808e-01,1.76
-3.800e-01,1.76
-3.792e-01,1.76
-3.784e-01,1.768
-3.776e-01,1.768
-3.768e-01,1.776
-3.760e-01,1.784
-3.752e-01,1.776
-3.744e-01,1.784
-3.736e-01,1.8
-3.728e-01,1.816
-3.720e-01,1.808
-3.712e-01,1.808
-3.704e-01,1.792
-3.696e-01,1.792
-3.688e-01,1.792
-3.680e-01,1.784
-3.672e-01,1.784
-3.664e-01,1.784
-3.656e-01,1.784
-3.648e-01,1.776
-3.640e-01,1.776
-3.632e-01,1.752
-3.624e-01,1.752
-3.616e-01,1.752
-3.608e-01,1.76
-3.600e-01,1.776
-3.592e-01,1.776
-3.584e-01,1.792
-3.576e-01,1.8
-3.568e-01,1.8
-3.560e-01,1.792
-3.552e-01,1.8
-3.544e-01,1.816
-3.536e-01,1.824
-3.528e-01,1.832
-3.520e-01,1.832
-3.512e-01,1.824
-3.504e-01,1.816
-3.496e-01,1.816
-3.488e-01,1.816
-3.480e-01,1.816
-3.472e-01,1.808
-3.464e-01,1.816
-3.456e-01,1.816
-3.448e-01,1.816
-3.440e-01,1.8
-3.432e-01,1.784
-3.424e-01,1.784
-3.416e-01,1.792
-3.408e-01,1.8
-3.400e-01,1.808
-3.392e-01,1.816
-3.384e-01,1.816
-3.376e-01,1.816
-3.368e-01,1.824
-3.360e-01,1.824
-3.352e-01,1.816
-3.344e-01,1.824
-3.336e-01,1.84
-3.328e-01,1.848
-3.320e-01,1.856
-3.312e-01,1.848
-3.304e-01,1.824
-3.296e-01,1.824
-3.288e-01,1.824
-3.280e-01,1.808
-3.272e-01,1.808
-3.264e-01,1.808
-3.256e-01,1.808
-3.248e-01,1.8
-3.240e-01,1.8
-3.232e-01,1.776
-3.224e-01,1.768
-3.216e-01,1.776
-3.208e-01,1.776
-3.200e-01,1.776
-3.192e-01,1.776
-3.184e-01,1.784
-3.176e-01,1.784
-3.168e-01,1.784
-3.160e-01,1.784
-3.152e-01,1.776
-3.144e-01,1.784
-3.136e-01,1.8
-3.128e-01,1.808
-3.120e-01,1.792
-3.112e-01,1.792
-3.104e-01,1.768
-3.096e-01,1.768
-3.088e-01,1.76
-3.080e-01,1.752
-3.072e-01,1.744
-3.064e-01,1.736
-3.056e-01,1.744
-3.048e-01,1.736
-3.040e-01,1.72
-3.032e-01,1.688
-3.024e-01,1.688
-3.016e-01,1.688
-3.008e-01,1.696
-3.000e-01,1.704
-2.992e-01,1.696
-2.984e-01,1.696
-2.976e-01,1.704
-2.968e-01,1.688
-2.960e-01,1.688
-2.952e-01,1.68
-2.944e-01,1.68
-2.936e-01,1.696
-2.928e-01,1.704
-2.920e-01,1.688
-2.912e-01,1.688
-2.904e-01,1.672
-2.896e-01,1.664
-2.888e-01,1.656
-2.880e-01,1.648
-2.872e-01,1.64
-2.864e-01,1.632
-2.856e-01,1.624
-2.848e-01,1.616
-2.840e-01,1.616
-2.832e-01,1.584
-2.824e-01,1.576
-2.816e-01,1.576
-2.808e-01,1.584
-2.800e-01,1.592
-2.792e-01,1.576
-2.784e-01,1.584
-2.776e-01,1.592
-2.768e-01,1.576
-2.760e-01,1.576
-2.752e-01,1.568
-2.744e-01,1.568
-2.736e-01,1.584
-2.728e-01,1.6
-2.720e-01,1.592
-2.712e-01,1.576
-2.704e-01,1.56
-2.696e-01,1.56
-2.688e-01,1.544
-2.680e-01,1.544
-2.672e-01,1.536
-2.664e-01,1.528
-2.656e-01,1.52
-2.648e-01,1.528
-2.640e-01,1.52
-2.632e-01,1.488
-2.624e-01,1.48
-2.616e-01,1.48
-2.608e-01,1.488
-2.600e-01,1.496
-2.592e-01,1.496
-2.584e-01,1.496
-2.576e-01,1.496
-2.568e-01,1.504
-2.560e-01,1.496
-2.552e-01,1.496
-2.544e-01,1.504
-2.536e-01,1.512
-2.528e-01,1.528
-2.520e-01,1.528
-2.512e-01,1.512
-2.504e-01,1.496
-2.496e-01,1.488
-2.488e-01,1.48
-2.480e-01,1.496
-2.472e-01,1.48
-2.464e-01,1.48
-2.456e-01,1.488
-2.448e-01,1.48
-2.440e-01,1.472
-2.432e-01,1.456
-2.424e-01,1.448
-2.416e-01,1.456
-2.408e-01,1.464
-2.400e-01,1.472
-2.392e-01,1.48
-2.384e-01,1.48
-2.376e-01,1.488
-2.368e-01,1.488
-2.360e-01,1.488
-2.352e-01,1.496
-2.344e-01,1.496
-2.336e-01,1.512
-2.328e-01,1.536
-2.320e-01,1.536
-2.312e-01,1.528
-2.304e-01,1.52
-2.296e-01,1.512
-2.288e-01,1.52
-2.280e-01,1.512
-2.272e-01,1.512
-2.264e-01,1.52
-2.256e-01,1.52
-2.248e-01,1.52
-2.240e-01,1.52
-2.232e-01,1.496
-2.224e-01,1.496
-2.216e-01,1.52
-2.208e-01,1.52
-2.200e-01,1.536
-2.192e-01,1.544
-2.184e-01,1.544
-2.176e-01,1.56
-2.168e-01,1.56
-2.160e-01,1.56
-2.152e-01,1.568
-2.144e-01,1.576
-2.136e-01,1.6
-2.128e-01,1.608
-2.120e-01,1.624
-2.112e-01,1.608
-2.104e-01,1.608
-2.096e-01,1.616
-2.088e-01,1.608
-2.080e-01,1.6
-2.072e-01,1.608
-2.064e-01,1.616
-2.056e-01,1.616
-2.048e-01,1.624
-2.040e-01,1.632
-2.032e-01,1.608
-2.024e-01,1.608
-2.016e-01,1.624
-2.008e-01,1.64
-2.000e-01,1.648
-1.992e-01,1.656
-1.984e-01,1.664
-1.976e-01,1.68
-1.968e-01,1.688
-1.960e-01,1.688
-1.952e-01,1.688
-1.944e-01,1.696
-1.936e-01,1.72
-1.928e-01,1.736
-1.920e-01,1.744
-1.912e-01,1.752
-1.904e-01,1.736
-1.896e-01,1.736
-1.888e-01,1.744
-1.880e-01,1.744
-1.872e-01,1.744
-1.864e-01,1.744
-1.856e-01,1.752
-1.848e-01,1.752
-1.840e-01,1.752
-1.832e-01,1.736
-1.824e-01,1.736
-1.816e-01,1.744
-1.808e-01,1.76
-1.800e-01,1.768
-1.792e-01,1.784
-1.784e-01,1.784
-1.776e-01,1.792
-1.768e-01,1.816
-1.760e-01,1.808
-1.752e-01,1.816
-1.744e-01,1.816
-1.736e-01,1.848
-1.728e-01,1.864
-1.720e-01,1.864
-1.712e-01,1.864
-1.704e-01,1.856
-1.696e-01,1.856
-1.688e-01,1.848
-1.680e-01,1.856
-1.672e-01,1.848
-1.664e-01,1.848
-1.656e-01,1.864
-1.648e-01,1.864
-1.640e-01,1.864
-1.632e-01,1.848
-1.624e-01,1.848
-1.616e-01,1.856
-1.608e-01,1.864
-1.600e-01,1.872
-1.592e-01,1.888
-1.584e-01,1.896
-1.576e-01,1.896
-1.568e-01,1.904
-1.560e-01,1.904
-1.552e-01,1.912
-1.544e-01,1.92
-1.536e-01,1.944
-1.528e-01,1.944
-1.520e-01,1.96
-1.512e-01,1.952
-1.504e-01,1.952
-1.496e-01,1.944
-1.488e-01,1.944
-1.480e-01,1.944
-1.472e-01,1.936
-1.464e-01,1.944
-1.456e-01,1.944
-1.448e-01,1.944
-1.440e-01,1.944
-1.432e-01,1.912
-1.424e-01,1.912
-1.416e-01,1.92
-1.408e-01,1.928
-1.400e-01,1.944
-1.392e-01,1.944
-1.384e-01,1.944
-1.376e-01,1.952
-1.368e-01,1.96
-1.360e-01,1.952
-1.352e-01,1.944
-1.344e-01,1.952
-1.336e-01,1.96
-1.328e-01,1.976
-1.320e-01,1.976
-1.312e-01,1.96
-1.304e-01,1.952
-1.296e-01,1.944
-1.288e-01,1.944
-1.280e-01,1.928
-1.272e-01,1.92
-1.264e-01,1.92
-1.256e-01,1.912
-1.248e-01,1.92
-1.240e-01,1.912
-1.232e-01,1.88
-1.224e-01,1.872
-1.216e-01,1.872
-1.208e-01,1.888
-1.200e-01,1.888
-1.192e-01,1.888
-1.184e-01,1.888
-1.176e-01,1.888
-1.168e-01,1.88
-1.160e-01,1.88
-1.152e-01,1.88
-1.144e-01,1.88
-1.136e-01,1.88
-1.128e-01,1.896
-1.120e-01,1.888
-1.112e-01,1.88
-1.104e-01,1.856
-1.096e-01,1.848
-1.088e-01,1.84
-1.080e-01,1.84
-1.072e-01,1.816
-1.064e-01,1.808
-1.056e-01,1.808
-1.048e-01,1.8
-1.040e-01,1.8
-1.032e-01,1.768
-1.024e-01,1.752
-1.016e-01,1.752
-1.008e-01,1.76
-1.000e-01,1.768
-9.920e-02,1.76
-9.840e-02,1.76
-9.760e-02,1.76
-9.680e-02,1.752
-9.600e-02,1.752
-9.520e-02,1.752
-9.440e-02,1.744
-9.360e-02,1.752
-9.280e-02,1.768
-9.200e-02,1.76
-9.120e-02,1.752
-9.040e-02,1.736
-8.960e-02,1.736
-8.880e-02,1.728
-8.800e-02,1.72
-8.720e-02,1.72
-8.640e-02,1.712
-8.560e-02,1.72
-8.480e-02,1.72
-8.400e-02,1.712
-8.320e-02,1.688
-8.240e-02,1.68
-8.160e-02,1.688
-8.080e-02,1.696
-8.000e-02,1.712
-7.920e-02,1.712
-7.840e-02,1.72
-7.760e-02,1.728
-7.680e-02,1.728
-7.600e-02,1.736
-7.520e-02,1.736
-7.440e-02,1.744
-7.360e-02,1.768
-7.280e-02,1.784
-7.200e-02,1.792
-7.120e-02,1.784
-7.040e-02,1.792
-6.960e-02,1.784
-6.880e-02,1.792
-6.800e-02,1.792
-6.720e-02,1.792
-6.640e-02,1.792
-6.560e-02,1.816
-6.480e-02,1.816
-6.400e-02,1.824
-6.320e-02,1.8
-6.240e-02,1.8
-6.160e-02,1.816
-6.080e-02,1.832
-6.000e-02,1.856
-5.920e-02,1.872
-5.840e-02,1.88
-5.760e-02,1.896
-5.680e-02,1.904
-5.600e-02,1.92
-5.520e-02,1.928
-5.440e-02,1.944
-5.360e-02,1.968
-5.280e-02,1.992
-5.200e-02,1.992
-5.120e-02,2
-5.040e-02,2
-4.960e-02,2.008
-4.880e-02,2.008
-4.800e-02,2.024
-4.720e-02,2.032
-4.640e-02,2.04
-4.560e-02,2.048
-4.480e-02,2.064
-4.400e-02,2.072
-4.320e-02,2.056
-4.240e-02,2.064
-4.160e-02,2.08
-4.080e-02,2.096
-4.000e-02,2.12
-3.920e-02,2.128
-3.840e-02,2.152
-3.760e-02,2.16
-3.680e-02,2.176
-3.600e-02,2.184
-3.520e-02,2.192
-3.440e-02,2.208
-3.360e-02,2.24
-3.280e-02,2.256
-3.200e-02,2.264
-3.120e-02,2.272
-3.040e-02,2.272
-2.960e-02,2.272
-2.880e-02,2.28
-2.800e-02,2.28
-2.720e-02,2.296
-2.640e-02,2.304
-2.560e-02,2.312
-2.480e-02,2.312
-2.400e-02,2.32
-2.320e-02,2.304
-2.240e-02,2.304
-2.160e-02,2.32
-2.080e-02,2.336
-2.000e-02,2.352
-1.920e-02,2.368
-1.840e-02,2.376
-1.760e-02,2.392
-1.680e-02,2.408
-1.600e-02,2.408
-1.520e-02,2.416
-1.440e-02,2.424
-1.360e-02,2.448
-1.280e-02,2.472
-1.200e-02,2.472
-1.120e-02,2.48
-1.040e-02,2.472
-9.600e-03,2.48
-8.800e-03,2.48
-8.000e-03,2.472
-7.200e-03,2.472
-6.400e-03,2.488
-5.600e-03,2.488
-4.800e-03,2.496
-4.000e-03,2.488
-3.200e-03,2.488
-2.400e-03,2.472
-1.600e-03,2.488
-8.000e-04,2.496
9.074e-15,2.512
8.000e-04,2.52
1.600e-03,2.528
2.400e-03,2.536
3.200e-03,2.552
4.000e-03,2.552
4.800e-03,2.56
5.600e-03,2.56
6.400e-03,2.576
7.200e-03,2.592
8.000e-03,2.6
8.800e-03,2.592
9.600e-03,2.592
1.040e-02,2.592
1.120e-02,2.592
1.200e-02,2.592
1.280e-02,2.592
1.360e-02,2.592
1.440e-02,2.6
1.520e-02,2.6
1.600e-02,2.6
1.680e-02,2.576
1.760e-02,2.576
1.840e-02,2.576
1.920e-02,2.6
2.000e-02,2.6
2.080e-02,2.616
2.160e-02,2.608
2.240e-02,2.616
2.320e-02,2.624
2.400e-02,2.624
2.480e-02,2.624
2.560e-02,2.632
2.640e-02,2.64
2.720e-02,2.664
2.800e-02,2.664
2.880e-02,2.664
2.960e-02,2.648
3.040e-02,2.656
3.120e-02,2.648
3.200e-02,2.648
3.280e-02,2.64
3.360e-02,2.64
3.440e-02,2.648
3.520e-02,2.648
3.600e-02,2.648
3.680e-02,2.624
3.760e-02,2.616
3.840e-02,2.624
3.920e-02,2.64
4.000e-02,2.64
4.080e-02,2.648
4.160e-02,2.648
4.240e-02,2.656
4.320e-02,2.664
4.400e-02,2.664
4.480e-02,2.664
4.560e-02,2.664
4.640e-02,2.688
4.720e-02,2.696
4.800e-02,2.696
4.880e-02,2.688
4.960e-02,2.68
5.040e-02,2.672
5.120e-02,2.672
5.200e-02,2.672
5.280e-02,2.664
5.360e-02,2.664
5.440e-02,2.664
5.520e-02,2.664
5.600e-02,2.664
5.680e-02,2.648
5.760e-02,2.632
5.840e-02,2.648
5.920e-02,2.648
6.000e-02,2.664
6.080e-02,2.656
6.160e-02,2.664
6.240e-02,2.672
6.320e-02,2.672
6.400e-02,2.68
6.480e-02,2.672
6.560e-02,2.68
6.640e-02,2.688
6.720e-02,2.712
6.800e-02,2.712
6.880e-02,2.696
6.960e-02,2.696
7.040e-02,2.696
7.120e-02,2.688
7.200e-02,2.68
7.280e-02,2.68
7.360e-02,2.672
7.440e-02,2.672
7.520e-02,2.68
7.600e-02,2.672
7.680e-02,2.648
7.760e-02,2.648
7.840e-02,2.648
7.920e-02,2.656
8.000e-02,2.664
8.080e-02,2.672
8.160e-02,2.664
8.240e-02,2.68
8.320e-02,2.68
8.400e-02,2.688
8.480e-02,2.672
8.560e-02,2.68
8.640e-02,2.704
8.720e-02,2.712
8.800e-02,2.712
8.880e-02,2.704
8.960e-02,2.696
9.040e-02,2.688
9.120e-02,2.688
9.200e-02,2.68
9.280e-02,2.68
9.360e-02,2.672
9.440e-02,2.672
9.520e-02,2.672
9.600e-02,2.672
9.680e-02,2.656
9.760e-02,2.656
9.840e-02,2.656
9.920e-02,2.656
1.000e-01,2.664
1.008e-01,2.672
1.016e-01,2.672
1.024e-01,2.68
1.032e-01,2.68
1.040e-01,2.68
1.048e-01,2.688
1.056e-01,2.688
1.064e-01,2.696
1.072e-01,2.72
1.080e-01,2.712
1.088e-01,2.712
1.096e-01,2.704
1.104e-01,2.696
1.112e-01,2.696
1.120e-01,2.688
1.128e-01,2.68
1.136e-01,2.68
1.144e-01,2.688
1.152e-01,2.68
1.160e-01,2.688
1.168e-01,2.656
1.176e-01,2.648
1.184e-01,2.648
1.192e-01,2.656
1.200e-01,2.672
1.208e-01,2.672
1.216e-01,2.68
1.224e-01,2.68
1.232e-01,2.688
1.240e-01,2.688
1.248e-01,2.696
1.256e-01,2.688
1.264e-01,2.704
1.272e-01,2.712
1.280e-01,2.72
1.288e-01,2.712
1.296e-01,2.696
1.304e-01,2.688
1.312e-01,2.696
1.320e-01,2.688
1.328e-01,2.68
1.336e-01,2.68
1.344e-01,2.688
1.352e-01,2.68
1.360e-01,2.672
1.368e-01,2.664
1.376e-01,2.656
1.384e-01,2.648
1.392e-01,2.664
1.400e-01,2.672
1.408e-01,2.68
1.416e-01,2.688
1.424e-01,2.688
1.432e-01,2.696
1.440e-01,2.696
1.448e-01,2.688
1.456e-01,2.696
1.464e-01,2.712
1.472e-01,2.72
1.480e-01,2.72
1.488e-01,2.72
1.496e-01,2.704
1.504e-01,2.704
1.512e-01,2.696
1.520e-01,2.696
1.528e-01,2.696
1.536e-01,2.688
1.544e-01,2.688
1.552e-01,2.696
1.560e-01,2.688
1.568e-01,2.672
1.576e-01,2.664
1.584e-01,2.664
1.592e-01,2.672
1.600e-01,2.688
1.608e-01,2.696
1.616e-01,2.696
1.624e-01,2.696
1.632e-01,2.704
1.640e-01,2.696
1.648e-01,2.704
1.656e-01,2.704
1.664e-01,2.72
1.672e-01,2.728
1.680e-01,2.736
1.688e-01,2.728
1.696e-01,2.72
1.704e-01,2.712
1.712e-01,2.712
1.720e-01,2.712
1.728e-01,2.704
1.736e-01,2.704
1.744e-01,2.696
1.752e-01,2.696
1.760e-01,2.688
1.768e-01,2.68
1.776e-01,2.672
1.784e-01,2.672
1.792e-01,2.672
1.800e-01,2.688
1.808e-01,2.688
1.816e-01,2.688
1.824e-01,2.688
1.832e-01,2.688
1.840e-01,2.696
1.848e-01,2.688
1.856e-01,2.696
1.864e-01,2.696
1.872e-01,2.712
1.880e-01,2.712
1.888e-01,2.704
1.896e-01,2.688
1.904e-01,2.688
1.912e-01,2.68
1.920e-01,2.672
1.928e-01,2.664
1.936e-01,2.664
1.944e-01,2.664
1.952e-01,2.648
1.960e-01,2.648
1.968e-01,2.624
1.976e-01,2.616
1.984e-01,2.608
1.992e-01,2.616
2.000e-01,2.624
2.008e-01,2.616
2.016e-01,2.616
2.024e-01,2.624
2.032e-01,2.624
2.040e-01,2.616
2.048e-01,2.608
2.056e-01,2.6
2.064e-01,2.608
2.072e-01,2.632
2.080e-01,2.624
2.088e-01,2.608
2.096e-01,2.592
2.104e-01,2.584
2.112e-01,2.576
2.120e-01,2.568
2.128e-01,2.56
2.136e-01,2.552
2.144e-01,2.552
2.152e-01,2.536
2.160e-01,2.536
2.168e-01,2.504
2.176e-01,2.488
2.184e-01,2.48
2.192e-01,2.48
2.200e-01,2.496
2.208e-01,2.488
2.216e-01,2.488
2.224e-01,2.488
2.232e-01,2.48
2.240e-01,2.48
2.248e-01,2.472
2.256e-01,2.464
2.264e-01,2.464
2.272e-01,2.472
2.280e-01,2.48
2.288e-01,2.464
2.296e-01,2.448
2.304e-01,2.432
2.312e-01,2.424
2.320e-01,2.416
2.328e-01,2.408
2.336e-01,2.408
2.344e-01,2.392
2.352e-01,2.384
2.360e-01,2.392
2.368e-01,2.36
2.376e-01,2.344
2.384e-01,2.344
2.392e-01,2.344
2.400e-01,2.352
2.408e-01,2.352
2.416e-01,2.352
2.424e-01,2.352
2.432e-01,2.344
2.440e-01,2.344
2.448e-01,2.344
2.456e-01,2.344
2.464e-01,2.352
2.472e-01,2.368
2.480e-01,2.368
2.488e-01,2.344
2.496e-01,2.336
2.504e-01,2.328
2.512e-01,2.32
2.520e-01,2.312
2.528e-01,2.304
2.536e-01,2.296
2.544e-01,2.304
2.552e-01,2.296
2.560e-01,2.288
2.568e-01,2.272
2.576e-01,2.256
2.584e-01,2.256
2.592e-01,2.256
2.600e-01,2.264
2.608e-01,2.272
2.616e-01,2.28
2.624e-01,2.28
2.632e-01,2.28
2.640e-01,2.272
2.648e-01,2.272
2.656e-01,2.272
2.664e-01,2.28
2.672e-01,2.296
2.680e-01,2.296
2.688e-01,2.288
2.696e-01,2.272
2.704e-01,2.272
2.712e-01,2.264
2.720e-01,2.256
2.728e-01,2.248
2.736e-01,2.248
2.744e-01,2.248
2.752e-01,2.24
2.760e-01,2.24
2.768e-01,2.216
2.776e-01,2.208
2.784e-01,2.208
2.792e-01,2.216
2.800e-01,2.224
2.808e-01,2.232
2.816e-01,2.232
2.824e-01,2.232
2.832e-01,2.24
2.840e-01,2.232
2.848e-01,2.232
2.856e-01,2.232
2.864e-01,2.232
2.872e-01,2.256
2.880e-01,2.256
2.888e-01,2.256
2.896e-01,2.248
2.904e-01,2.232
2.912e-01,2.232
2.920e-01,2.216
2.928e-01,2.224
2.936e-01,2.216
2.944e-01,2.208
2.952e-01,2.216
2.960e-01,2.208
2.968e-01,2.192
2.976e-01,2.184
2.984e-01,2.176
2.992e-01,2.184
3.000e-01,2.2
3.008e-01,2.2
3.016e-01,2.2
3.024e-01,2.216
3.032e-01,2.208
3.040e-01,2.208
3.048e-01,2.208
3.056e-01,2.208
3.064e-01,2.216
3.072e-01,2.232
3.080e-01,2.232
3.088e-01,2.224
3.096e-01,2.216
3.104e-01,2.208
3.112e-01,2.2
3.120e-01,2.2
3.128e-01,2.192
3.136e-01,2.192
3.144e-01,2.184
3.152e-01,2.176
3.160e-01,2.184
3.168e-01,2.16
3.176e-01,2.152
3.184e-01,2.144
3.192e-01,2.152
3.200e-01,2.16
3.208e-01,2.168
3.216e-01,2.176
3.224e-01,2.168
3.232e-01,2.168
3.240e-01,2.168
3.248e-01,2.168
3.256e-01,2.16
3.264e-01,2.176
3.272e-01,2.184
3.280e-01,2.192
3.288e-01,2.184
3.296e-01,2.176
3.304e-01,2.168
3.312e-01,2.16
3.320e-01,2.152
3.328e-01,2.144
3.336e-01,2.136
3.344e-01,2.144
3.352e-01,2.136
3.360e-01,2.128
3.368e-01,2.104
3.376e-01,2.088
3.384e-01,2.088
3.392e-01,2.088
3.400e-01,2.104
3.408e-01,2.096
3.416e-01,2.104
3.424e-01,2.104
3.432e-01,2.104
3.440e-01,2.104
3.448e-01,2.088
3.456e-01,2.088
3.464e-01,2.096
3.472e-01,2.112
3.480e-01,2.112
3.488e-01,2.104
3.496e-01,2.08
3.504e-01,2.072
3.512e-01,2.064
3.520e-01,2.056
3.528e-01,2.048
