lab_data/15 - 40/TEK00009.CSV

Model,TBS1102C
Firmware Version,v2015-08-04-prequal4ch70_v1.3

Point Format,Y
Horizontal Units,S
Horizontal Scale,0.04
Sample Interval,0.00032
Filter Frequency,2e+08
Record Length,2000
Gating,0.0% to 100.0%
Probe Attenuation,1
Vertical Units,V
Vertical Offset,1
Vertical Scale,0.2
Label,
TIME,CH1
-2.605e-01,1.776
-2.602e-01,1.768
-2.598e-01,1.776
-2.595e-01,1.776
-2.592e-01,1.768
-2.589e-01,1.76
-2.586e-01,1.768
-2.582e-01,1.768
-2.579e-01,1.768
-2.576e-01,1.768
-2.573e-01,1.76
-2.570e-01,1.76
-2.566e-01,1.76
-2.563e-01,1.768
-2.560e-01,1.752
-2.557e-01,1.76
-2.554e-01,1.744
-2.550e-01,1.744
-2.547e-01,1.736
-2.544e-01,1.736
-2.541e-01,1.728
-2.538e-01,1.736
-2.534e-01,1.736
-2.531e-01,1.744
-2.528e-01,1.744
-2.525e-01,1.744
-2.522e-01,1.752
-2.518e-01,1.76
-2.515e-01,1.752
-2.512e-01,1.752
-2.509e-01,1.76
-2.506e-01,1.76
-2.502e-01,1.768
-2.499e-01,1.76
-2.496e-01,1.76
-2.493e-01,1.76
-2.490e-01,1.768
-2.486e-01,1.776
-2.483e-01,1.768
-2.480e-01,1.776
-2.477e-01,1.768
-2.474e-01,1.768
-2.470e-01,1.768
-2.467e-01,1.776
-2.464e-01,1.768
-2.461e-01,1.768
-2.458e-01,1.768
-2.454e-01,1.792
-2.451e-01,1.792
-2.448e-01,1.792
-2.445e-01,1.792
-2.442e-01,1.808
-2.438e-01,1.8
-2.435e-01,1.808
-2.432e-01,1.8
-2.429e-01,1.784
-2.426e-01,1.784
-2.422e-01,1.784
-2.419e-01,1.784
-2.416e-01,1.776
-2.413e-01,1.776
-2.410e-01,1.784
-2.406e-01,1.776
-2.403e-01,1.776
-2.400e-01,1.776
-2.397e-01,1.776
-2.394e-01,1.768
-2.390e-01,1.76
-2.387e-01,1.76
-2.384e-01,1.768
-2.381e-01,1.776
-2.378e-01,1.76
-2.374e-01,1.768
-2.371e-01,1.768
-2.368e-01,1.76
-2.365e-01,1.768
-2.362e-01,1.768
-2.358e-01,1.76
-2.355e-01,1.752
-2.352e-01,1.736
-2.349e-01,1.736
-2.346e-01,1.736
-2.342e-01,1.728
-2.339e-01,1.736
-2.336e-01,1.736
-2.333e-01,1.736
-2.330e-01,1.736
-2.326e-01,1.752
-2.323e-01,1.752
-2.320e-01,1.752
-2.317e-01,1.76
-2.314e-01,1.76
-2.310e-01,1.752
-2.307e-01,1.76
-2.304e-01,1.76
-2.301e-01,1.76
-2.298e-01,1.76
-2.294e-01,1.768
-2.291e-01,1.768
-2.288e-01,1.768
-2.285e-01,1.768
-2.282e-01,1.768
-2.278e-01,1.768
-2.275e-01,1.768
-2.272e-01,1.768
-2.269e-01,1.768
-2.266e-01,1.768
-2.262e-01,1.768
-2.259e-01,1.768
-2.256e-01,1.776
-2.253e-01,1.8
-2.250e-01,1.8
-2.246e-01,1.8
-2.243e-01,1.792
-2.240e-01,1.808
-2.237e-01,1.808
-2.234e-01,1.8
-2.230e-01,1.792
-2.227e-01,1.784
-2.224e-01,1.784
-2.221e-01,1.784
-2.218e-01,1.776
-2.214e-01,1.776
-2.211e-01,1.776
-2.208e-01,1.784
-2.205e-01,1.776
-2.202e-01,1.776
-2.198e-01,1.776
-2.195e-01,1.768
-2.192e-01,1.76
-2.189e-01,1.768
-2.186e-01,1.76
-2.182e-01,1.76
-2.179e-01,1.76
-2.176e-01,1.76
-2.173e-01,1.768
-2.170e-01,1.768
-2.166e-01,1.768
-2.163e-01,1.768
-2.160e-01,1.768
-2.157e-01,1.752
-2.154e-01,1.736
-2.150e-01,1.736
-2.147e-01,1.728
-2.144e-01,1.736
-2.141e-01,1.736
-2.138e-01,1.728
-2.134e-01,1.736
-2.131e-01,1.728
-2.128e-01,1.736
-2.125e-01,1.752
-2.122e-01,1.752
-2.118e-01,1.76
-2.115e-01,1.752
-2.112e-01,1.76
-2.109e-01,1.76
-2.106e-01,1.76
-2.102e-01,1.768
-2.099e-01,1.752
-2.096e-01,1.76
-2.093e-01,1.768
-2.090e-01,1.776
-2.086e-01,1.768
-2.083e-01,1.768
-2.080e-01,1.768
-2.077e-01,1.768
-2.074e-01,1.768
-2.070e-01,1.76
-2.067e-01,1.76
-2.064e-01,1.776
-2.061e-01,1.776
-2.058e-01,1.776
-2.054e-01,1.784
-2.051e-01,1.792
-2.048e-01,1.8
-2.045e-01,1.8
-2.042e-01,1.808
-2.038e-01,1.8
-2.035e-01,1.8
-2.032e-01,1.792
-2.029e-01,1.792
-2.026e-01,1.792
-2.022e-01,1.776
-2.019e-01,1.784
-2.016e-01,1.776
-2.013e-01,1.776
-2.010e-01,1.776
-2.006e-01,1.768
-2.003e-01,1.776
-2.000e-01,1.768
-1.997e-01,1.776
-1.994e-01,1.76
-1.990e-01,1.768
-1.987e-01,1.768
-1.984e-01,1.768
-1.981e-01,1.768
-1.978e-01,1.768
-1.974e-01,1.76
-1.971e-01,1.768
-1.968e-01,1.76
-1.965e-01,1.768
-1.962e-01,1.76
-1.958e-01,1.768
-1.955e-01,1.752
-1.952e-01,1.744
-1.949e-01,1.728
-1.946e-01,1.728
-1.942e-01,1.728
-1.939e-01,1.736
-1.936e-01,1.736
-1.933e-01,1.736
-1.930e-01,1.736
-1.926e-01,1.744
-1.923e-01,1.752
-1.920e-01,1.76
-1.917e-01,1.76
-1.914e-01,1.76
-1.910e-01,1.76
-1.907e-01,1.76
-1.904e-01,1.76
-1.901e-01,1.768
-1.898e-01,1.768
-1.894e-01,1.768
-1.891e-01,1.776
-1.888e-01,1.768
-1.885e-01,1.776
-1.882e-01,1.776
-1.878e-01,1.768
-1.875e-01,1.776
-1.872e-01,1.776
-1.869e-01,1.776
-1.866e-01,1.768
-1.862e-01,1.776
-1.859e-01,1.784
-1.856e-01,1.784
-1.853e-01,1.792
-1.850e-01,1.792
-1.846e-01,1.8
-1.843e-01,1.808
-1.840e-01,1.808
-1.837e-01,1.8
-1.834e-01,1.8
-1.830e-01,1.8
-1.827e-01,1.8
-1.824e-01,1.792
-1.821e-01,1.792
-1.818e-01,1.784
-1.814e-01,1.784
-1.811e-01,1.784
-1.808e-01,1.784
-1.805e-01,1.784
-1.802e-01,1.776
-1.798e-01,1.784
-1.795e-01,1.784
-1.792e-01,1.776
-1.789e-01,1.768
-1.786e-01,1.768
-1.782e-01,1.784
-1.779e-01,1.784
-1.776e-01,1.784
-1.773e-01,1.776
-1.770e-01,1.776
-1.766e-01,1.784
-1.763e-01,1.776
-1.760e-01,1.776
-1.757e-01,1.776
-1.754e-01,1.76
-1.750e-01,1.76
-1.747e-01,1.752
-1.744e-01,1.752
-1.741e-01,1.752
-1.738e-01,1.752
-1.734e-01,1.768
-1.731e-01,1.76
-1.728e-01,1.768
-1.725e-01,1.776
-1.722e-01,1.776
-1.718e-01,1.776
-1.715e-01,1.792
-1.712e-01,1.792
-1.709e-01,1.784
-1.706e-01,1.784
-1.702e-01,1.8
-1.699e-01,1.8
-1.696e-01,1.8
-1.693e-01,1.8
-1.690e-01,1.808
-1.686e-01,1.808
-1.683e-01,1.808
-1.680e-01,1.808
-1.677e-01,1.808
-1.674e-01,1.808
-1.670e-01,1.816
-1.667e-01,1.808
-1.664e-01,1.808
-1.661e-01,1.808
-1.658e-01,1.824
-1.654e-01,1.832
-1.651e-01,1.84
-1.648e-01,1.848
-1.645e-01,1.84
-1.642e-01,1.848
-1.638e-01,1.848
-1.635e-01,1.848
-1.632e-01,1.84
-1.629e-01,1.84
-1.626e-01,1.832
-1.622e-01,1.832
-1.619e-01,1.832
-1.616e-01,1.824
-1.613e-01,1.816
-1.610e-01,1.816
-1.606e-01,1.824
-1.603e-01,1.816
-1.600e-01,1.816
-1.597e-01,1.816
-1.594e-01,1.808
-1.590e-01,1.808
-1.587e-01,1.808
-1.584e-01,1.8
-1.581e-01,1.808
-1.578e-01,1.808
-1.574e-01,1.808
-1.571e-01,1.8
-1.568e-01,1.8
-1.565e-01,1.792
-1.562e-01,1.792
-1.558e-01,1.792
-1.555e-01,1.776
-1.552e-01,1.768
-1.549e-01,1.76
-1.546e-01,1.76
-1.542e-01,1.752
-1.539e-01,1.752
-1.536e-01,1.752
-1.533e-01,1.752
-1.530e-01,1.752
-1.526e-01,1.76
-1.523e-01,1.76
-1.520e-01,1.768
-1.517e-01,1.76
-1.514e-01,1.768
-1.510e-01,1.76
-1.507e-01,1.76
-1.504e-01,1.752
-1.501e-01,1.76
-1.498e-01,1.76
-1.494e-01,1.752
-1.491e-01,1.76
-1.488e-01,1.752
-1.485e-01,1.752
-1.482e-01,1.752
-1.478e-01,1.752
-1.475e-01,1.744
-1.472e-01,1.736
-1.469e-01,1.736
-1.466e-01,1.736
-1.462e-01,1.728
-1.459e-01,1.728
-1.456e-01,1.728
-1.453e-01,1.736
-1.450e-01,1.744
-1.446e-01,1.744
-1.443e-01,1.744
-1.440e-01,1.736
-1.437e-01,1.728
-1.434e-01,1.736
-1.430e-01,1.728
-1.427e-01,1.712
-1.424e-01,1.712
-1.421e-01,1.696
-1.418e-01,1.696
-1.414e-01,1.688
-1.411e-01,1.688
-1.408e-01,1.68
-1.405e-01,1.68
-1.402e-01,1.672
-1.398e-01,1.664
-1.395e-01,1.656
-1.392e-01,1.656
-1.389e-01,1.656
-1.386e-01,1.648
-1.382e-01,1.64
-1.379e-01,1.648
-1.376e-01,1.632
-1.373e-01,1.632
-1.370e-01,1.632
-1.366e-01,1.632
-1.363e-01,1.624
-1.360e-01,1.616
-1.357e-01,1.608
-1.354e-01,1.6
-1.350e-01,1.576
-1.347e-01,1.576
-1.344e-01,1.568
-1.341e-01,1.568
-1.338e-01,1.568
-1.334e-01,1.56
-1.331e-01,1.56
-1.328e-01,1.568
-1.325e-01,1.56
-1.322e-01,1.568
-1.318e-01,1.568
-1.315e-01,1.56
-1.312e-01,1.568
-1.309e-01,1.552
-1.306e-01,1.552
-1.302e-01,1.56
-1.299e-01,1.552
-1.296e-01,1.56
-1.293e-01,1.56
-1.290e-01,1.552
-1.286e-01,1.552
-1.283e-01,1.544
-1.280e-01,1.544
-1.277e-01,1.544
-1.274e-01,1.536
-1.270e-01,1.536
-1.267e-01,1.536
-1.264e-01,1.536
-1.261e-01,1.528
-1.258e-01,1.536
-1.254e-01,1.544
-1.251e-01,1.536
-1.248e-01,1.552
-1.245e-01,1.552
-1.242e-01,1.552
-1.238e-01,1.544
-1.235e-01,1.544
-1.232e-01,1.544
-1.229e-01,1.536
-1.226e-01,1.528
-1.222e-01,1.512
-1.219e-01,1.512
-1.216e-01,1.52
-1.213e-01,1.504
-1.210e-01,1.512
-1.206e-01,1.504
-1.203e-01,1.496
-1.200e-01,1.496
-1.197e-01,1.496
-1.194e-01,1.496
-1.190e-01,1.496
-1.187e-01,1.496
-1.184e-01,1.496
-1.181e-01,1.496
-1.178e-01,1.496
-1.174e-01,1.488
-1.171e-01,1.488
-1.168e-01,1.496
-1.165e-01,1.488
-1.162e-01,1.488
-1.158e-01,1.48
-1.155e-01,1.472
-1.152e-01,1.472
-1.149e-01,1.464
-1.146e-01,1.464
-1.142e-01,1.456
-1.139e-01,1.464
-1.136e-01,1.464
-1.133e-01,1.472
-1.130e-01,1.464
-1.126e-01,1.472
-1.123e-01,1.488
-1.120e-01,1.48
-1.117e-01,1.488
-1.114e-01,1.488
-1.110e-01,1.488
-1.107e-01,1.496
-1.104e-01,1.496
-1.101e-01,1.504
-1.098e-01,1.504
-1.094e-01,1.504
-1.091e-01,1.52
-1.088e-01,1.52
-1.085e-01,1.52
-1.082e-01,1.512
-1.078e-01,1.52
-1.075e-01,1.52
-1.072e-01,1.528
-1.069e-01,1.52
-1.066e-01,1.528
-1.062e-01,1.536
-1.059e-01,1.536
-1.056e-01,1.544
-1.053e-01,1.56
-1.050e-01,1.568
-1.046e-01,1.568
-1.043e-01,1.568
-1.040e-01,1.576
-1.037e-01,1.576
-1.034e-01,1.576
-1.030e-01,1.568
-1.027e-01,1.584
-1.024e-01,1.576
-1.021e-01,1.576
-1.018e-01,1.576
-1.014e-01,1.576
-1.011e-01,1.576
-1.008e-01,1.584
-1.005e-01,1.576
-1.002e-01,1.584
-9.984e-02,1.584
-9.952e-02,1.576
-9.920e-02,1.592
-9.888e-02,1.584
-9.856e-02,1.6
-9.824e-02,1.592
-9.792e-02,1.6
-9.760e-02,1.608
-9.728e-02,1.6
-9.696e-02,1.608
-9.664e-02,1.608
-9.632e-02,1.616
-9.600e-02,1.624
-9.568e-02,1.616
-9.536e-02,1.608
-9.504e-02,1.608
-9.472e-02,1.608
-9.440e-02,1.616
-9.408e-02,1.608
-9.376e-02,1.616
-9.344e-02,1.632
-9.312e-02,1.632
-9.280e-02,1.64
-9.248e-02,1.64
-9.216e-02,1.656
-9.184e-02,1.672
-9.152e-02,1.672
-9.120e-02,1.672
-9.088e-02,1.68
-9.056e-02,1.68
-9.024e-02,1.688
-8.992e-02,1.688
-8.960e-02,1.704
-8.928e-02,1.704
-8.896e-02,1.704
-8.864e-02,1.712
-8.832e-02,1.72
-8.800e-02,1.72
-8.768e-02,1.72
-8.736e-02,1.72
-8.704e-02,1.728
-8.672e-02,1.744
-8.640e-02,1.744
-8.608e-02,1.744
-8.576e-02,1.744
-8.544e-02,1.768
-8.512e-02,1.776
-8.480e-02,1.792
-8.448e-02,1.792
-8.416e-02,1.792
-8.384e-02,1.8
-8.352e-02,1.808
-8.320e-02,1.792
-8.288e-02,1.8
-8.256e-02,1.8
-8.224e-02,1.8
-8.192e-02,1.808
-8.160e-02,1.808
-8.128e-02,1.8
-8.096e-02,1.808
-8.064e-02,1.808
-8.032e-02,1.816
-8.000e-02,1.808
-7.968e-02,1.816
-7.936e-02,1.816
-7.904e-02,1.824
-7.872e-02,1.824
-7.840e-02,1.824
-7.808e-02,1.824
-7.776e-02,1.824
-7.744e-02,1.84
-7.712e-02,1.832
-7.680e-02,1.84
-7.648e-02,1.84
-7.616e-02,1.84
-7.584e-02,1.84
-7.552e-02,1.84
-7.520e-02,1.832
-7.488e-02,1.824
-7.456e-02,1.832
-7.424e-02,1.832
-7.392e-02,1.84
-7.360e-02,1.84
-7.328e-02,1.832
-7.296e-02,1.848
-7.264e-02,1.856
-7.232e-02,1.864
-7.200e-02,1.872
-7.168e-02,1.872
-7.136e-02,1.88
-7.104e-02,1.888
-7.072e-02,1.88
-7.040e-02,1.896
-7.008e-02,1.896
-6.976e-02,1.896
-6.944e-02,1.904
-6.912e-02,1.904
-6.880e-02,1.912
-6.848e-02,1.912
-6.816e-02,1.92
-6.784e-02,1.928
-6.752e-02,1.92
-6.720e-02,1.912
-6.688e-02,1.928
-6.656e-02,1.928
-6.624e-02,1.944
-6.592e-02,1.928
-6.560e-02,1.944
-6.528e-02,1.952
-6.496e-02,1.952
-6.464e-02,1.968
-6.432e-02,1.96
-6.400e-02,1.968
-6.368e-02,1.968
-6.336e-02,1.96
-6.304e-02,1.96
-6.272e-02,1.952
-6.240e-02,1.952
-6.208e-02,1.944
-6.176e-02,1.952
-6.144e-02,1.952
-6.112e-02,1.944
-6.080e-02,1.936
-6.048e-02,1.944
-6.016e-02,1.936
-5.984e-02,1.936
-5.952e-02,1.928
-5.920e-02,1.92
-5.888e-02,1.928
-5.856e-02,1.92
-5.824e-02,1.928
-5.792e-02,1.92
-5.760e-02,1.92
-5.728e-02,1.912
-5.696e-02,1.92
-5.664e-02,1.904
-5.632e-02,1.912
-5.600e-02,1.904
-5.568e-02,1.904
-5.536e-02,1.888
-5.504e-02,1.88
-5.472e-02,1.872
-5.440e-02,1.864
-5.408e-02,1.864
-5.376e-02,1.872
-5.344e-02,1.864
-5.312e-02,1.864
-5.280e-02,1.864
-5.248e-02,1.864
-5.216e-02,1.864
-5.184e-02,1.864
-5.152e-02,1.864
-5.120e-02,1.872
-5.088e-02,1.856
-5.056e-02,1.856
-5.024e-02,1.856
-4.992e-02,1.856
-4.960e-02,1.856
-4.928e-02,1.856
-4.896e-02,1.856
-4.864e-02,1.84
-4.832e-02,1.832
-4.800e-02,1.84
-4.768e-02,1.832
-4.736e-02,1.824
-4.704e-02,1.824
-4.672e-02,1.816
-4.640e-02,1.816
-4.608e-02,1.816
-4.576e-02,1.808
-4.544e-02,1.816
-4.512e-02,1.824
-4.480e-02,1.824
-4.448e-02,1.824
-4.416e-02,1.824
-4.384e-02,1.808
-4.352e-02,1.808
-4.320e-02,1.8
-4.288e-02,1.792
-4.256e-02,1.776
-4.224e-02,1.768
-4.192e-02,1.76
-4.160e-02,1.76
-4.128e-02,1.76
-4.096e-02,1.752
-4.064e-02,1.752
-4.032e-02,1.752
-4.000e-02,1.736
-3.968e-02,1.736
-3.936e-02,1.728
-3.904e-02,1.728
-3.872e-02,1.712
-3.840e-02,1.712
-3.808e-02,1.728
-3.776e-02,1.704
-3.744e-02,1.712
-3.712e-02,1.704
-3.680e-02,1.704
-3.648e-02,1.712
-3.616e-02,1.704
-3.584e-02,1.704
-3.552e-02,1.688
-3.520e-02,1.68
-3.488e-02,1.68
-3.456e-02,1.664
-3.424e-02,1.68
-3.392e-02,1.664
-3.360e-02,1.672
-3.328e-02,1.68
-3.296e-02,1.68
-3.264e-02,1.688
-3.232e-02,1.696
-3.200e-02,1.696
-3.168e-02,1.704
-3.136e-02,1.696
-3.104e-02,1.704
-3.072e-02,1.704
-3.040e-02,1.72
-3.008e-02,1.728
-2.976e-02,1.728
-2.944e-02,1.728
-2.912e-02,1.736
-2.880e-02,1.736
-2.848e-02,1.744
-2.816e-02,1.736
-2.784e-02,1.752
-2.752e-02,1.752
-2.720e-02,1.752
-2.688e-02,1.76
-2.656e-02,1.768
-2.624e-02,1.776
-2.592e-02,1.776
-2.560e-02,1.784
-2.528e-02,1.808
-2.496e-02,1.816
-2.464e-02,1.824
-2.432e-02,1.824
-2.400e-02,1.84
-2.368e-02,1.84
-2.336e-02,1.848
-2.304e-02,1.856
-2.272e-02,1.856
-2.240e-02,1.848
-2.208e-02,1.848
-2.176e-02,1.856
-2.144e-02,1.864
-2.112e-02,1.872
-2.080e-02,1.88
-2.048e-02,1.88
-2.016e-02,1.888
-1.984e-02,1.896
-1.952e-02,1.904
-1.920e-02,1.904
-1.888e-02,1.912
-1.856e-02,1.92
-1.824e-02,1.92
-1.792e-02,1.936
-1.760e-02,1.936
-1.728e-02,1.952
-1.696e-02,1.96
-1.664e-02,1.96
-1.632e-02,1.976
-1.600e-02,1.976
-1.568e-02,1.984
-1.536e-02,1.976
-1.504e-02,1.976
-1.472e-02,1.984
-1.440e-02,1.992
-1.408e-02,1.992
-1.376e-02,2
-1.344e-02,2.016
-1.312e-02,2.024
-1.280e-02,2.032
-1.248e-02,2.048
-1.216e-02,2.056
-1.184e-02,2.072
-1.152e-02,2.08
-1.120e-02,2.088
-1.088e-02,2.104
-1.056e-02,2.096
-1.024e-02,2.12
-9.920e-03,2.12
-9.600e-03,2.136
-9.280e-03,2.136
-8.960e-03,2.144
-8.640e-03,2.168
-8.320e-03,2.168
-8.000e-03,2.176
-7.680e-03,2.184
-7.360e-03,2.192
-7.040e-03,2.192
-6.720e-03,2.208
-6.400e-03,2.216
-6.080e-03,2.224
-5.760e-03,2.224
-5.440e-03,2.24
-5.120e-03,2.264
-4.800e-03,2.264
-4.480e-03,2.272
-4.160e-03,2.288
-3.840e-03,2.288
-3.520e-03,2.304
-3.200e-03,2.304
-2.880e-03,2.304
-2.560e-03,2.296
-2.240e-03,2.312
-1.920e-03,2.312
-1.600e-03,2.312
-1.280e-03,2.32
-9.600e-04,2.32
-6.400e-04,2.328
-3.200e-04,2.336
-5.143e-15,2.336
3.200e-04,2.344
6.400e-04,2.336
9.600e-04,2.336
1.280e-03,2.352
1.600e-03,2.352
1.920e-03,2.36
2.240e-03,2.36
2.560e-03,2.368
2.880e-03,2.376
3.200e-03,2.376
3.520e-03,2.384
3.840e-03,2.384
4.160e-03,2.392
4.480e-03,2.384
4.800e-03,2.376
5.120e-03,2.376
5.440e-03,2.376
5.760e-03,2.376
6.080e-03,2.384
6.400e-03,2.392
6.720e-03,2.4
7.040e-03,2.408
7.360e-03,2.416
7.680e-03,2.432
8.000e-03,2.44
8.320e-03,2.44
8.640e-03,2.44
8.960e-03,2.448
9.280e-03,2.448
9.600e-03,2.448
9.920e-03,2.464
1.024e-02,2.472
1.056e-02,2.48
1.088e-02,2.472
1.120e-02,2.48
1.152e-02,2.48
1.184e-02,2.48
1.216e-02,2.488
1.248e-02,2.496
1.280e-02,2.496
1.312e-02,2.496
1.344e-02,2.496
1.376e-02,2.512
1.408e-02,2.512
1.440e-02,2.512
1.472e-02,2.528
1.504e-02,2.536
1.536e-02,2.552
1.568e-02,2.552
1.600e-02,2.552
1.632e-02,2.552
1.664e-02,2.552
1.696e-02,2.56
1.728e-02,2.544
1.760e-02,2.552
1.792e-02,2.544
1.824e-02,2.544
1.856e-02,2.544
1.888e-02,2.544
1.920e-02,2.536
1.952e-02,2.536
1.984e-02,2.544
2.016e-02,2.552
2.048e-02,2.544
2.080e-02,2.544
2.112e-02,2.544
2.144e-02,2.552
2.176e-02,2.552
2.208e-02,2.544
2.240e-02,2.552
2.272e-02,2.544
2.304e-02,2.552
2.336e-02,2.552
2.368e-02,2.552
2.400e-02,2.552
2.432e-02,2.552
2.464e-02,2.544
2.496e-02,2.536
2.528e-02,2.528
2.560e-02,2.528
2.592e-02,2.528
2.624e-02,2.536
2.656e-02,2.544
2.688e-02,2.544
2.720e-02,2.544
2.752e-02,2.544
2.784e-02,2.56
2.816e-02,2.56
2.848e-02,2.56
2.880e-02,2.568
2.912e-02,2.568
2.944e-02,2.568
2.976e-02,2.568
3.008e-02,2.568
3.040e-02,2.568
3.072e-02,2.576
3.104e-02,2.584
3.136e-02,2.576
3.168e-02,2.584
3.200e-02,2.584
3.232e-02,2.584
3.264e-02,2.592
3.296e-02,2.584
3.328e-02,2.584
3.360e-02,2.584
3.392e-02,2.592
3.424e-02,2.592
3.456e-02,2.6
3.488e-02,2.608
3.520e-02,2.608
3.552e-02,2.624
3.584e-02,2.632
3.616e-02,2.616
3.648e-02,2.616
3.680e-02,2.608
3.712e-02,2.616
3.744e-02,2.608
3.776e-02,2.608
3.808e-02,2.608
3.840e-02,2.6
3.872e-02,2.6
3.904e-02,2.608
3.936e-02,2.6
3.968e-02,2.6
4.000e-02,2.6
4.032e-02,2.6
4.064e-02,2.6
4.096e-02,2.592
4.128e-02,2.592
4.160e-02,2.592
4.192e-02,2.592
4.224e-02,2.6
4.256e-02,2.592
4.288e-02,2.6
4.320e-02,2.592
4.352e-02,2.584
4.384e-02,2.592
4.416e-02,2.6
4.448e-02,2.584
4.480e-02,2.576
4.512e-02,2.576
4.544e-02,2.568
4.576e-02,2.56
4.608e-02,2.568
4.640e-02,2.568
4.672e-02,2.568
4.704e-02,2.576
4.736e-02,2.576
4.768e-02,2.584
4.800e-02,2.592
4.832e-02,2.592
4.864e-02,2.6
4.896e-02,2.592
4.928e-02,2.592
4.960e-02,2.6
4.992e-02,2.6
5.024e-02,2.608
5.056e-02,2.6
5.088e-02,2.6
5.120e-02,2.608
5.152e-02,2.608
5.184e-02,2.608
5.216e-02,2.608
5.248e-02,2.608
5.280e-02,2.608
5.312e-02,2.608
5.344e-02,2.616
5.376e-02,2.608
5.408e-02,2.616
5.440e-02,2.624
5.472e-02,2.64
5.504e-02,2.64
5.536e-02,2.648
5.568e-02,2.648
5.600e-02,2.648
5.632e-02,2.64
5.664e-02,2.648
5.696e-02,2.64
5.728e-02,2.64
5.760e-02,2.64
5.792e-02,2.632
5.824e-02,2.624
5.856e-02,2.624
5.888e-02,2.632
5.920e-02,2.624
5.952e-02,2.624
5.984e-02,2.632
6.016e-02,2.624
6.048e-02,2.624
6.080e-02,2.616
6.112e-02,2.616
6.144e-02,2.616
6.176e-02,2.616
6.208e-02,2.616
6.240e-02,2.624
6.272e-02,2.624
6.304e-02,2.616
6.336e-02,2.624
6.368e-02,2.624
6.400e-02,2.624
6.432e-02,2.624
6.464e-02,2.608
6.496e-02,2.6
6.528e-02,2.592
6.560e-02,2.592
6.592e-02,2.592
6.624e-02,2.6
6.656e-02,2.592
6.688e-02,2.6
6.720e-02,2.6
6.752e-02,2.608
6.784e-02,2.608
6.816e-02,2.616
6.848e-02,2.616
6.880e-02,2.616
6.912e-02,2.616
6.944e-02,2.616
6.976e-02,2.616
7.008e-02,2.608
7.040e-02,2.624
7.072e-02,2.624
7.104e-02,2.624
7.136e-02,2.624
7.168e-02,2.624
7.200e-02,2.624
7.232e-02,2.608
7.264e-02,2.608
7.296e-02,2.616
7.328e-02,2.616
7.360e-02,2.624
7.392e-02,2.608
7.424e-02,2.608
7.456e-02,2.624
7.488e-02,2.632
7.520e-02,2.632
7.552e-02,2.632
7.584e-02,2.632
7.616e-02,2.624
7.648e-02,2.632
7.680e-02,2.616
7.712e-02,2.616
7.744e-02,2.616
7.776e-02,2.608
7.808e-02,2.6
7.840e-02,2.592
7.872e-02,2.584
7.904e-02,2.584
7.936e-02,2.576
7.968e-02,2.584
8.000e-02,2.576
8.032e-02,2.568
8.064e-02,2.56
8.096e-02,2.552
8.128e-02,2.552
8.160e-02,2.544
8.192e-02,2.544
8.224e-02,2.536
8.256e-02,2.536
8.288e-02,2.536
8.320e-02,2.528
8.352e-02,2.52
8.384e-02,2.52
8.416e-02,2.512
8.448e-02,2.504
8.480e-02,2.488
8.512e-02,2.472
8.544e-02,2.472
8.576e-02,2.472
8.608e-02,2.464
8.640e-02,2.464
8.672e-02,2.456
8.704e-02,2.464
8.736e-02,2.456
8.768e-02,2.464
8.800e-02,2.456
8.832e-02,2.464
8.864e-02,2.448
8.896e-02,2.448
8.928e-02,2.456
8.960e-02,2.44
8.992e-02,2.44
9.024e-02,2.432
9.056e-02,2.44
9.088e-02,2.432
9.120e-02,2.432
9.152e-02,2.424
9.184e-02,2.416
9.216e-02,2.416
9.248e-02,2.408
9.280e-02,2.408
9.312e-02,2.392
9.344e-02,2.4
9.376e-02,2.392
9.408e-02,2.4
9.440e-02,2.392
9.472e-02,2.4
9.504e-02,2.408
9.536e-02,2.4
9.568e-02,2.392
9.600e-02,2.392
9.632e-02,2.384
9.664e-02,2.384
9.696e-02,2.384
9.728e-02,2.376
9.760e-02,2.36
9.792e-02,2.352
9.824e-02,2.344
9.856e-02,2.344
9.888e-02,2.344
9.920e-02,2.336
9.952e-02,2.328
9.984e-02,2.32
1.002e-01,2.328
1.005e-01,2.32
1.008e-01,2.312
1.011e-01,2.304
1.014e-01,2.304
1.018e-01,2.296
1.021e-01,2.296
1.024e-01,2.296
1.027e-01,2.288
1.030e-01,2.288
1.034e-01,2.28
1.037e-01,2.288
1.040e-01,2.272
1.043e-01,2.272
1.046e-01,2.264
1.050e-01,2.248
1.053e-01,2.24
1.056e-01,2.24
1.059e-01,2.24
1.062e-01,2.232
1.066e-01,2.24
1.069e-01,2.232
1.072e-01,2.232
1.075e-01,2.232
1.078e-01,2.24
1.082e-01,2.24
1.085e-01,2.248
1.088e-01,2.24
1.091e-01,2.232
1.094e-01,2.24
1.098e-01,2.232
1.101e-01,2.232
1.104e-01,2.232
1.107e-01,2.232
1.110e-01,2.24
1.114e-01,2.232
1.117e-01,2.232
1.120e-01,2.232
1.123e-01,2.232
1.126e-01,2.232
1.130e-01,2.224
1.133e-01,2.224
1.136e-01,2.224
1.139e-01,2.224
1.142e-01,2.216
1.146e-01,2.224
1.149e-01,2.248
1.152e-01,2.248
1.155e-01,2.248
1.158e-01,2.248
1.162e-01,2.24
1.165e-01,2.248
1.168e-01,2.232
1.171e-01,2.232
1.174e-01,2.232
1.178e-01,2.224
1.181e-01,2.216
1.184e-01,2.216
1.187e-01,2.216
1.190e-01,2.216
1.194e-01,2.2
1.197e-01,2.208
1.200e-01,2.2
1.203e-01,2.2
1.206e-01,2.192
1.210e-01,2.192
1.213e-01,2.192
1.216e-01,2.184
1.219e-01,2.184
1.222e-01,2.192
1.226e-01,2.184
1.229e-01,2.176
